*%debug

READ    ../../fn/f11cross   f11sl_ dov1k dou1

finish 

READ    ../../fn/f11cross   f11sl_ dov1k dou1



CORRELATION ../../fn/f10cross ../../fn/f11cross vccf.mes  
0 2 2
0 4 4
0 6 6
2 2 2
2 2 4
2 4 2
2 4 4
2 4 6
2 6 4
2 6 6
2 6 8
4 4 2
4 4 4
4 4 6
4 4 8
4 6 2
4 6 4
4 6 6
4 6 8
4 6 10
6 6 2
6 6 4
6 6 6
6 6 8
6 6 10
6 6 12
1 1 2
1 3 2
1 3 4
1 5 4
1 5 6
3 3 2
3 3 4
3 3 6
3 5 2
3 5 4
3 5 6
3 5 8
5 5 2
5 5 4
5 5 6
5 5 8
5 5 10
END

FINISH
