Wed Aug 22 22:12:30 NZST 2012
Current directory:
/home/mfr24/calculations/f10/ho/ky3f10-hyperfine
Log file:
712.nspectrum.log
Executable file:
-rwxr-xr-x. 1 mfr24 users 26642 Aug 22 22:11 /home/mfr24/linuxemp/bin/nspectrum.exe
Input file:
-rw-r--r--. 1 mfr24 users 300 Aug 22 22:08 spectrum_ed_5I7.dat


Spectrum Plotting Program. 21 Mar 2011
ARRAYSIZE 280000
 ? for help

> 
> 
> 
> Start readdatafile...
Reading from file : hoc4v_ed.plt
Reading inputset  : 1
ED intensity
CREATED   22 Aug 2012 22:06:41  BY INTEN 08 Oct 01
input set is now 0
5I8
5I7
nigps : 24
nfgps : 52
emin is 5017.759609, emax is 5321.083038
ISOTROPIC
AXIAL
SIGMA
PI
ROT_ISOTROPIC
ROT_AXIAL
Finished reading data file

> 
> 
> 
> 
> 
> 
> 
> In runplot...
WRITING HARDCOPY TO speceded5I7_4k_all.ps
In initializeplot...
using specified range
In writeplotfiles...
In writecommands...
Wait for plot...
In usecommandout...
Executing: gnuplot commands.gp_

> 
> 
> 
> 
> In runplot...
WRITING HARDCOPY TO speceded5I7_10k_all.ps
In initializeplot...
using specified range
In writeplotfiles...
In writecommands...
Wait for plot...
In usecommandout...
Executing: gnuplot commands.gp_

> 
> 
> 
> 
> 
> In runplot...
WRITING HARDCOPY TO speceded5I7_30k_all.ps
In initializeplot...
using specified range
In writeplotfiles...
In writecommands...
Wait for plot...
In usecommandout...
Executing: gnuplot commands.gp_

> 
> 
> QUITTING, BYE...
0.341u 0.028s 0:00.38 94.7%	0+0k 0+2568io 0pf+0w
