%!PS-Adobe-2.0
%%Title: speced5I7_10k_all.ps
%%Creator: gnuplot 4.0 patchlevel 0
%%CreationDate: Wed Nov 21 15:38:51 2012
%%DocumentFonts: (atend)
%%BoundingBox: 50 50 554 770
%%Orientation: Landscape
%%Pages: (atend)
%%EndComments
/gnudict 256 dict def
gnudict begin
/Color false def
/Solid false def
/gnulinewidth 5.000 def
/userlinewidth gnulinewidth def
/vshift -46 def
/dl {10.0 mul} def
/hpt_ 31.5 def
/vpt_ 31.5 def
/hpt hpt_ def
/vpt vpt_ def
/Rounded false def
/M {moveto} bind def
/L {lineto} bind def
/R {rmoveto} bind def
/V {rlineto} bind def
/N {newpath moveto} bind def
/C {setrgbcolor} bind def
/f {rlineto fill} bind def
/vpt2 vpt 2 mul def
/hpt2 hpt 2 mul def
/Lshow { currentpoint stroke M
  0 vshift R show } def
/Rshow { currentpoint stroke M
  dup stringwidth pop neg vshift R show } def
/Cshow { currentpoint stroke M
  dup stringwidth pop -2 div vshift R show } def
/UP { dup vpt_ mul /vpt exch def hpt_ mul /hpt exch def
  /hpt2 hpt 2 mul def /vpt2 vpt 2 mul def } def
/DL { Color {setrgbcolor Solid {pop []} if 0 setdash }
 {pop pop pop 0 setgray Solid {pop []} if 0 setdash} ifelse } def
/BL { stroke userlinewidth 2 mul setlinewidth
      Rounded { 1 setlinejoin 1 setlinecap } if } def
/AL { stroke userlinewidth 2 div setlinewidth
      Rounded { 1 setlinejoin 1 setlinecap } if } def
/UL { dup gnulinewidth mul /userlinewidth exch def
      dup 1 lt {pop 1} if 10 mul /udl exch def } def
/PL { stroke userlinewidth setlinewidth
      Rounded { 1 setlinejoin 1 setlinecap } if } def
/LTw { PL [] 1 setgray } def
/LTb { BL [] 0 0 0 DL } def
/LTa { AL [1 udl mul 2 udl mul] 0 setdash 0 0 0 setrgbcolor } def
/LT0 { PL [] 1 0 0 DL } def
/LT1 { PL [4 dl 2 dl] 0 1 0 DL } def
/LT2 { PL [2 dl 3 dl] 0 0 1 DL } def
/LT3 { PL [1 dl 1.5 dl] 1 0 1 DL } def
/LT4 { PL [5 dl 2 dl 1 dl 2 dl] 0 1 1 DL } def
/LT5 { PL [4 dl 3 dl 1 dl 3 dl] 1 1 0 DL } def
/LT6 { PL [2 dl 2 dl 2 dl 4 dl] 0 0 0 DL } def
/LT7 { PL [2 dl 2 dl 2 dl 2 dl 2 dl 4 dl] 1 0.3 0 DL } def
/LT8 { PL [2 dl 2 dl 2 dl 2 dl 2 dl 2 dl 2 dl 4 dl] 0.5 0.5 0.5 DL } def
/Pnt { stroke [] 0 setdash
   gsave 1 setlinecap M 0 0 V stroke grestore } def
/Dia { stroke [] 0 setdash 2 copy vpt add M
  hpt neg vpt neg V hpt vpt neg V
  hpt vpt V hpt neg vpt V closepath stroke
  Pnt } def
/Pls { stroke [] 0 setdash vpt sub M 0 vpt2 V
  currentpoint stroke M
  hpt neg vpt neg R hpt2 0 V stroke
  } def
/Box { stroke [] 0 setdash 2 copy exch hpt sub exch vpt add M
  0 vpt2 neg V hpt2 0 V 0 vpt2 V
  hpt2 neg 0 V closepath stroke
  Pnt } def
/Crs { stroke [] 0 setdash exch hpt sub exch vpt add M
  hpt2 vpt2 neg V currentpoint stroke M
  hpt2 neg 0 R hpt2 vpt2 V stroke } def
/TriU { stroke [] 0 setdash 2 copy vpt 1.12 mul add M
  hpt neg vpt -1.62 mul V
  hpt 2 mul 0 V
  hpt neg vpt 1.62 mul V closepath stroke
  Pnt  } def
/Star { 2 copy Pls Crs } def
/BoxF { stroke [] 0 setdash exch hpt sub exch vpt add M
  0 vpt2 neg V  hpt2 0 V  0 vpt2 V
  hpt2 neg 0 V  closepath fill } def
/TriUF { stroke [] 0 setdash vpt 1.12 mul add M
  hpt neg vpt -1.62 mul V
  hpt 2 mul 0 V
  hpt neg vpt 1.62 mul V closepath fill } def
/TriD { stroke [] 0 setdash 2 copy vpt 1.12 mul sub M
  hpt neg vpt 1.62 mul V
  hpt 2 mul 0 V
  hpt neg vpt -1.62 mul V closepath stroke
  Pnt  } def
/TriDF { stroke [] 0 setdash vpt 1.12 mul sub M
  hpt neg vpt 1.62 mul V
  hpt 2 mul 0 V
  hpt neg vpt -1.62 mul V closepath fill} def
/DiaF { stroke [] 0 setdash vpt add M
  hpt neg vpt neg V hpt vpt neg V
  hpt vpt V hpt neg vpt V closepath fill } def
/Pent { stroke [] 0 setdash 2 copy gsave
  translate 0 hpt M 4 {72 rotate 0 hpt L} repeat
  closepath stroke grestore Pnt } def
/PentF { stroke [] 0 setdash gsave
  translate 0 hpt M 4 {72 rotate 0 hpt L} repeat
  closepath fill grestore } def
/Circle { stroke [] 0 setdash 2 copy
  hpt 0 360 arc stroke Pnt } def
/CircleF { stroke [] 0 setdash hpt 0 360 arc fill } def
/C0 { BL [] 0 setdash 2 copy moveto vpt 90 450  arc } bind def
/C1 { BL [] 0 setdash 2 copy        moveto
       2 copy  vpt 0 90 arc closepath fill
               vpt 0 360 arc closepath } bind def
/C2 { BL [] 0 setdash 2 copy moveto
       2 copy  vpt 90 180 arc closepath fill
               vpt 0 360 arc closepath } bind def
/C3 { BL [] 0 setdash 2 copy moveto
       2 copy  vpt 0 180 arc closepath fill
               vpt 0 360 arc closepath } bind def
/C4 { BL [] 0 setdash 2 copy moveto
       2 copy  vpt 180 270 arc closepath fill
               vpt 0 360 arc closepath } bind def
/C5 { BL [] 0 setdash 2 copy moveto
       2 copy  vpt 0 90 arc
       2 copy moveto
       2 copy  vpt 180 270 arc closepath fill
               vpt 0 360 arc } bind def
/C6 { BL [] 0 setdash 2 copy moveto
      2 copy  vpt 90 270 arc closepath fill
              vpt 0 360 arc closepath } bind def
/C7 { BL [] 0 setdash 2 copy moveto
      2 copy  vpt 0 270 arc closepath fill
              vpt 0 360 arc closepath } bind def
/C8 { BL [] 0 setdash 2 copy moveto
      2 copy vpt 270 360 arc closepath fill
              vpt 0 360 arc closepath } bind def
/C9 { BL [] 0 setdash 2 copy moveto
      2 copy  vpt 270 450 arc closepath fill
              vpt 0 360 arc closepath } bind def
/C10 { BL [] 0 setdash 2 copy 2 copy moveto vpt 270 360 arc closepath fill
       2 copy moveto
       2 copy vpt 90 180 arc closepath fill
               vpt 0 360 arc closepath } bind def
/C11 { BL [] 0 setdash 2 copy moveto
       2 copy  vpt 0 180 arc closepath fill
       2 copy moveto
       2 copy  vpt 270 360 arc closepath fill
               vpt 0 360 arc closepath } bind def
/C12 { BL [] 0 setdash 2 copy moveto
       2 copy  vpt 180 360 arc closepath fill
               vpt 0 360 arc closepath } bind def
/C13 { BL [] 0 setdash  2 copy moveto
       2 copy  vpt 0 90 arc closepath fill
       2 copy moveto
       2 copy  vpt 180 360 arc closepath fill
               vpt 0 360 arc closepath } bind def
/C14 { BL [] 0 setdash 2 copy moveto
       2 copy  vpt 90 360 arc closepath fill
               vpt 0 360 arc } bind def
/C15 { BL [] 0 setdash 2 copy vpt 0 360 arc closepath fill
               vpt 0 360 arc closepath } bind def
/Rec   { newpath 4 2 roll moveto 1 index 0 rlineto 0 exch rlineto
       neg 0 rlineto closepath } bind def
/Square { dup Rec } bind def
/Bsquare { vpt sub exch vpt sub exch vpt2 Square } bind def
/S0 { BL [] 0 setdash 2 copy moveto 0 vpt rlineto BL Bsquare } bind def
/S1 { BL [] 0 setdash 2 copy vpt Square fill Bsquare } bind def
/S2 { BL [] 0 setdash 2 copy exch vpt sub exch vpt Square fill Bsquare } bind def
/S3 { BL [] 0 setdash 2 copy exch vpt sub exch vpt2 vpt Rec fill Bsquare } bind def
/S4 { BL [] 0 setdash 2 copy exch vpt sub exch vpt sub vpt Square fill Bsquare } bind def
/S5 { BL [] 0 setdash 2 copy 2 copy vpt Square fill
       exch vpt sub exch vpt sub vpt Square fill Bsquare } bind def
/S6 { BL [] 0 setdash 2 copy exch vpt sub exch vpt sub vpt vpt2 Rec fill Bsquare } bind def
/S7 { BL [] 0 setdash 2 copy exch vpt sub exch vpt sub vpt vpt2 Rec fill
       2 copy vpt Square fill
       Bsquare } bind def
/S8 { BL [] 0 setdash 2 copy vpt sub vpt Square fill Bsquare } bind def
/S9 { BL [] 0 setdash 2 copy vpt sub vpt vpt2 Rec fill Bsquare } bind def
/S10 { BL [] 0 setdash 2 copy vpt sub vpt Square fill 2 copy exch vpt sub exch vpt Square fill
       Bsquare } bind def
/S11 { BL [] 0 setdash 2 copy vpt sub vpt Square fill 2 copy exch vpt sub exch vpt2 vpt Rec fill
       Bsquare } bind def
/S12 { BL [] 0 setdash 2 copy exch vpt sub exch vpt sub vpt2 vpt Rec fill Bsquare } bind def
/S13 { BL [] 0 setdash 2 copy exch vpt sub exch vpt sub vpt2 vpt Rec fill
       2 copy vpt Square fill Bsquare } bind def
/S14 { BL [] 0 setdash 2 copy exch vpt sub exch vpt sub vpt2 vpt Rec fill
       2 copy exch vpt sub exch vpt Square fill Bsquare } bind def
/S15 { BL [] 0 setdash 2 copy Bsquare fill Bsquare } bind def
/D0 { gsave translate 45 rotate 0 0 S0 stroke grestore } bind def
/D1 { gsave translate 45 rotate 0 0 S1 stroke grestore } bind def
/D2 { gsave translate 45 rotate 0 0 S2 stroke grestore } bind def
/D3 { gsave translate 45 rotate 0 0 S3 stroke grestore } bind def
/D4 { gsave translate 45 rotate 0 0 S4 stroke grestore } bind def
/D5 { gsave translate 45 rotate 0 0 S5 stroke grestore } bind def
/D6 { gsave translate 45 rotate 0 0 S6 stroke grestore } bind def
/D7 { gsave translate 45 rotate 0 0 S7 stroke grestore } bind def
/D8 { gsave translate 45 rotate 0 0 S8 stroke grestore } bind def
/D9 { gsave translate 45 rotate 0 0 S9 stroke grestore } bind def
/D10 { gsave translate 45 rotate 0 0 S10 stroke grestore } bind def
/D11 { gsave translate 45 rotate 0 0 S11 stroke grestore } bind def
/D12 { gsave translate 45 rotate 0 0 S12 stroke grestore } bind def
/D13 { gsave translate 45 rotate 0 0 S13 stroke grestore } bind def
/D14 { gsave translate 45 rotate 0 0 S14 stroke grestore } bind def
/D15 { gsave translate 45 rotate 0 0 S15 stroke grestore } bind def
/DiaE { stroke [] 0 setdash vpt add M
  hpt neg vpt neg V hpt vpt neg V
  hpt vpt V hpt neg vpt V closepath stroke } def
/BoxE { stroke [] 0 setdash exch hpt sub exch vpt add M
  0 vpt2 neg V hpt2 0 V 0 vpt2 V
  hpt2 neg 0 V closepath stroke } def
/TriUE { stroke [] 0 setdash vpt 1.12 mul add M
  hpt neg vpt -1.62 mul V
  hpt 2 mul 0 V
  hpt neg vpt 1.62 mul V closepath stroke } def
/TriDE { stroke [] 0 setdash vpt 1.12 mul sub M
  hpt neg vpt 1.62 mul V
  hpt 2 mul 0 V
  hpt neg vpt -1.62 mul V closepath stroke } def
/PentE { stroke [] 0 setdash gsave
  translate 0 hpt M 4 {72 rotate 0 hpt L} repeat
  closepath stroke grestore } def
/CircE { stroke [] 0 setdash 
  hpt 0 360 arc stroke } def
/Opaque { gsave closepath 1 setgray fill grestore 0 setgray closepath } def
/DiaW { stroke [] 0 setdash vpt add M
  hpt neg vpt neg V hpt vpt neg V
  hpt vpt V hpt neg vpt V Opaque stroke } def
/BoxW { stroke [] 0 setdash exch hpt sub exch vpt add M
  0 vpt2 neg V hpt2 0 V 0 vpt2 V
  hpt2 neg 0 V Opaque stroke } def
/TriUW { stroke [] 0 setdash vpt 1.12 mul add M
  hpt neg vpt -1.62 mul V
  hpt 2 mul 0 V
  hpt neg vpt 1.62 mul V Opaque stroke } def
/TriDW { stroke [] 0 setdash vpt 1.12 mul sub M
  hpt neg vpt 1.62 mul V
  hpt 2 mul 0 V
  hpt neg vpt -1.62 mul V Opaque stroke } def
/PentW { stroke [] 0 setdash gsave
  translate 0 hpt M 4 {72 rotate 0 hpt L} repeat
  Opaque stroke grestore } def
/CircW { stroke [] 0 setdash 
  hpt 0 360 arc Opaque stroke } def
/BoxFill { gsave Rec 1 setgray fill grestore } def
/BoxColFill {
  gsave Rec
  /Fillden exch def
  currentrgbcolor
  /ColB exch def /ColG exch def /ColR exch def
  /ColR ColR Fillden mul Fillden sub 1 add def
  /ColG ColG Fillden mul Fillden sub 1 add def
  /ColB ColB Fillden mul Fillden sub 1 add def
  ColR ColG ColB setrgbcolor
  fill grestore } def
%
% PostScript Level 1 Pattern Fill routine
% Usage: x y w h s a XX PatternFill
%	x,y = lower left corner of box to be filled
%	w,h = width and height of box
%	  a = angle in degrees between lines and x-axis
%	 XX = 0/1 for no/yes cross-hatch
%
/PatternFill { gsave /PFa [ 9 2 roll ] def
    PFa 0 get PFa 2 get 2 div add PFa 1 get PFa 3 get 2 div add translate
    PFa 2 get -2 div PFa 3 get -2 div PFa 2 get PFa 3 get Rec
    gsave 1 setgray fill grestore clip
    currentlinewidth 0.5 mul setlinewidth
    /PFs PFa 2 get dup mul PFa 3 get dup mul add sqrt def
    0 0 M PFa 5 get rotate PFs -2 div dup translate
	0 1 PFs PFa 4 get div 1 add floor cvi
	{ PFa 4 get mul 0 M 0 PFs V } for
    0 PFa 6 get ne {
	0 1 PFs PFa 4 get div 1 add floor cvi
	{ PFa 4 get mul 0 2 1 roll M PFs 0 V } for
    } if
    stroke grestore } def
%
/Symbol-Oblique /Symbol findfont [1 0 .167 1 0 0] makefont
dup length dict begin {1 index /FID eq {pop pop} {def} ifelse} forall
currentdict end definefont pop
end
%%EndProlog
%%Page: 1 1
gnudict begin
gsave
50 50 translate
0.100 0.100 scale
90 rotate
0 -5040 translate
0 setgray
newpath
(Helvetica) findfont 140 scalefont setfont
1.000 UL
LTb
882 560 M
63 0 V
6017 0 R
-63 0 V
798 560 M
gsave 0 setgray
( 0) Rshow
grestore
1.000 UL
LTb
882 1140 M
63 0 V
6017 0 R
-63 0 V
-6101 0 R
gsave 0 setgray
( 0.001) Rshow
grestore
1.000 UL
LTb
882 1720 M
63 0 V
6017 0 R
-63 0 V
-6101 0 R
gsave 0 setgray
( 0.002) Rshow
grestore
1.000 UL
LTb
882 2300 M
63 0 V
6017 0 R
-63 0 V
-6101 0 R
gsave 0 setgray
( 0.003) Rshow
grestore
1.000 UL
LTb
882 2880 M
63 0 V
6017 0 R
-63 0 V
-6101 0 R
gsave 0 setgray
( 0.004) Rshow
grestore
1.000 UL
LTb
882 3460 M
63 0 V
6017 0 R
-63 0 V
-6101 0 R
gsave 0 setgray
( 0.005) Rshow
grestore
1.000 UL
LTb
882 4040 M
63 0 V
6017 0 R
-63 0 V
-6101 0 R
gsave 0 setgray
( 0.006) Rshow
grestore
1.000 UL
LTb
882 4620 M
63 0 V
6017 0 R
-63 0 V
-6101 0 R
gsave 0 setgray
( 0.007) Rshow
grestore
1.000 UL
LTb
1490 560 M
0 63 V
0 3997 R
0 -63 V
0 -4137 R
gsave 0 setgray
( 5060) Cshow
grestore
1.000 UL
LTb
2706 560 M
0 63 V
0 3997 R
0 -63 V
0 -4137 R
gsave 0 setgray
( 5080) Cshow
grestore
1.000 UL
LTb
3922 560 M
0 63 V
0 3997 R
0 -63 V
0 -4137 R
gsave 0 setgray
( 5100) Cshow
grestore
1.000 UL
LTb
5138 560 M
0 63 V
0 3997 R
0 -63 V
0 -4137 R
gsave 0 setgray
( 5120) Cshow
grestore
1.000 UL
LTb
6354 560 M
0 63 V
0 3997 R
0 -63 V
0 -4137 R
gsave 0 setgray
( 5140) Cshow
grestore
1.000 UL
LTb
1.000 UL
LTb
882 560 M
6080 0 V
0 4060 V
-6080 0 V
882 560 L
LTb
140 2590 M
gsave 0 setgray
currentpoint gsave translate 90 rotate 0 0 M
(dipole strength) Cshow
grestore
grestore
LTb
3922 210 M
gsave 0 setgray
(energy \(cm-1\)   \(temp= 10.00, fwhm=  0.05\)) Cshow
grestore
LTb
3922 4830 M
gsave 0 setgray
(ED intensity.          \(5I8 -> 5I7\)) Cshow
grestore
210 70 M
gsave 0 setgray
(Wed Nov 21 15:38:51 2012) Lshow
grestore
1.000 UP
1.000 UL
LT0
LTb
6311 4487 M
gsave 0 setgray
(ISOTROPIC) Rshow
grestore
LT0
6395 4487 M
399 0 V
882 560 M
3 0 V
3 0 V
3 0 V
3 0 V
3 0 V
3 0 V
3 0 V
3 0 V
3 0 V
3 0 V
3 0 V
3 0 V
3 0 V
3 0 V
3 0 V
3 0 V
2 0 V
3 0 V
3 0 V
3 0 V
3 0 V
3 0 V
3 0 V
3 0 V
3 0 V
3 0 V
3 0 V
3 0 V
3 0 V
3 0 V
3 0 V
3 0 V
3 0 V
3 0 V
3 0 V
3 0 V
3 0 V
3 0 V
3 0 V
3 0 V
3 0 V
3 0 V
3 0 V
3 0 V
3 0 V
3 0 V
3 0 V
3 0 V
3 0 V
3 0 V
2 0 V
3 0 V
3 0 V
3 0 V
3 0 V
3 0 V
3 0 V
3 0 V
3 0 V
3 0 V
3 0 V
3 0 V
3 0 V
3 0 V
3 0 V
3 0 V
3 0 V
3 0 V
3 0 V
3 0 V
3 0 V
3 0 V
3 0 V
3 0 V
3 0 V
3 0 V
3 0 V
3 0 V
3 0 V
3 0 V
3 0 V
3 0 V
3 0 V
2 0 V
3 0 V
3 0 V
3 0 V
3 0 V
3 0 V
3 0 V
3 0 V
3 0 V
3 0 V
3 0 V
3 0 V
3 0 V
3 0 V
3 0 V
3 0 V
3 0 V
3 0 V
3 0 V
stroke
1185 560 M
3 0 V
3 0 V
3 0 V
3 0 V
3 0 V
3 0 V
3 0 V
3 0 V
3 0 V
3 0 V
3 0 V
3 0 V
3 0 V
3 0 V
3 0 V
2 0 V
3 0 V
3 0 V
3 0 V
3 0 V
3 0 V
3 0 V
3 0 V
3 0 V
3 0 V
3 0 V
3 0 V
3 0 V
3 0 V
3 0 V
3 0 V
3 0 V
3 0 V
3 0 V
3 0 V
3 0 V
3 0 V
3 0 V
3 0 V
3 0 V
3 0 V
3 0 V
3 0 V
3 0 V
3 0 V
3 0 V
3 0 V
3 0 V
3 0 V
2 0 V
3 0 V
3 0 V
3 0 V
3 0 V
3 0 V
3 0 V
3 0 V
3 0 V
3 0 V
3 0 V
3 0 V
3 0 V
3 0 V
3 0 V
3 0 V
3 0 V
3 0 V
3 0 V
3 0 V
3 0 V
3 0 V
3 0 V
3 0 V
3 0 V
3 0 V
3 0 V
3 0 V
3 0 V
3 0 V
3 0 V
3 0 V
3 0 V
2 0 V
3 0 V
3 0 V
3 0 V
3 0 V
3 0 V
3 0 V
3 0 V
3 0 V
3 0 V
3 0 V
3 0 V
3 0 V
3 0 V
3 0 V
3 0 V
3 0 V
3 0 V
3 0 V
3 0 V
3 0 V
3 0 V
stroke
1494 560 M
3 0 V
3 0 V
3 0 V
3 0 V
3 0 V
3 0 V
3 0 V
3 0 V
3 0 V
3 0 V
3 0 V
3 0 V
2 0 V
3 0 V
3 0 V
3 0 V
3 0 V
3 0 V
3 0 V
3 0 V
3 0 V
3 0 V
3 0 V
3 0 V
3 0 V
3 0 V
3 0 V
3 0 V
3 0 V
3 0 V
3 0 V
3 0 V
3 0 V
3 0 V
3 0 V
3 0 V
3 0 V
3 0 V
3 0 V
3 0 V
3 0 V
3 0 V
3 0 V
3 0 V
3 0 V
2 0 V
3 0 V
3 0 V
3 0 V
3 0 V
3 0 V
3 0 V
3 0 V
3 0 V
3 0 V
3 0 V
3 0 V
3 0 V
3 0 V
3 0 V
3 0 V
3 0 V
3 0 V
3 0 V
3 0 V
3 0 V
3 0 V
3 0 V
3 0 V
3 0 V
3 0 V
3 0 V
3 0 V
3 0 V
3 0 V
3 0 V
3 0 V
3 0 V
3 0 V
2 0 V
3 0 V
3 0 V
3 0 V
3 0 V
3 0 V
3 0 V
3 0 V
3 0 V
3 0 V
3 0 V
3 0 V
3 0 V
3 0 V
3 0 V
3 0 V
3 0 V
3 0 V
3 0 V
3 0 V
3 0 V
3 0 V
3 0 V
3 0 V
3 0 V
stroke
1803 560 M
3 0 V
3 0 V
3 0 V
3 0 V
3 0 V
3 0 V
3 0 V
3 0 V
2 0 V
3 0 V
3 0 V
3 0 V
3 0 V
3 0 V
3 0 V
3 0 V
3 0 V
3 0 V
3 0 V
3 0 V
3 0 V
3 0 V
3 0 V
3 0 V
3 0 V
3 0 V
3 0 V
3 0 V
3 0 V
3 0 V
3 0 V
3 0 V
3 0 V
3 0 V
3 0 V
3 0 V
3 0 V
3 0 V
3 0 V
3 0 V
3 0 V
3 0 V
2 0 V
3 0 V
3 0 V
3 0 V
3 0 V
3 0 V
3 0 V
3 0 V
3 0 V
3 0 V
3 0 V
3 0 V
3 0 V
3 0 V
3 0 V
3 0 V
3 0 V
3 0 V
3 0 V
3 0 V
3 0 V
3 0 V
3 0 V
3 0 V
3 0 V
3 0 V
3 0 V
3 0 V
3 0 V
3 0 V
3 0 V
3 0 V
3 0 V
2 0 V
3 0 V
3 0 V
3 0 V
3 0 V
3 0 V
3 0 V
3 0 V
3 0 V
3 0 V
3 0 V
3 0 V
3 0 V
3 0 V
3 0 V
3 0 V
3 0 V
3 0 V
3 0 V
3 0 V
3 0 V
3 0 V
3 0 V
3 0 V
3 0 V
3 0 V
3 0 V
3 0 V
3 0 V
stroke
2112 560 M
3 0 V
3 0 V
3 0 V
3 0 V
3 0 V
2 0 V
3 0 V
3 0 V
3 0 V
3 0 V
3 0 V
3 0 V
3 0 V
3 0 V
3 0 V
3 0 V
3 0 V
3 0 V
3 0 V
3 0 V
3 0 V
3 0 V
3 0 V
3 0 V
3 0 V
3 0 V
3 0 V
3 0 V
3 0 V
3 0 V
3 0 V
3 0 V
3 0 V
3 0 V
3 0 V
3 0 V
3 0 V
3 0 V
3 0 V
2 0 V
3 0 V
3 0 V
3 0 V
3 0 V
3 0 V
3 0 V
3 0 V
3 0 V
3 0 V
3 0 V
3 0 V
3 0 V
3 0 V
3 0 V
3 0 V
3 0 V
3 0 V
3 0 V
3 0 V
3 0 V
3 0 V
3 0 V
3 0 V
3 0 V
3 0 V
3 0 V
3 0 V
3 0 V
3 0 V
3 0 V
3 0 V
3 0 V
2 0 V
3 0 V
3 0 V
3 0 V
3 0 V
3 0 V
3 0 V
3 0 V
3 0 V
3 0 V
3 0 V
3 0 V
3 0 V
3 0 V
3 0 V
3 0 V
3 0 V
3 0 V
3 0 V
3 0 V
3 0 V
3 0 V
3 0 V
3 0 V
3 0 V
3 0 V
3 0 V
3 0 V
3 0 V
3 0 V
3 0 V
3 0 V
stroke
2421 560 M
3 0 V
3 0 V
2 0 V
3 0 V
3 0 V
3 0 V
3 0 V
3 0 V
3 0 V
3 0 V
3 0 V
3 0 V
3 0 V
3 0 V
3 0 V
3 0 V
3 0 V
3 0 V
3 0 V
3 0 V
3 0 V
3 0 V
3 0 V
3 0 V
3 0 V
3 0 V
3 0 V
3 0 V
3 0 V
3 0 V
3 0 V
3 0 V
3 0 V
3 0 V
3 0 V
2 0 V
3 0 V
3 0 V
3 0 V
3 0 V
3 0 V
3 0 V
3 0 V
3 0 V
3 0 V
3 0 V
3 0 V
3 0 V
3 0 V
3 0 V
3 0 V
3 0 V
3 0 V
3 0 V
3 0 V
3 0 V
3 0 V
3 0 V
3 0 V
3 0 V
3 0 V
3 0 V
3 0 V
3 0 V
3 0 V
3 0 V
3 0 V
3 0 V
3 0 V
2 0 V
3 0 V
3 0 V
3 0 V
3 0 V
3 0 V
3 0 V
3 0 V
3 0 V
3 0 V
3 0 V
3 0 V
3 0 V
3 0 V
3 0 V
3 0 V
3 0 V
3 0 V
3 0 V
3 0 V
3 0 V
3 0 V
3 0 V
3 0 V
3 0 V
3 0 V
3 0 V
3 0 V
3 0 V
3 0 V
3 0 V
3 0 V
3 0 V
2 0 V
3 0 V
stroke
2729 560 M
3 0 V
3 0 V
3 0 V
3 0 V
3 0 V
3 0 V
3 0 V
3 0 V
3 0 V
3 0 V
3 0 V
3 0 V
3 0 V
3 0 V
3 0 V
3 0 V
3 0 V
3 0 V
3 0 V
3 0 V
3 0 V
3 0 V
3 0 V
3 0 V
3 0 V
3 0 V
3 0 V
3 0 V
3 0 V
3 0 V
3 0 V
3 0 V
2 0 V
3 0 V
3 0 V
3 0 V
3 0 V
3 0 V
3 0 V
3 0 V
3 0 V
3 0 V
3 0 V
3 0 V
3 0 V
3 0 V
3 0 V
3 0 V
3 0 V
3 0 V
3 0 V
3 0 V
3 0 V
3 0 V
3 0 V
3 0 V
3 0 V
3 0 V
3 0 V
3 0 V
3 0 V
3 0 V
3 0 V
3 0 V
3 0 V
2 0 V
3 0 V
3 0 V
3 0 V
3 0 V
3 0 V
3 0 V
3 0 V
3 0 V
3 0 V
3 0 V
3 0 V
3 0 V
3 0 V
3 0 V
3 0 V
3 0 V
3 0 V
3 0 V
3 0 V
3 0 V
3 0 V
3 0 V
3 0 V
3 0 V
3 0 V
3 0 V
3 0 V
3 0 V
3 0 V
3 0 V
3 0 V
3 0 V
3 0 V
2 0 V
3 0 V
3 0 V
3 0 V
3 0 V
stroke
3038 560 M
3 0 V
3 0 V
3 0 V
3 0 V
3 0 V
3 0 V
3 0 V
3 0 V
3 0 V
3 0 V
3 0 V
3 0 V
3 0 V
3 0 V
3 0 V
3 0 V
3 0 V
3 0 V
3 0 V
3 0 V
3 0 V
3 0 V
3 0 V
3 0 V
3 0 V
3 0 V
3 0 V
3 0 V
3 0 V
2 0 V
3 0 V
3 0 V
3 0 V
3 0 V
3 0 V
3 0 V
3 0 V
3 0 V
3 0 V
3 0 V
3 0 V
3 0 V
3 0 V
3 0 V
3 0 V
3 0 V
3 0 V
3 0 V
3 0 V
3 0 V
3 0 V
3 0 V
3 0 V
3 0 V
3 0 V
3 0 V
3 0 V
3 0 V
3 0 V
3 0 V
3 0 V
3 0 V
2 0 V
3 0 V
3 0 V
3 0 V
3 0 V
3 0 V
3 0 V
3 0 V
3 0 V
3 0 V
3 0 V
3 0 V
3 0 V
3 0 V
3 0 V
3 0 V
3 0 V
3 0 V
3 0 V
3 0 V
3 0 V
3 0 V
3 0 V
3 0 V
3 0 V
3 0 V
3 0 V
3 0 V
3 0 V
3 0 V
3 0 V
3 0 V
3 0 V
3 0 V
2 0 V
3 0 V
3 0 V
3 0 V
3 0 V
3 0 V
3 0 V
3 0 V
stroke
3347 560 M
3 0 V
3 0 V
3 0 V
3 0 V
3 0 V
3 0 V
3 0 V
3 0 V
3 0 V
3 0 V
3 0 V
3 0 V
3 0 V
3 0 V
3 0 V
3 0 V
3 0 V
3 0 V
3 0 V
3 0 V
3 0 V
3 0 V
3 0 V
3 0 V
3 0 V
2 0 V
3 0 V
3 0 V
3 0 V
3 0 V
3 0 V
3 0 V
3 0 V
3 0 V
3 0 V
3 0 V
3 0 V
3 0 V
3 0 V
3 0 V
3 0 V
3 0 V
3 0 V
3 0 V
3 0 V
3 1 V
3 0 V
3 0 V
3 0 V
3 1 V
3 2 V
3 12 V
3 5 V
3 -11 V
3 22 V
3 -18 V
3 -1 V
3 25 V
3 -27 V
2 3 V
3 24 V
3 -26 V
3 10 V
3 6 V
3 -14 V
3 30 V
3 -29 V
3 1 V
3 29 V
3 -32 V
3 8 V
3 12 V
3 -26 V
3 -4 V
3 -1 V
3 -1 V
3 0 V
3 0 V
3 0 V
3 -1 V
3 0 V
3 0 V
3 0 V
3 0 V
3 0 V
3 0 V
3 0 V
3 0 V
3 0 V
3 0 V
3 0 V
3 0 V
2 0 V
3 0 V
3 0 V
3 0 V
3 0 V
3 0 V
3 0 V
3 0 V
3 0 V
3 0 V
3 0 V
3 0 V
stroke
3656 560 M
3 0 V
3 0 V
3 0 V
3 0 V
3 0 V
3 0 V
3 0 V
3 0 V
3 0 V
3 0 V
3 0 V
3 0 V
3 0 V
3 0 V
3 0 V
3 0 V
3 0 V
3 0 V
3 0 V
3 0 V
3 0 V
3 0 V
2 0 V
3 0 V
3 0 V
3 0 V
3 0 V
3 0 V
3 0 V
3 0 V
3 0 V
3 0 V
3 0 V
3 0 V
3 0 V
3 0 V
3 0 V
3 0 V
3 0 V
3 0 V
3 0 V
3 0 V
3 0 V
3 0 V
3 0 V
3 0 V
3 0 V
3 0 V
3 0 V
3 0 V
3 0 V
3 0 V
3 0 V
3 0 V
3 0 V
2 0 V
3 0 V
3 0 V
3 0 V
3 0 V
3 1 V
3 0 V
3 0 V
3 1 V
3 1 V
3 5 V
3 23 V
3 -19 V
3 18 V
3 -17 V
3 10 V
3 -9 V
3 -5 V
3 21 V
3 -20 V
3 1 V
3 14 V
3 -17 V
3 7 V
3 1 V
3 -10 V
3 4 V
3 13 V
3 -17 V
3 1 V
3 18 V
3 -19 V
3 -4 V
3 -1 V
2 0 V
3 0 V
3 -1 V
3 0 V
3 0 V
3 0 V
3 0 V
3 0 V
3 0 V
3 0 V
3 0 V
3 0 V
3 0 V
3 0 V
3 0 V
stroke
3965 560 M
3 0 V
3 0 V
3 0 V
3 0 V
3 0 V
3 0 V
3 0 V
3 0 V
3 0 V
3 0 V
3 0 V
3 0 V
3 0 V
3 0 V
3 0 V
3 0 V
3 0 V
3 0 V
3 0 V
2 0 V
3 0 V
3 0 V
3 0 V
3 0 V
3 0 V
3 0 V
3 0 V
3 0 V
3 0 V
3 0 V
3 0 V
3 0 V
3 0 V
3 0 V
3 0 V
3 0 V
3 0 V
3 0 V
3 0 V
3 0 V
3 0 V
3 0 V
3 0 V
3 0 V
3 0 V
3 0 V
3 0 V
3 1 V
3 0 V
3 0 V
3 1 V
3 1 V
2 11 V
3 5 V
3 -14 V
3 0 V
3 8 V
3 11 V
3 -18 V
3 -1 V
3 8 V
3 14 V
3 -20 V
3 -1 V
3 6 V
3 20 V
3 -24 V
3 -2 V
3 7 V
3 21 V
3 -26 V
3 -2 V
3 7 V
3 23 V
3 -28 V
3 -2 V
3 8 V
3 22 V
3 -28 V
3 -2 V
3 9 V
3 20 V
3 -28 V
3 -4 V
3 -2 V
3 0 V
2 0 V
3 0 V
3 -1 V
3 0 V
3 0 V
3 0 V
3 0 V
3 0 V
3 0 V
3 0 V
3 0 V
3 0 V
3 0 V
3 0 V
3 0 V
3 0 V
3 0 V
3 0 V
stroke
4274 560 M
3 0 V
3 0 V
3 0 V
3 0 V
3 0 V
3 0 V
3 0 V
3 0 V
3 0 V
3 0 V
3 0 V
3 0 V
3 0 V
3 0 V
3 0 V
2 0 V
3 0 V
3 0 V
3 0 V
3 0 V
3 0 V
3 0 V
3 0 V
3 0 V
3 0 V
3 0 V
3 0 V
3 0 V
3 0 V
3 0 V
3 0 V
3 0 V
3 0 V
3 0 V
3 0 V
3 0 V
3 0 V
3 0 V
3 0 V
3 0 V
3 0 V
3 0 V
3 0 V
3 0 V
3 0 V
3 0 V
3 0 V
3 0 V
3 0 V
2 0 V
3 0 V
3 0 V
3 0 V
3 0 V
3 0 V
3 0 V
3 0 V
3 0 V
3 0 V
3 0 V
3 0 V
3 0 V
3 0 V
3 0 V
3 0 V
3 0 V
3 0 V
3 0 V
3 0 V
3 0 V
3 0 V
3 0 V
3 0 V
3 0 V
3 0 V
3 0 V
3 0 V
3 0 V
3 0 V
3 0 V
3 0 V
3 0 V
2 0 V
3 0 V
3 0 V
3 0 V
3 0 V
3 0 V
3 0 V
3 0 V
3 0 V
3 0 V
3 0 V
3 0 V
3 0 V
3 0 V
3 0 V
3 0 V
3 0 V
3 0 V
3 0 V
3 0 V
3 0 V
3 0 V
stroke
4583 560 M
3 0 V
3 0 V
3 0 V
3 1 V
3 0 V
3 0 V
3 0 V
3 0 V
3 0 V
3 0 V
3 0 V
3 0 V
2 0 V
3 0 V
3 0 V
3 0 V
3 0 V
3 1 V
3 0 V
3 0 V
3 0 V
3 1 V
3 0 V
3 1 V
3 2 V
3 1 V
3 3 V
3 6 V
3 10 V
3 27 V
3 108 V
3 569 V
3 -185 V
3 -430 V
3 -72 V
3 -21 V
3 -8 V
3 -5 V
3 -2 V
3 -2 V
3 -1 V
3 -1 V
3 0 V
3 -1 V
3 0 V
2 0 V
3 0 V
3 -1 V
3 0 V
3 0 V
3 0 V
3 0 V
3 0 V
3 0 V
3 0 V
3 0 V
3 0 V
3 0 V
3 0 V
3 0 V
3 0 V
3 0 V
3 0 V
3 0 V
3 0 V
3 0 V
3 0 V
3 0 V
3 0 V
3 0 V
3 0 V
3 0 V
3 0 V
3 0 V
3 0 V
3 0 V
3 0 V
3 0 V
3 0 V
2 0 V
3 0 V
3 0 V
3 0 V
3 0 V
3 0 V
3 0 V
3 0 V
3 0 V
3 0 V
3 0 V
3 0 V
3 0 V
3 0 V
3 0 V
3 0 V
3 0 V
3 0 V
3 0 V
3 0 V
3 0 V
3 0 V
3 0 V
3 0 V
3 0 V
stroke
4892 561 M
3 0 V
3 0 V
3 0 V
3 1 V
3 0 V
3 1 V
3 -1 V
3 1 V
3 1 V
2 -1 V
3 1 V
3 1 V
3 -1 V
3 2 V
3 1 V
3 0 V
3 4 V
3 -1 V
3 3 V
3 5 V
3 2 V
3 11 V
3 12 V
3 30 V
3 92 V
3 466 V
3 1063 V
3 -1016 V
3 -486 V
3 -114 V
3 -35 V
3 -16 V
3 -8 V
3 -5 V
3 -3 V
3 -2 V
3 -2 V
3 -1 V
3 -1 V
3 -1 V
3 0 V
3 0 V
2 0 V
3 0 V
3 4 V
3 16 V
3 -12 V
3 -8 V
3 -1 V
3 -1 V
3 0 V
3 0 V
3 0 V
3 0 V
3 -1 V
3 0 V
3 0 V
3 0 V
3 0 V
3 0 V
3 0 V
3 0 V
3 0 V
3 0 V
3 0 V
3 0 V
3 0 V
3 0 V
3 0 V
3 0 V
3 0 V
3 0 V
3 0 V
3 0 V
3 0 V
3 0 V
2 0 V
3 0 V
3 0 V
3 0 V
3 0 V
3 0 V
3 0 V
3 0 V
3 0 V
3 0 V
3 0 V
3 0 V
3 0 V
3 0 V
3 0 V
3 0 V
3 0 V
3 0 V
3 0 V
3 0 V
3 0 V
3 1 V
3 0 V
3 0 V
3 0 V
3 0 V
3 0 V
3 0 V
stroke
5201 562 M
3 0 V
3 0 V
3 0 V
3 0 V
3 0 V
2 0 V
3 1 V
3 0 V
3 0 V
3 0 V
3 0 V
3 0 V
3 1 V
3 0 V
3 0 V
3 1 V
3 0 V
3 1 V
3 0 V
3 1 V
3 1 V
3 1 V
3 1 V
3 1 V
3 2 V
3 3 V
3 4 V
3 5 V
3 8 V
3 16 V
3 35 V
3 133 V
3 593 V
3 -350 V
3 315 V
3 -89 V
3 57 V
3 350 V
3 122 V
2 -112 V
3 428 V
3 96 V
3 -475 V
3 -594 V
3 -388 V
3 -83 V
3 -31 V
3 -17 V
3 -9 V
3 -7 V
3 -4 V
3 -3 V
3 -3 V
3 -1 V
3 -2 V
3 -1 V
3 -1 V
3 -1 V
3 0 V
3 -1 V
3 0 V
3 -1 V
3 0 V
3 0 V
3 -1 V
3 0 V
3 0 V
3 0 V
3 0 V
3 0 V
3 0 V
3 -1 V
2 0 V
3 0 V
3 0 V
3 0 V
3 0 V
3 0 V
3 0 V
3 0 V
3 0 V
3 0 V
3 0 V
3 0 V
3 0 V
3 0 V
3 0 V
3 0 V
3 1 V
3 0 V
3 0 V
3 0 V
3 0 V
3 0 V
3 0 V
3 0 V
3 0 V
3 1 V
3 0 V
3 0 V
3 0 V
3 0 V
3 1 V
3 0 V
stroke
5510 566 M
3 0 V
3 1 V
2 0 V
3 0 V
3 1 V
3 0 V
3 1 V
3 1 V
3 1 V
3 0 V
3 1 V
3 1 V
3 2 V
3 1 V
3 2 V
3 2 V
3 3 V
3 3 V
3 4 V
3 4 V
3 7 V
3 8 V
3 10 V
3 16 V
3 22 V
3 37 V
3 65 V
3 145 V
3 469 V
3 2774 V
3 -17 V
3 -670 V
3 846 V
3 265 V
3 -127 V
2 -1462 V
3 657 V
3 312 V
3 -539 V
3 -1728 V
3 -744 V
3 -175 V
3 -71 V
3 -38 V
3 -23 V
3 -15 V
3 -11 V
3 -7 V
3 -6 V
3 -5 V
3 -4 V
3 -3 V
3 -2 V
3 -2 V
3 -2 V
3 -2 V
3 -1 V
3 -1 V
3 -1 V
3 -1 V
3 -1 V
3 0 V
3 -1 V
3 0 V
3 -1 V
3 0 V
3 -1 V
3 0 V
3 0 V
2 -1 V
3 0 V
3 0 V
3 0 V
3 -1 V
3 0 V
3 0 V
3 0 V
3 0 V
3 -1 V
3 0 V
3 0 V
3 0 V
3 0 V
3 0 V
3 0 V
3 0 V
3 0 V
3 -1 V
3 0 V
3 0 V
3 0 V
3 0 V
3 0 V
3 0 V
3 0 V
3 0 V
3 0 V
3 0 V
3 0 V
3 0 V
3 0 V
3 0 V
3 0 V
2 0 V
stroke
5818 562 M
3 0 V
3 0 V
3 0 V
3 0 V
3 0 V
3 -1 V
3 0 V
3 0 V
3 0 V
3 0 V
3 0 V
3 0 V
3 0 V
3 0 V
3 0 V
3 0 V
3 0 V
3 0 V
3 0 V
3 0 V
3 0 V
3 0 V
3 0 V
3 0 V
3 0 V
3 0 V
3 0 V
3 0 V
3 0 V
3 0 V
3 0 V
3 0 V
2 0 V
3 0 V
3 0 V
3 0 V
3 0 V
3 0 V
3 0 V
3 0 V
3 0 V
3 0 V
3 0 V
3 0 V
3 0 V
3 0 V
3 0 V
3 0 V
3 1 V
3 0 V
3 0 V
3 0 V
3 0 V
3 0 V
3 0 V
3 0 V
3 0 V
3 0 V
3 0 V
3 0 V
3 0 V
3 0 V
3 0 V
3 0 V
3 1 V
3 0 V
2 0 V
3 0 V
3 0 V
3 0 V
3 1 V
3 0 V
3 0 V
3 1 V
3 0 V
3 0 V
3 1 V
3 0 V
3 1 V
3 1 V
3 1 V
3 1 V
3 2 V
3 2 V
3 3 V
3 4 V
3 7 V
3 11 V
3 25 V
3 61 V
3 226 V
3 871 V
3 -895 V
3 97 V
3 825 V
3 -896 V
3 137 V
3 713 V
3 -794 V
2 567 V
3 -322 V
3 -164 V
3 887 V
3 -932 V
stroke
6127 1005 M
3 422 V
3 -65 V
3 -101 V
3 344 V
3 -484 V
3 705 V
3 -1003 V
3 -159 V
3 -45 V
3 -19 V
3 -11 V
3 -6 V
3 -5 V
3 -3 V
3 -2 V
3 -2 V
3 -1 V
3 -2 V
3 0 V
3 -1 V
3 -1 V
3 0 V
3 -1 V
3 0 V
3 -1 V
3 0 V
3 0 V
3 0 V
3 -1 V
2 0 V
3 0 V
3 0 V
3 0 V
3 0 V
3 -1 V
3 0 V
3 0 V
3 0 V
3 0 V
3 0 V
3 0 V
3 0 V
3 0 V
3 0 V
3 0 V
3 0 V
3 0 V
3 0 V
3 0 V
3 -1 V
3 0 V
3 0 V
3 0 V
3 0 V
3 0 V
3 0 V
3 0 V
3 0 V
3 0 V
3 0 V
3 0 V
3 0 V
2 0 V
3 0 V
3 1 V
3 0 V
3 0 V
3 0 V
3 0 V
3 0 V
3 0 V
3 0 V
3 0 V
3 0 V
3 0 V
3 1 V
3 0 V
3 0 V
3 1 V
3 0 V
3 1 V
3 1 V
3 2 V
3 3 V
3 6 V
3 26 V
3 6 V
3 48 V
3 362 V
3 -294 V
3 95 V
3 -15 V
3 -112 V
3 276 V
3 -265 V
3 121 V
2 -87 V
3 -57 V
3 211 V
3 -236 V
3 32 V
3 112 V
3 -154 V
3 137 V
stroke
6436 783 M
3 -117 V
3 -35 V
3 164 V
3 -175 V
3 -39 V
3 -9 V
3 -4 V
3 -2 V
3 -1 V
3 -1 V
3 -1 V
3 0 V
3 0 V
3 -1 V
3 0 V
3 0 V
3 0 V
3 0 V
3 -1 V
3 0 V
3 0 V
3 0 V
3 0 V
3 0 V
3 0 V
2 0 V
3 0 V
3 0 V
3 0 V
3 0 V
3 0 V
3 0 V
3 0 V
3 0 V
3 0 V
3 0 V
3 0 V
3 0 V
3 0 V
3 0 V
3 0 V
3 -1 V
3 0 V
3 0 V
3 0 V
3 0 V
3 0 V
3 0 V
3 0 V
3 0 V
3 0 V
3 0 V
3 0 V
3 0 V
3 0 V
3 0 V
3 0 V
3 0 V
3 0 V
2 0 V
3 0 V
3 0 V
3 0 V
3 0 V
3 0 V
3 0 V
3 0 V
3 0 V
3 0 V
3 0 V
3 0 V
3 0 V
3 0 V
3 0 V
3 0 V
3 0 V
3 0 V
3 0 V
3 0 V
3 0 V
3 0 V
3 0 V
3 0 V
3 0 V
3 0 V
3 0 V
3 0 V
3 0 V
3 0 V
3 0 V
3 0 V
3 0 V
3 0 V
2 0 V
3 0 V
3 0 V
3 0 V
3 0 V
3 0 V
3 0 V
3 0 V
3 0 V
3 0 V
3 0 V
stroke
6745 560 M
3 0 V
3 0 V
3 0 V
3 0 V
3 0 V
3 0 V
3 0 V
3 0 V
3 0 V
3 0 V
3 0 V
3 0 V
3 0 V
3 0 V
3 0 V
3 0 V
3 0 V
3 0 V
3 0 V
3 0 V
3 0 V
3 0 V
2 0 V
3 0 V
3 0 V
3 0 V
3 0 V
3 0 V
3 0 V
3 0 V
3 0 V
3 0 V
3 0 V
3 0 V
3 0 V
3 0 V
3 0 V
3 0 V
3 0 V
3 0 V
3 0 V
3 0 V
3 0 V
3 0 V
3 0 V
3 0 V
3 0 V
3 0 V
3 0 V
3 0 V
3 0 V
3 0 V
3 0 V
3 0 V
3 0 V
3 0 V
2 0 V
3 0 V
3 0 V
3 0 V
3 0 V
3 0 V
3 0 V
3 0 V
3 0 V
3 0 V
3 0 V
3 0 V
3 0 V
3 0 V
3 0 V
3 0 V
3 0 V
1.000 UL
LT0
4978 560 M
1 0 R
348 0 R
2 0 R
0 1 V
1 -1 R
0 293 V
5599 560 M
0 1650 V
4 -1650 R
0 1 V
4 -1 R
5 0 R
3 0 R
4 0 R
4 0 R
3 0 R
0 1322 V
6384 560 M
1 0 R
0 1 V
1 -1 R
6 0 R
0 225 V
8 -225 R
7 0 R
8 0 R
8 0 R
7 0 R
8 0 R
7 0 R
0 111 V
4978 560 M
0 6 V
0 -6 R
348 0 R
0 1 V
2 -1 R
0 295 V
1 -295 R
0 1 V
269 -1 R
5 0 R
0 1596 V
4 -1596 R
0 1525 V
4 -1525 R
0 29 V
4 -29 R
0 14 V
3 -14 R
0 1397 V
4 -1397 R
0 1364 V
3 -1364 R
0 1 V
759 -1 R
0 6 V
0 -6 R
0 2 V
1 -2 R
6 0 R
8 0 R
0 202 V
8 -202 R
0 185 V
7 -185 R
8 0 R
7 0 R
0 139 V
8 -139 R
0 125 V
8 -125 R
-1468 0 R
0 3 V
1 -3 R
0 4 V
348 -4 R
0 2 V
1 -2 R
2 0 R
269 0 R
4 0 R
0 2 V
4 -2 R
0 25 V
4 -25 R
0 1474 V
4 -1474 R
0 1440 V
4 -1440 R
0 13 V
3 -13 R
0 1 V
4 -1 R
758 0 R
1 0 R
0 5 V
0 -5 R
0 4 V
7 -4 R
7 0 R
8 0 R
0 1 V
8 -1 R
0 169 V
stroke
6421 560 M
0 153 V
8 -153 R
7 0 R
8 0 R
-1764 0 R
1 0 R
0 186 V
5029 560 M
0 2 V
1 -2 R
0 2 V
2 -2 R
269 0 R
4 0 R
0 1 V
4 -1 R
0 394 V
4 -394 R
0 413 V
4 -413 R
0 433 V
4 -433 R
0 454 V
3 -454 R
0 1 V
4 -1 R
758 0 R
0 2 V
1 -2 R
0 1 V
7 -1 R
7 0 R
8 0 R
0 623 V
8 -623 R
0 631 V
7 -631 R
0 637 V
8 -637 R
0 642 V
7 -642 R
8 0 R
-1468 0 R
0 184 V
0 -184 R
349 0 R
0 2 V
1 -2 R
0 2 V
1 -2 R
0 1 V
270 -1 R
4 0 R
0 373 V
4 -373 R
4 0 R
4 0 R
0 1 V
4 -1 R
3 0 R
0 472 V
4 -472 R
758 0 R
0 6 V
0 -6 R
1 0 R
6 0 R
8 0 R
0 613 V
8 -613 R
7 0 R
8 0 R
8 0 R
7 0 R
0 646 V
8 -646 R
-1468 0 R
0 182 V
0 -182 R
348 0 R
2 0 R
0 1 V
1 -1 R
0 4 V
270 -4 R
0 354 V
4 -354 R
4 0 R
4 0 R
4 0 R
3 0 R
4 0 R
3 0 R
0 491 V
6084 560 M
1 0 R
6 0 R
0 612 V
8 -612 R
8 0 R
7 0 R
8 0 R
8 0 R
7 0 R
8 0 R
0 649 V
stroke
3560 560 M
0 23 V
1 -23 R
348 0 R
1 0 R
2 0 R
0 12 V
269 -12 R
4 0 R
4 0 R
4 0 R
4 0 R
4 0 R
3 0 R
4 0 R
0 21 V
758 -21 R
0 1 V
1 -1 R
7 0 R
0 162 V
8 -162 R
7 0 R
8 0 R
7 0 R
8 0 R
8 0 R
7 0 R
-1475 0 R
0 22 V
0 -22 R
349 0 R
1 0 R
0 13 V
1 -13 R
270 0 R
4 0 R
4 0 R
4 0 R
4 0 R
4 0 R
3 0 R
0 20 V
4 -20 R
758 0 R
0 2 V
0 -2 R
0 1 V
1 -1 R
7 0 R
7 0 R
0 157 V
8 -157 R
8 0 R
7 0 R
8 0 R
7 0 R
8 0 R
-1475 0 R
0 21 V
0 -21 R
348 0 R
0 13 V
2 -13 R
1 0 R
269 0 R
5 0 R
4 0 R
4 0 R
4 0 R
3 0 R
0 19 V
4 -19 R
3 0 R
759 0 R
0 3 V
1 -3 R
6 0 R
8 0 R
8 0 R
0 155 V
7 -155 R
8 0 R
7 0 R
8 0 R
8 0 R
-1476 0 R
1 0 R
0 20 V
348 -20 R
0 13 V
2 -13 R
1 0 R
269 0 R
4 0 R
5 0 R
4 0 R
3 0 R
0 18 V
4 -18 R
4 0 R
3 0 R
758 0 R
1 0 R
0 1 V
stroke
4943 560 M
0 1 V
6 -1 R
8 0 R
8 0 R
7 0 R
0 153 V
8 -153 R
7 0 R
8 0 R
7 0 R
-1475 0 R
1 0 R
0 19 V
348 -19 R
0 14 V
2 -14 R
1 0 R
269 0 R
4 0 R
4 0 R
5 0 R
0 17 V
3 -17 R
4 0 R
4 0 R
3 0 R
758 0 R
1 0 R
1 0 R
0 2 V
6 -2 R
8 0 R
7 0 R
8 0 R
8 0 R
0 151 V
7 -151 R
8 0 R
7 0 R
-1475 0 R
0 18 V
1 -18 R
348 0 R
0 14 V
2 -14 R
1 0 R
269 0 R
4 0 R
4 0 R
0 17 V
4 -17 R
4 0 R
4 0 R
4 0 R
3 0 R
758 0 R
1 0 R
0 1 V
1 -1 R
6 0 R
8 0 R
7 0 R
8 0 R
8 0 R
7 0 R
0 148 V
8 -148 R
7 0 R
-1475 0 R
0 17 V
1 -17 R
348 0 R
2 0 R
0 14 V
1 -14 R
269 0 R
4 0 R
0 16 V
4 -16 R
4 0 R
4 0 R
4 0 R
4 0 R
3 0 R
758 0 R
1 0 R
0 1 V
1 -1 R
6 0 R
8 0 R
7 0 R
8 0 R
8 0 R
7 0 R
8 0 R
0 146 V
7 -146 R
-1475 0 R
0 16 V
1 -16 R
348 0 R
2 0 R
1 0 R
0 15 V
stroke
4124 560 M
0 15 V
4 -15 R
4 0 R
5 0 R
3 0 R
4 0 R
4 0 R
3 0 R
758 0 R
0 1 V
1 -1 R
1 0 R
6 0 R
8 0 R
7 0 R
8 0 R
8 0 R
7 0 R
8 0 R
7 0 R
0 144 V
1991 560 M
1 0 R
348 0 R
1 0 R
2 0 R
269 0 R
4 0 R
4 0 R
4 0 R
4 0 R
4 0 R
4 0 R
3 0 R
758 0 R
1 0 R
1 0 R
6 0 R
8 0 R
7 0 R
8 0 R
8 0 R
7 0 R
8 0 R
7 0 R
2311 0 R
995 0 R
2 0 R
1 0 R
3 0 R
1 0 R
2 0 R
2 0 R
1 0 R
-4790 0 R
1 0 R
348 0 R
2 0 R
1 0 R
269 0 R
4 0 R
4 0 R
5 0 R
3 0 R
4 0 R
4 0 R
3 0 R
758 0 R
1 0 R
1 0 R
6 0 R
8 0 R
7 0 R
8 0 R
8 0 R
7 0 R
8 0 R
7 0 R
2311 0 R
995 0 R
2 0 R
1 0 R
3 0 R
1 0 R
2 0 R
2 0 R
2 0 R
-4791 0 R
1 0 R
348 0 R
2 0 R
1 0 R
269 0 R
4 0 R
5 0 R
4 0 R
3 0 R
4 0 R
4 0 R
3 0 R
758 0 R
1 0 R
1 0 R
6 0 R
8 0 R
8 0 R
7 0 R
8 0 R
7 0 R
8 0 R
7 0 R
2311 0 R
996 0 R
1 0 R
1 0 R
3 0 R
1 0 R
2 0 R
2 0 R
2 0 R
-4790 0 R
348 0 R
2 0 R
1 0 R
269 0 R
5 0 R
4 0 R
4 0 R
4 0 R
3 0 R
4 0 R
3 0 R
759 0 R
1 0 R
6 0 R
8 0 R
8 0 R
7 0 R
8 0 R
7 0 R
8 0 R
8 0 R
2310 0 R
996 0 R
1 0 R
1 0 R
3 0 R
1 0 R
2 0 R
2 0 R
2 0 R
-4790 0 R
349 0 R
1 0 R
1 0 R
270 0 R
4 0 R
4 0 R
4 0 R
4 0 R
4 0 R
3 0 R
4 0 R
758 0 R
1 0 R
6 0 R
8 0 R
8 0 R
7 0 R
8 0 R
8 0 R
7 0 R
8 0 R
2311 0 R
995 0 R
1 0 R
1 0 R
3 0 R
1 0 R
2 0 R
2 0 R
2 0 R
-4790 0 R
1 0 R
348 0 R
1 0 R
2 0 R
269 0 R
4 0 R
4 0 R
4 0 R
4 0 R
4 0 R
3 0 R
4 0 R
758 0 R
1 0 R
7 0 R
7 0 R
8 0 R
8 0 R
7 0 R
8 0 R
7 0 R
8 0 R
2311 0 R
995 0 R
2 0 R
1 0 R
2 0 R
2 0 R
2 0 R
1 0 R
2 0 R
-4790 0 R
1 0 R
348 0 R
1 0 R
2 0 R
269 0 R
4 0 R
4 0 R
4 0 R
4 0 R
4 0 R
4 0 R
3 0 R
758 0 R
1 0 R
1 0 R
6 0 R
8 0 R
7 0 R
8 0 R
8 0 R
7 0 R
8 0 R
7 0 R
2311 0 R
995 0 R
2 0 R
1 0 R
3 0 R
1 0 R
2 0 R
2 0 R
1 0 R
-4789 0 R
348 0 R
2 0 R
1 0 R
269 0 R
5 0 R
4 0 R
4 0 R
4 0 R
3 0 R
4 0 R
3 0 R
759 0 R
1 0 R
6 0 R
8 0 R
8 0 R
7 0 R
8 0 R
7 0 R
8 0 R
8 0 R
2310 0 R
996 0 R
1 0 R
1 0 R
3 0 R
1 0 R
2 0 R
2 0 R
2 0 R
-4043 0 R
996 0 R
1 0 R
1 0 R
3 0 R
1 0 R
2 0 R
2 0 R
2 0 R
532 0 R
2 0 R
764 0 R
8 0 R
7 0 R
4 0 R
57 0 R
3 0 R
7 0 R
9 0 R
-2401 0 R
995 0 R
1 0 R
1 0 R
3 0 R
1 0 R
2 0 R
2 0 R
2 0 R
533 0 R
1 0 R
1 0 R
764 0 R
8 0 R
6 0 R
4 0 R
57 0 R
4 0 R
7 0 R
8 0 R
1.000 UL
LTb
882 560 M
6080 0 V
0 4060 V
-6080 0 V
882 560 L
1.000 UP
stroke
grestore
end
showpage
%%Trailer
%%DocumentFonts: Helvetica
%%Pages: 1
