%!PS-Adobe-2.0
%%Title: specedmd5I7_30k_all.ps
%%Creator: gnuplot 4.4 patchlevel 3
%%CreationDate: Wed Aug 22 22:18:33 2012
%%DocumentFonts: (atend)
%%BoundingBox: 50 50 554 770
%%Orientation: Landscape
%%Pages: (atend)
%%EndComments
%%BeginProlog
/gnudict 256 dict def
gnudict begin
%
% The following true/false flags may be edited by hand if desired.
% The unit line width and grayscale image gamma correction may also be changed.
%
/Color false def
/Blacktext false def
/Solid false def
/Dashlength 1 def
/Landscape true def
/Level1 false def
/Rounded false def
/ClipToBoundingBox false def
/TransparentPatterns false def
/gnulinewidth 5.000 def
/userlinewidth gnulinewidth def
/Gamma 1.0 def
%
/vshift -46 def
/dl1 {
  10.0 Dashlength mul mul
  Rounded { currentlinewidth 0.75 mul sub dup 0 le { pop 0.01 } if } if
} def
/dl2 {
  10.0 Dashlength mul mul
  Rounded { currentlinewidth 0.75 mul add } if
} def
/hpt_ 31.5 def
/vpt_ 31.5 def
/hpt hpt_ def
/vpt vpt_ def
Level1 {} {
/SDict 10 dict def
systemdict /pdfmark known not {
  userdict /pdfmark systemdict /cleartomark get put
} if
SDict begin [
  /Title (specedmd5I7_30k_all.ps)
  /Subject (gnuplot plot)
  /Creator (gnuplot 4.4 patchlevel 3)
  /Author (mfr24)
%  /Producer (gnuplot)
%  /Keywords ()
  /CreationDate (Wed Aug 22 22:18:33 2012)
  /DOCINFO pdfmark
end
} ifelse
/doclip {
  ClipToBoundingBox {
    newpath 50 50 moveto 554 50 lineto 554 770 lineto 50 770 lineto closepath
    clip
  } if
} def
%
% Gnuplot Prolog Version 4.4 (August 2010)
%
%/SuppressPDFMark true def
%
/M {moveto} bind def
/L {lineto} bind def
/R {rmoveto} bind def
/V {rlineto} bind def
/N {newpath moveto} bind def
/Z {closepath} bind def
/C {setrgbcolor} bind def
/f {rlineto fill} bind def
/g {setgray} bind def
/Gshow {show} def   % May be redefined later in the file to support UTF-8
/vpt2 vpt 2 mul def
/hpt2 hpt 2 mul def
/Lshow {currentpoint stroke M 0 vshift R 
	Blacktext {gsave 0 setgray show grestore} {show} ifelse} def
/Rshow {currentpoint stroke M dup stringwidth pop neg vshift R
	Blacktext {gsave 0 setgray show grestore} {show} ifelse} def
/Cshow {currentpoint stroke M dup stringwidth pop -2 div vshift R 
	Blacktext {gsave 0 setgray show grestore} {show} ifelse} def
/UP {dup vpt_ mul /vpt exch def hpt_ mul /hpt exch def
  /hpt2 hpt 2 mul def /vpt2 vpt 2 mul def} def
/DL {Color {setrgbcolor Solid {pop []} if 0 setdash}
 {pop pop pop 0 setgray Solid {pop []} if 0 setdash} ifelse} def
/BL {stroke userlinewidth 2 mul setlinewidth
	Rounded {1 setlinejoin 1 setlinecap} if} def
/AL {stroke userlinewidth 2 div setlinewidth
	Rounded {1 setlinejoin 1 setlinecap} if} def
/UL {dup gnulinewidth mul /userlinewidth exch def
	dup 1 lt {pop 1} if 10 mul /udl exch def} def
/PL {stroke userlinewidth setlinewidth
	Rounded {1 setlinejoin 1 setlinecap} if} def
3.8 setmiterlimit
% Default Line colors
/LCw {1 1 1} def
/LCb {0 0 0} def
/LCa {0 0 0} def
/LC0 {1 0 0} def
/LC1 {0 1 0} def
/LC2 {0 0 1} def
/LC3 {1 0 1} def
/LC4 {0 1 1} def
/LC5 {1 1 0} def
/LC6 {0 0 0} def
/LC7 {1 0.3 0} def
/LC8 {0.5 0.5 0.5} def
% Default Line Types
/LTw {PL [] 1 setgray} def
/LTb {BL [] LCb DL} def
/LTa {AL [1 udl mul 2 udl mul] 0 setdash LCa setrgbcolor} def
/LT0 {PL [] LC0 DL} def
/LT1 {PL [4 dl1 2 dl2] LC1 DL} def
/LT2 {PL [2 dl1 3 dl2] LC2 DL} def
/LT3 {PL [1 dl1 1.5 dl2] LC3 DL} def
/LT4 {PL [6 dl1 2 dl2 1 dl1 2 dl2] LC4 DL} def
/LT5 {PL [3 dl1 3 dl2 1 dl1 3 dl2] LC5 DL} def
/LT6 {PL [2 dl1 2 dl2 2 dl1 6 dl2] LC6 DL} def
/LT7 {PL [1 dl1 2 dl2 6 dl1 2 dl2 1 dl1 2 dl2] LC7 DL} def
/LT8 {PL [2 dl1 2 dl2 2 dl1 2 dl2 2 dl1 2 dl2 2 dl1 4 dl2] LC8 DL} def
/Pnt {stroke [] 0 setdash gsave 1 setlinecap M 0 0 V stroke grestore} def
/Dia {stroke [] 0 setdash 2 copy vpt add M
  hpt neg vpt neg V hpt vpt neg V
  hpt vpt V hpt neg vpt V closepath stroke
  Pnt} def
/Pls {stroke [] 0 setdash vpt sub M 0 vpt2 V
  currentpoint stroke M
  hpt neg vpt neg R hpt2 0 V stroke
 } def
/Box {stroke [] 0 setdash 2 copy exch hpt sub exch vpt add M
  0 vpt2 neg V hpt2 0 V 0 vpt2 V
  hpt2 neg 0 V closepath stroke
  Pnt} def
/Crs {stroke [] 0 setdash exch hpt sub exch vpt add M
  hpt2 vpt2 neg V currentpoint stroke M
  hpt2 neg 0 R hpt2 vpt2 V stroke} def
/TriU {stroke [] 0 setdash 2 copy vpt 1.12 mul add M
  hpt neg vpt -1.62 mul V
  hpt 2 mul 0 V
  hpt neg vpt 1.62 mul V closepath stroke
  Pnt} def
/Star {2 copy Pls Crs} def
/BoxF {stroke [] 0 setdash exch hpt sub exch vpt add M
  0 vpt2 neg V hpt2 0 V 0 vpt2 V
  hpt2 neg 0 V closepath fill} def
/TriUF {stroke [] 0 setdash vpt 1.12 mul add M
  hpt neg vpt -1.62 mul V
  hpt 2 mul 0 V
  hpt neg vpt 1.62 mul V closepath fill} def
/TriD {stroke [] 0 setdash 2 copy vpt 1.12 mul sub M
  hpt neg vpt 1.62 mul V
  hpt 2 mul 0 V
  hpt neg vpt -1.62 mul V closepath stroke
  Pnt} def
/TriDF {stroke [] 0 setdash vpt 1.12 mul sub M
  hpt neg vpt 1.62 mul V
  hpt 2 mul 0 V
  hpt neg vpt -1.62 mul V closepath fill} def
/DiaF {stroke [] 0 setdash vpt add M
  hpt neg vpt neg V hpt vpt neg V
  hpt vpt V hpt neg vpt V closepath fill} def
/Pent {stroke [] 0 setdash 2 copy gsave
  translate 0 hpt M 4 {72 rotate 0 hpt L} repeat
  closepath stroke grestore Pnt} def
/PentF {stroke [] 0 setdash gsave
  translate 0 hpt M 4 {72 rotate 0 hpt L} repeat
  closepath fill grestore} def
/Circle {stroke [] 0 setdash 2 copy
  hpt 0 360 arc stroke Pnt} def
/CircleF {stroke [] 0 setdash hpt 0 360 arc fill} def
/C0 {BL [] 0 setdash 2 copy moveto vpt 90 450 arc} bind def
/C1 {BL [] 0 setdash 2 copy moveto
	2 copy vpt 0 90 arc closepath fill
	vpt 0 360 arc closepath} bind def
/C2 {BL [] 0 setdash 2 copy moveto
	2 copy vpt 90 180 arc closepath fill
	vpt 0 360 arc closepath} bind def
/C3 {BL [] 0 setdash 2 copy moveto
	2 copy vpt 0 180 arc closepath fill
	vpt 0 360 arc closepath} bind def
/C4 {BL [] 0 setdash 2 copy moveto
	2 copy vpt 180 270 arc closepath fill
	vpt 0 360 arc closepath} bind def
/C5 {BL [] 0 setdash 2 copy moveto
	2 copy vpt 0 90 arc
	2 copy moveto
	2 copy vpt 180 270 arc closepath fill
	vpt 0 360 arc} bind def
/C6 {BL [] 0 setdash 2 copy moveto
	2 copy vpt 90 270 arc closepath fill
	vpt 0 360 arc closepath} bind def
/C7 {BL [] 0 setdash 2 copy moveto
	2 copy vpt 0 270 arc closepath fill
	vpt 0 360 arc closepath} bind def
/C8 {BL [] 0 setdash 2 copy moveto
	2 copy vpt 270 360 arc closepath fill
	vpt 0 360 arc closepath} bind def
/C9 {BL [] 0 setdash 2 copy moveto
	2 copy vpt 270 450 arc closepath fill
	vpt 0 360 arc closepath} bind def
/C10 {BL [] 0 setdash 2 copy 2 copy moveto vpt 270 360 arc closepath fill
	2 copy moveto
	2 copy vpt 90 180 arc closepath fill
	vpt 0 360 arc closepath} bind def
/C11 {BL [] 0 setdash 2 copy moveto
	2 copy vpt 0 180 arc closepath fill
	2 copy moveto
	2 copy vpt 270 360 arc closepath fill
	vpt 0 360 arc closepath} bind def
/C12 {BL [] 0 setdash 2 copy moveto
	2 copy vpt 180 360 arc closepath fill
	vpt 0 360 arc closepath} bind def
/C13 {BL [] 0 setdash 2 copy moveto
	2 copy vpt 0 90 arc closepath fill
	2 copy moveto
	2 copy vpt 180 360 arc closepath fill
	vpt 0 360 arc closepath} bind def
/C14 {BL [] 0 setdash 2 copy moveto
	2 copy vpt 90 360 arc closepath fill
	vpt 0 360 arc} bind def
/C15 {BL [] 0 setdash 2 copy vpt 0 360 arc closepath fill
	vpt 0 360 arc closepath} bind def
/Rec {newpath 4 2 roll moveto 1 index 0 rlineto 0 exch rlineto
	neg 0 rlineto closepath} bind def
/Square {dup Rec} bind def
/Bsquare {vpt sub exch vpt sub exch vpt2 Square} bind def
/S0 {BL [] 0 setdash 2 copy moveto 0 vpt rlineto BL Bsquare} bind def
/S1 {BL [] 0 setdash 2 copy vpt Square fill Bsquare} bind def
/S2 {BL [] 0 setdash 2 copy exch vpt sub exch vpt Square fill Bsquare} bind def
/S3 {BL [] 0 setdash 2 copy exch vpt sub exch vpt2 vpt Rec fill Bsquare} bind def
/S4 {BL [] 0 setdash 2 copy exch vpt sub exch vpt sub vpt Square fill Bsquare} bind def
/S5 {BL [] 0 setdash 2 copy 2 copy vpt Square fill
	exch vpt sub exch vpt sub vpt Square fill Bsquare} bind def
/S6 {BL [] 0 setdash 2 copy exch vpt sub exch vpt sub vpt vpt2 Rec fill Bsquare} bind def
/S7 {BL [] 0 setdash 2 copy exch vpt sub exch vpt sub vpt vpt2 Rec fill
	2 copy vpt Square fill Bsquare} bind def
/S8 {BL [] 0 setdash 2 copy vpt sub vpt Square fill Bsquare} bind def
/S9 {BL [] 0 setdash 2 copy vpt sub vpt vpt2 Rec fill Bsquare} bind def
/S10 {BL [] 0 setdash 2 copy vpt sub vpt Square fill 2 copy exch vpt sub exch vpt Square fill
	Bsquare} bind def
/S11 {BL [] 0 setdash 2 copy vpt sub vpt Square fill 2 copy exch vpt sub exch vpt2 vpt Rec fill
	Bsquare} bind def
/S12 {BL [] 0 setdash 2 copy exch vpt sub exch vpt sub vpt2 vpt Rec fill Bsquare} bind def
/S13 {BL [] 0 setdash 2 copy exch vpt sub exch vpt sub vpt2 vpt Rec fill
	2 copy vpt Square fill Bsquare} bind def
/S14 {BL [] 0 setdash 2 copy exch vpt sub exch vpt sub vpt2 vpt Rec fill
	2 copy exch vpt sub exch vpt Square fill Bsquare} bind def
/S15 {BL [] 0 setdash 2 copy Bsquare fill Bsquare} bind def
/D0 {gsave translate 45 rotate 0 0 S0 stroke grestore} bind def
/D1 {gsave translate 45 rotate 0 0 S1 stroke grestore} bind def
/D2 {gsave translate 45 rotate 0 0 S2 stroke grestore} bind def
/D3 {gsave translate 45 rotate 0 0 S3 stroke grestore} bind def
/D4 {gsave translate 45 rotate 0 0 S4 stroke grestore} bind def
/D5 {gsave translate 45 rotate 0 0 S5 stroke grestore} bind def
/D6 {gsave translate 45 rotate 0 0 S6 stroke grestore} bind def
/D7 {gsave translate 45 rotate 0 0 S7 stroke grestore} bind def
/D8 {gsave translate 45 rotate 0 0 S8 stroke grestore} bind def
/D9 {gsave translate 45 rotate 0 0 S9 stroke grestore} bind def
/D10 {gsave translate 45 rotate 0 0 S10 stroke grestore} bind def
/D11 {gsave translate 45 rotate 0 0 S11 stroke grestore} bind def
/D12 {gsave translate 45 rotate 0 0 S12 stroke grestore} bind def
/D13 {gsave translate 45 rotate 0 0 S13 stroke grestore} bind def
/D14 {gsave translate 45 rotate 0 0 S14 stroke grestore} bind def
/D15 {gsave translate 45 rotate 0 0 S15 stroke grestore} bind def
/DiaE {stroke [] 0 setdash vpt add M
  hpt neg vpt neg V hpt vpt neg V
  hpt vpt V hpt neg vpt V closepath stroke} def
/BoxE {stroke [] 0 setdash exch hpt sub exch vpt add M
  0 vpt2 neg V hpt2 0 V 0 vpt2 V
  hpt2 neg 0 V closepath stroke} def
/TriUE {stroke [] 0 setdash vpt 1.12 mul add M
  hpt neg vpt -1.62 mul V
  hpt 2 mul 0 V
  hpt neg vpt 1.62 mul V closepath stroke} def
/TriDE {stroke [] 0 setdash vpt 1.12 mul sub M
  hpt neg vpt 1.62 mul V
  hpt 2 mul 0 V
  hpt neg vpt -1.62 mul V closepath stroke} def
/PentE {stroke [] 0 setdash gsave
  translate 0 hpt M 4 {72 rotate 0 hpt L} repeat
  closepath stroke grestore} def
/CircE {stroke [] 0 setdash 
  hpt 0 360 arc stroke} def
/Opaque {gsave closepath 1 setgray fill grestore 0 setgray closepath} def
/DiaW {stroke [] 0 setdash vpt add M
  hpt neg vpt neg V hpt vpt neg V
  hpt vpt V hpt neg vpt V Opaque stroke} def
/BoxW {stroke [] 0 setdash exch hpt sub exch vpt add M
  0 vpt2 neg V hpt2 0 V 0 vpt2 V
  hpt2 neg 0 V Opaque stroke} def
/TriUW {stroke [] 0 setdash vpt 1.12 mul add M
  hpt neg vpt -1.62 mul V
  hpt 2 mul 0 V
  hpt neg vpt 1.62 mul V Opaque stroke} def
/TriDW {stroke [] 0 setdash vpt 1.12 mul sub M
  hpt neg vpt 1.62 mul V
  hpt 2 mul 0 V
  hpt neg vpt -1.62 mul V Opaque stroke} def
/PentW {stroke [] 0 setdash gsave
  translate 0 hpt M 4 {72 rotate 0 hpt L} repeat
  Opaque stroke grestore} def
/CircW {stroke [] 0 setdash 
  hpt 0 360 arc Opaque stroke} def
/BoxFill {gsave Rec 1 setgray fill grestore} def
/Density {
  /Fillden exch def
  currentrgbcolor
  /ColB exch def /ColG exch def /ColR exch def
  /ColR ColR Fillden mul Fillden sub 1 add def
  /ColG ColG Fillden mul Fillden sub 1 add def
  /ColB ColB Fillden mul Fillden sub 1 add def
  ColR ColG ColB setrgbcolor} def
/BoxColFill {gsave Rec PolyFill} def
/PolyFill {gsave Density fill grestore grestore} def
/h {rlineto rlineto rlineto gsave closepath fill grestore} bind def
%
% PostScript Level 1 Pattern Fill routine for rectangles
% Usage: x y w h s a XX PatternFill
%	x,y = lower left corner of box to be filled
%	w,h = width and height of box
%	  a = angle in degrees between lines and x-axis
%	 XX = 0/1 for no/yes cross-hatch
%
/PatternFill {gsave /PFa [ 9 2 roll ] def
  PFa 0 get PFa 2 get 2 div add PFa 1 get PFa 3 get 2 div add translate
  PFa 2 get -2 div PFa 3 get -2 div PFa 2 get PFa 3 get Rec
  gsave 1 setgray fill grestore clip
  currentlinewidth 0.5 mul setlinewidth
  /PFs PFa 2 get dup mul PFa 3 get dup mul add sqrt def
  0 0 M PFa 5 get rotate PFs -2 div dup translate
  0 1 PFs PFa 4 get div 1 add floor cvi
	{PFa 4 get mul 0 M 0 PFs V} for
  0 PFa 6 get ne {
	0 1 PFs PFa 4 get div 1 add floor cvi
	{PFa 4 get mul 0 2 1 roll M PFs 0 V} for
 } if
  stroke grestore} def
%
/languagelevel where
 {pop languagelevel} {1} ifelse
 2 lt
	{/InterpretLevel1 true def}
	{/InterpretLevel1 Level1 def}
 ifelse
%
% PostScript level 2 pattern fill definitions
%
/Level2PatternFill {
/Tile8x8 {/PaintType 2 /PatternType 1 /TilingType 1 /BBox [0 0 8 8] /XStep 8 /YStep 8}
	bind def
/KeepColor {currentrgbcolor [/Pattern /DeviceRGB] setcolorspace} bind def
<< Tile8x8
 /PaintProc {0.5 setlinewidth pop 0 0 M 8 8 L 0 8 M 8 0 L stroke} 
>> matrix makepattern
/Pat1 exch def
<< Tile8x8
 /PaintProc {0.5 setlinewidth pop 0 0 M 8 8 L 0 8 M 8 0 L stroke
	0 4 M 4 8 L 8 4 L 4 0 L 0 4 L stroke}
>> matrix makepattern
/Pat2 exch def
<< Tile8x8
 /PaintProc {0.5 setlinewidth pop 0 0 M 0 8 L
	8 8 L 8 0 L 0 0 L fill}
>> matrix makepattern
/Pat3 exch def
<< Tile8x8
 /PaintProc {0.5 setlinewidth pop -4 8 M 8 -4 L
	0 12 M 12 0 L stroke}
>> matrix makepattern
/Pat4 exch def
<< Tile8x8
 /PaintProc {0.5 setlinewidth pop -4 0 M 8 12 L
	0 -4 M 12 8 L stroke}
>> matrix makepattern
/Pat5 exch def
<< Tile8x8
 /PaintProc {0.5 setlinewidth pop -2 8 M 4 -4 L
	0 12 M 8 -4 L 4 12 M 10 0 L stroke}
>> matrix makepattern
/Pat6 exch def
<< Tile8x8
 /PaintProc {0.5 setlinewidth pop -2 0 M 4 12 L
	0 -4 M 8 12 L 4 -4 M 10 8 L stroke}
>> matrix makepattern
/Pat7 exch def
<< Tile8x8
 /PaintProc {0.5 setlinewidth pop 8 -2 M -4 4 L
	12 0 M -4 8 L 12 4 M 0 10 L stroke}
>> matrix makepattern
/Pat8 exch def
<< Tile8x8
 /PaintProc {0.5 setlinewidth pop 0 -2 M 12 4 L
	-4 0 M 12 8 L -4 4 M 8 10 L stroke}
>> matrix makepattern
/Pat9 exch def
/Pattern1 {PatternBgnd KeepColor Pat1 setpattern} bind def
/Pattern2 {PatternBgnd KeepColor Pat2 setpattern} bind def
/Pattern3 {PatternBgnd KeepColor Pat3 setpattern} bind def
/Pattern4 {PatternBgnd KeepColor Landscape {Pat5} {Pat4} ifelse setpattern} bind def
/Pattern5 {PatternBgnd KeepColor Landscape {Pat4} {Pat5} ifelse setpattern} bind def
/Pattern6 {PatternBgnd KeepColor Landscape {Pat9} {Pat6} ifelse setpattern} bind def
/Pattern7 {PatternBgnd KeepColor Landscape {Pat8} {Pat7} ifelse setpattern} bind def
} def
%
%
%End of PostScript Level 2 code
%
/PatternBgnd {
  TransparentPatterns {} {gsave 1 setgray fill grestore} ifelse
} def
%
% Substitute for Level 2 pattern fill codes with
% grayscale if Level 2 support is not selected.
%
/Level1PatternFill {
/Pattern1 {0.250 Density} bind def
/Pattern2 {0.500 Density} bind def
/Pattern3 {0.750 Density} bind def
/Pattern4 {0.125 Density} bind def
/Pattern5 {0.375 Density} bind def
/Pattern6 {0.625 Density} bind def
/Pattern7 {0.875 Density} bind def
} def
%
% Now test for support of Level 2 code
%
Level1 {Level1PatternFill} {Level2PatternFill} ifelse
%
/Symbol-Oblique /Symbol findfont [1 0 .167 1 0 0] makefont
dup length dict begin {1 index /FID eq {pop pop} {def} ifelse} forall
currentdict end definefont pop
end
%%EndProlog
%%Page: 1 1
gnudict begin
gsave
doclip
50 50 translate
0.100 0.100 scale
90 rotate
0 -5040 translate
0 setgray
newpath
(Helvetica) findfont 140 scalefont setfont
1.000 UL
LTb
938 588 M
63 0 V
5946 0 R
-63 0 V
854 588 M
( 0) Rshow
1.000 UL
LTb
938 991 M
63 0 V
5946 0 R
-63 0 V
854 991 M
( 0.0005) Rshow
1.000 UL
LTb
938 1394 M
63 0 V
5946 0 R
-63 0 V
-6030 0 R
( 0.001) Rshow
1.000 UL
LTb
938 1797 M
63 0 V
5946 0 R
-63 0 V
-6030 0 R
( 0.0015) Rshow
1.000 UL
LTb
938 2200 M
63 0 V
5946 0 R
-63 0 V
-6030 0 R
( 0.002) Rshow
1.000 UL
LTb
938 2604 M
63 0 V
5946 0 R
-63 0 V
-6030 0 R
( 0.0025) Rshow
1.000 UL
LTb
938 3007 M
63 0 V
5946 0 R
-63 0 V
-6030 0 R
( 0.003) Rshow
1.000 UL
LTb
938 3410 M
63 0 V
5946 0 R
-63 0 V
-6030 0 R
( 0.0035) Rshow
1.000 UL
LTb
938 3813 M
63 0 V
5946 0 R
-63 0 V
-6030 0 R
( 0.004) Rshow
1.000 UL
LTb
938 4216 M
63 0 V
5946 0 R
-63 0 V
-6030 0 R
( 0.0045) Rshow
1.000 UL
LTb
938 4619 M
63 0 V
5946 0 R
-63 0 V
-6030 0 R
( 0.005) Rshow
1.000 UL
LTb
938 588 M
0 63 V
0 3968 R
0 -63 V
938 448 M
( 5090) Cshow
1.000 UL
LTb
1739 588 M
0 63 V
0 3968 R
0 -63 V
0 -4108 R
( 5092) Cshow
1.000 UL
LTb
2540 588 M
0 63 V
0 3968 R
0 -63 V
0 -4108 R
( 5094) Cshow
1.000 UL
LTb
3342 588 M
0 63 V
0 3968 R
0 -63 V
0 -4108 R
( 5096) Cshow
1.000 UL
LTb
4143 588 M
0 63 V
0 3968 R
0 -63 V
0 -4108 R
( 5098) Cshow
1.000 UL
LTb
4944 588 M
0 63 V
0 3968 R
0 -63 V
0 -4108 R
( 5100) Cshow
1.000 UL
LTb
5745 588 M
0 63 V
0 3968 R
0 -63 V
0 -4108 R
( 5102) Cshow
1.000 UL
LTb
6546 588 M
0 63 V
0 3968 R
0 -63 V
0 -4108 R
( 5104) Cshow
1.000 UL
LTb
1.000 UL
LTb
938 4619 N
938 588 L
6009 0 V
0 4031 V
-6009 0 V
Z stroke
LCb setrgbcolor
112 2603 M
currentpoint gsave translate -270 rotate 0 0 M
(dipole strength) Cshow
grestore
LTb
LCb setrgbcolor
3942 238 M
(energy \(cm-1\)   \(temp= 30.00, fwhm=  0.05\)) Cshow
LTb
3942 4829 M
(ED+MD Theoretical hyperfine intensity..          \(5I8 -> 5I7\)) Cshow
182 70 M
(Wed Aug 22 22:18:33 2012) Lshow
1.000 UP
1.000 UL
LTb
% Begin plot #1
1.000 UL
LT0
LCb setrgbcolor
6296 4486 M
(ISOTROPIC) Rshow
LT0
6380 4486 M
399 0 V
938 590 M
3 0 V
3 0 V
3 0 V
3 0 V
3 0 V
3 0 V
3 0 V
2 0 V
3 0 V
3 0 V
3 0 V
3 0 V
3 0 V
3 0 V
3 0 V
3 0 V
3 0 V
3 0 V
3 0 V
3 0 V
3 0 V
3 0 V
3 0 V
2 0 V
3 0 V
3 0 V
3 0 V
3 0 V
3 0 V
3 0 V
3 0 V
3 0 V
3 0 V
3 0 V
3 0 V
3 0 V
3 0 V
3 0 V
2 0 V
3 0 V
3 0 V
3 0 V
3 0 V
3 0 V
3 0 V
3 0 V
3 0 V
3 0 V
3 0 V
3 0 V
3 0 V
3 0 V
3 0 V
3 0 V
2 0 V
3 0 V
3 0 V
3 0 V
3 0 V
3 0 V
3 0 V
3 0 V
3 0 V
3 0 V
3 0 V
3 0 V
3 0 V
3 0 V
3 0 V
2 0 V
3 0 V
3 0 V
3 0 V
3 0 V
3 0 V
3 0 V
3 0 V
3 0 V
3 0 V
3 0 V
3 0 V
3 0 V
3 0 V
3 0 V
3 0 V
2 0 V
3 0 V
3 0 V
3 0 V
3 0 V
3 0 V
3 0 V
3 0 V
3 0 V
3 0 V
3 0 V
3 0 V
3 0 V
3 0 V
3 0 V
2 0 V
3 0 V
stroke 1237 590 M
3 0 V
3 0 V
3 0 V
3 0 V
3 0 V
3 0 V
3 0 V
3 0 V
3 0 V
3 0 V
3 0 V
3 1 V
3 0 V
3 0 V
2 0 V
3 0 V
3 0 V
3 0 V
3 0 V
3 0 V
3 0 V
3 0 V
3 0 V
3 0 V
3 0 V
3 0 V
3 0 V
3 0 V
3 0 V
2 0 V
3 0 V
3 0 V
3 0 V
3 0 V
3 0 V
3 0 V
3 0 V
3 0 V
3 0 V
3 0 V
3 0 V
3 0 V
3 0 V
3 0 V
3 0 V
2 0 V
3 0 V
3 0 V
3 0 V
3 0 V
3 0 V
3 0 V
3 0 V
3 0 V
3 0 V
3 0 V
3 0 V
3 0 V
3 0 V
3 0 V
2 0 V
3 0 V
3 0 V
3 0 V
3 0 V
3 0 V
3 0 V
3 0 V
3 0 V
3 0 V
3 0 V
3 0 V
3 0 V
3 1 V
3 0 V
3 0 V
2 0 V
3 0 V
3 0 V
3 0 V
3 0 V
3 0 V
3 0 V
3 0 V
3 0 V
3 0 V
3 0 V
3 0 V
3 0 V
3 0 V
3 0 V
2 0 V
3 0 V
3 0 V
3 0 V
3 0 V
3 0 V
3 0 V
3 0 V
3 0 V
3 0 V
3 0 V
3 0 V
3 0 V
stroke 1543 592 M
3 0 V
3 0 V
3 0 V
2 0 V
3 0 V
3 0 V
3 0 V
3 0 V
3 1 V
3 0 V
3 0 V
3 0 V
3 0 V
3 0 V
3 0 V
3 0 V
3 0 V
3 0 V
2 0 V
3 0 V
3 0 V
3 0 V
3 0 V
3 0 V
3 0 V
3 0 V
3 0 V
3 0 V
3 0 V
3 0 V
3 0 V
3 0 V
3 0 V
3 0 V
2 1 V
3 0 V
3 0 V
3 0 V
3 0 V
3 0 V
3 0 V
3 0 V
3 0 V
3 0 V
3 0 V
3 0 V
3 0 V
3 0 V
3 0 V
2 0 V
3 0 V
3 0 V
3 0 V
3 0 V
3 1 V
3 0 V
3 0 V
3 0 V
3 0 V
3 0 V
3 0 V
3 0 V
3 0 V
3 0 V
3 0 V
2 0 V
3 0 V
3 0 V
3 0 V
3 1 V
3 0 V
3 0 V
3 0 V
3 0 V
3 0 V
3 0 V
3 0 V
3 0 V
3 0 V
3 0 V
2 0 V
3 1 V
3 0 V
3 0 V
3 0 V
3 0 V
3 0 V
3 0 V
3 0 V
3 0 V
3 0 V
3 1 V
3 0 V
3 0 V
3 0 V
3 0 V
2 0 V
3 0 V
3 0 V
3 0 V
3 1 V
3 0 V
3 0 V
3 0 V
stroke 1848 599 M
3 0 V
3 0 V
3 0 V
3 1 V
3 0 V
3 0 V
3 0 V
2 0 V
3 0 V
3 1 V
3 0 V
3 0 V
3 0 V
3 0 V
3 0 V
3 1 V
3 0 V
3 0 V
3 0 V
3 0 V
3 1 V
3 0 V
3 0 V
2 0 V
3 1 V
3 0 V
3 0 V
3 0 V
3 1 V
3 0 V
3 0 V
3 1 V
3 0 V
3 0 V
3 0 V
3 1 V
3 0 V
3 0 V
2 1 V
3 0 V
3 1 V
3 0 V
3 0 V
3 1 V
3 0 V
3 1 V
3 0 V
3 1 V
3 0 V
3 1 V
3 0 V
3 1 V
3 0 V
3 1 V
2 1 V
3 0 V
3 1 V
3 1 V
3 0 V
3 1 V
3 1 V
3 1 V
3 1 V
3 1 V
3 0 V
3 1 V
3 2 V
3 1 V
3 1 V
2 1 V
3 1 V
3 2 V
3 1 V
3 2 V
3 1 V
3 2 V
3 2 V
3 2 V
3 2 V
3 2 V
3 3 V
3 2 V
3 3 V
3 3 V
3 3 V
2 4 V
3 4 V
3 4 V
3 4 V
3 5 V
3 6 V
3 6 V
3 7 V
3 8 V
3 9 V
3 10 V
3 11 V
3 14 V
3 15 V
3 18 V
2 22 V
3 25 V
3 32 V
3 38 V
stroke 2153 902 M
3 49 V
3 62 V
3 81 V
3 108 V
3 147 V
3 204 V
3 286 V
3 393 V
3 496 V
3 489 V
3 229 V
3 -197 V
2 -460 V
3 -468 V
3 -364 V
3 -252 V
3 -165 V
3 -100 V
3 -50 V
3 -9 V
3 31 V
3 75 V
3 127 V
3 199 V
3 294 V
3 414 V
3 515 V
2 471 V
3 153 V
3 -285 V
3 -507 V
3 -482 V
3 -366 V
3 -252 V
3 -165 V
3 -101 V
3 -50 V
3 -8 V
3 33 V
3 78 V
3 134 V
3 210 V
3 311 V
2 436 V
3 538 V
3 481 V
3 133 V
3 -321 V
3 -539 V
3 -505 V
3 -382 V
3 -267 V
3 -179 V
3 -115 V
3 -68 V
3 -30 V
3 3 V
3 36 V
2 75 V
3 122 V
3 188 V
3 278 V
3 397 V
3 525 V
3 569 V
3 355 V
3 -114 V
3 -489 V
3 -561 V
3 -459 V
3 -327 V
3 -219 V
3 -139 V
3 -80 V
2 -32 V
3 11 V
3 55 V
3 107 V
3 173 V
3 264 V
3 385 V
3 522 V
3 599 V
3 440 V
3 -20 V
3 -458 V
3 -589 V
3 -500 V
3 -360 V
2 -240 V
3 -148 V
3 -77 V
3 -19 V
3 38 V
3 98 V
3 174 V
3 274 V
3 404 V
3 549 V
3 615 V
3 417 V
3 -78 V
3 -513 V
3 -620 V
stroke 2459 3023 M
3 -518 V
2 -375 V
3 -254 V
3 -165 V
3 -99 V
3 -47 V
3 -2 V
3 44 V
3 95 V
3 160 V
3 248 V
3 368 V
3 515 V
3 636 V
3 570 V
3 161 V
3 -378 V
2 -638 V
3 -599 V
3 -454 V
3 -316 V
3 -210 V
3 -134 V
3 -75 V
3 -27 V
3 18 V
3 66 V
3 124 V
3 201 V
3 305 V
3 444 V
3 596 V
2 659 V
3 430 V
3 -115 V
3 -581 V
3 -690 V
3 -580 V
3 -429 V
3 -307 V
3 -219 V
3 -160 V
3 -119 V
3 -90 V
3 -70 V
3 -55 V
3 -45 V
3 -36 V
2 -30 V
3 -25 V
3 -21 V
3 -18 V
3 -16 V
3 -14 V
3 -12 V
3 -10 V
3 -10 V
3 -8 V
3 -7 V
3 -7 V
3 -6 V
3 -6 V
3 -5 V
2 -4 V
3 -5 V
3 -3 V
3 -4 V
3 -3 V
3 -3 V
3 -3 V
3 -3 V
3 -3 V
3 -2 V
3 -2 V
3 -2 V
3 -2 V
3 -2 V
3 -2 V
3 -1 V
2 -2 V
3 -1 V
3 -2 V
3 -1 V
3 -1 V
3 -1 V
3 -2 V
3 -1 V
3 -1 V
3 -1 V
3 -1 V
3 0 V
3 -1 V
3 -1 V
3 -1 V
2 -1 V
3 0 V
3 -1 V
3 -1 V
3 0 V
3 -1 V
3 -1 V
3 0 V
3 -1 V
3 0 V
stroke 2764 614 M
3 -1 V
3 0 V
3 -1 V
3 0 V
3 -1 V
3 0 V
2 -1 V
3 0 V
3 0 V
3 -1 V
3 0 V
3 -1 V
3 0 V
3 0 V
3 -1 V
3 0 V
3 0 V
3 -1 V
3 0 V
3 0 V
3 0 V
2 -1 V
3 0 V
3 0 V
3 -1 V
3 0 V
3 0 V
3 0 V
3 0 V
3 -1 V
3 0 V
3 0 V
3 0 V
3 -1 V
3 0 V
3 0 V
3 0 V
2 0 V
3 0 V
3 -1 V
3 0 V
3 0 V
3 0 V
3 0 V
3 0 V
3 -1 V
3 0 V
3 0 V
3 0 V
3 0 V
3 0 V
3 0 V
2 -1 V
3 0 V
3 0 V
3 0 V
3 0 V
3 0 V
3 0 V
3 0 V
3 -1 V
3 0 V
3 0 V
3 0 V
3 0 V
3 0 V
3 0 V
3 0 V
2 0 V
3 -1 V
3 0 V
3 0 V
3 0 V
3 0 V
3 0 V
3 0 V
3 0 V
3 0 V
3 0 V
3 0 V
3 0 V
3 -1 V
3 0 V
2 0 V
3 0 V
3 0 V
3 0 V
3 0 V
3 0 V
3 0 V
3 0 V
3 0 V
3 0 V
3 0 V
3 0 V
3 0 V
3 -1 V
3 0 V
3 0 V
2 0 V
3 0 V
3 0 V
3 0 V
3 0 V
stroke 3069 595 M
3 0 V
3 0 V
3 0 V
3 0 V
3 0 V
3 0 V
3 0 V
3 0 V
3 0 V
3 0 V
2 0 V
3 0 V
3 -1 V
3 0 V
3 0 V
3 0 V
3 0 V
3 0 V
3 0 V
3 0 V
3 0 V
3 0 V
3 0 V
3 0 V
3 0 V
3 0 V
2 0 V
3 0 V
3 0 V
3 0 V
3 0 V
3 0 V
3 0 V
3 0 V
3 0 V
3 0 V
3 0 V
3 0 V
3 0 V
3 0 V
3 -1 V
2 0 V
3 0 V
3 0 V
3 0 V
3 0 V
3 0 V
3 0 V
3 0 V
3 0 V
3 0 V
3 0 V
3 0 V
3 0 V
3 0 V
3 0 V
3 0 V
2 0 V
3 0 V
3 0 V
3 0 V
3 0 V
3 0 V
3 0 V
3 0 V
3 0 V
3 0 V
3 0 V
3 0 V
3 0 V
3 0 V
3 0 V
2 0 V
3 0 V
3 0 V
3 0 V
3 0 V
3 0 V
3 0 V
3 0 V
3 0 V
3 0 V
3 0 V
3 0 V
3 0 V
3 0 V
3 0 V
3 0 V
2 0 V
3 -1 V
3 0 V
3 0 V
3 0 V
3 0 V
3 0 V
3 0 V
3 0 V
3 0 V
3 0 V
3 0 V
3 0 V
3 0 V
3 0 V
2 0 V
stroke 3374 592 M
3 0 V
3 0 V
3 0 V
3 0 V
3 0 V
3 0 V
3 0 V
3 0 V
3 0 V
3 0 V
3 0 V
3 0 V
3 0 V
3 0 V
3 0 V
2 0 V
3 0 V
3 0 V
3 0 V
3 0 V
3 0 V
3 0 V
3 0 V
3 0 V
3 0 V
3 0 V
3 0 V
3 0 V
3 0 V
3 0 V
2 0 V
3 0 V
3 0 V
3 0 V
3 0 V
3 0 V
3 0 V
3 0 V
3 0 V
3 0 V
3 0 V
3 0 V
3 0 V
3 0 V
3 0 V
3 0 V
2 0 V
3 0 V
3 0 V
3 0 V
3 0 V
3 0 V
3 0 V
3 0 V
3 0 V
3 0 V
3 0 V
3 0 V
3 0 V
3 0 V
3 0 V
2 0 V
3 0 V
3 0 V
3 0 V
3 0 V
3 0 V
3 0 V
3 0 V
3 0 V
3 0 V
3 0 V
3 0 V
3 0 V
3 0 V
3 0 V
3 0 V
2 0 V
3 0 V
3 0 V
3 0 V
3 0 V
3 0 V
3 0 V
3 0 V
3 0 V
3 0 V
3 0 V
3 0 V
3 0 V
3 0 V
3 0 V
2 0 V
3 0 V
3 0 V
3 0 V
3 0 V
3 0 V
3 0 V
3 0 V
3 0 V
3 0 V
3 0 V
3 0 V
stroke 3680 592 M
3 0 V
3 0 V
3 0 V
3 0 V
2 0 V
3 0 V
3 0 V
3 0 V
3 0 V
3 0 V
3 0 V
3 0 V
3 0 V
3 0 V
3 0 V
3 0 V
3 0 V
3 0 V
3 0 V
2 0 V
3 0 V
3 0 V
3 0 V
3 0 V
3 0 V
3 0 V
3 0 V
3 0 V
3 0 V
3 0 V
3 1 V
3 0 V
3 0 V
3 0 V
3 0 V
2 0 V
3 0 V
3 0 V
3 0 V
3 0 V
3 0 V
3 0 V
3 0 V
3 0 V
3 0 V
3 0 V
3 0 V
3 0 V
3 0 V
3 0 V
2 0 V
3 0 V
3 0 V
3 0 V
3 0 V
3 0 V
3 0 V
3 0 V
3 0 V
3 0 V
3 0 V
3 0 V
3 0 V
3 0 V
3 0 V
3 0 V
2 0 V
3 0 V
3 0 V
3 0 V
3 0 V
3 0 V
3 0 V
3 0 V
3 0 V
3 0 V
3 0 V
3 0 V
3 1 V
3 0 V
3 0 V
2 0 V
3 0 V
3 0 V
3 0 V
3 0 V
3 0 V
3 0 V
3 0 V
3 0 V
3 0 V
3 0 V
3 0 V
3 0 V
3 0 V
3 0 V
3 0 V
2 0 V
3 0 V
3 0 V
3 0 V
3 0 V
3 0 V
3 0 V
stroke 3985 594 M
3 0 V
3 0 V
3 1 V
3 0 V
3 0 V
3 0 V
3 0 V
3 0 V
2 0 V
3 0 V
3 0 V
3 0 V
3 0 V
3 0 V
3 0 V
3 0 V
3 0 V
3 0 V
3 0 V
3 0 V
3 1 V
3 0 V
3 0 V
3 0 V
2 0 V
3 0 V
3 0 V
3 0 V
3 0 V
3 0 V
3 0 V
3 0 V
3 0 V
3 0 V
3 0 V
3 1 V
3 0 V
3 0 V
3 0 V
2 0 V
3 0 V
3 0 V
3 0 V
3 0 V
3 0 V
3 0 V
3 1 V
3 0 V
3 0 V
3 0 V
3 0 V
3 0 V
3 0 V
3 0 V
3 0 V
2 1 V
3 0 V
3 0 V
3 0 V
3 0 V
3 0 V
3 0 V
3 0 V
3 1 V
3 0 V
3 0 V
3 0 V
3 0 V
3 0 V
3 1 V
2 0 V
3 0 V
3 0 V
3 0 V
3 0 V
3 1 V
3 0 V
3 0 V
3 0 V
3 0 V
3 1 V
3 0 V
3 0 V
3 0 V
3 1 V
3 0 V
2 0 V
3 0 V
3 1 V
3 0 V
3 0 V
3 0 V
3 1 V
3 0 V
3 0 V
3 1 V
3 0 V
3 0 V
3 1 V
3 0 V
3 1 V
2 0 V
3 0 V
3 1 V
stroke 4290 610 M
3 0 V
3 1 V
3 0 V
3 1 V
3 0 V
3 1 V
3 0 V
3 1 V
3 0 V
3 1 V
3 1 V
3 0 V
3 1 V
2 1 V
3 1 V
3 0 V
3 1 V
3 1 V
3 1 V
3 1 V
3 1 V
3 1 V
3 1 V
3 1 V
3 1 V
3 2 V
3 1 V
3 1 V
2 2 V
3 1 V
3 2 V
3 2 V
3 2 V
3 2 V
3 2 V
3 2 V
3 3 V
3 2 V
3 3 V
3 3 V
3 3 V
3 4 V
3 4 V
3 4 V
2 5 V
3 5 V
3 5 V
3 7 V
3 6 V
3 8 V
3 9 V
3 9 V
3 11 V
3 13 V
3 14 V
3 16 V
3 20 V
3 23 V
3 27 V
2 33 V
3 41 V
3 50 V
3 64 V
3 83 V
3 109 V
3 147 V
3 203 V
3 284 V
3 394 V
3 517 V
3 571 V
3 394 V
3 -48 V
3 -430 V
3 -521 V
2 -426 V
3 -293 V
3 -178 V
3 -85 V
3 -7 V
3 70 V
3 157 V
3 263 V
3 392 V
3 506 V
3 484 V
3 186 V
3 -260 V
3 -505 V
3 -489 V
2 -368 V
3 -243 V
3 -142 V
3 -60 V
3 13 V
3 87 V
3 176 V
3 286 V
3 411 V
3 496 V
3 397 V
3 30 V
3 -371 V
3 -519 V
stroke 4596 2750 M
3 -458 V
3 -338 V
2 -233 V
3 -153 V
3 -95 V
3 -48 V
3 -10 V
3 29 V
3 72 V
3 124 V
3 196 V
3 292 V
3 406 V
3 490 V
3 411 V
3 68 V
3 -330 V
2 -494 V
3 -446 V
3 -332 V
3 -229 V
3 -151 V
3 -93 V
3 -50 V
3 -13 V
3 23 V
3 63 V
3 111 V
3 175 V
3 262 V
3 371 V
3 464 V
3 430 V
2 144 V
3 -257 V
3 -467 V
3 -447 V
3 -342 V
3 -239 V
3 -159 V
3 -102 V
3 -57 V
3 -21 V
3 12 V
3 47 V
3 91 V
3 146 V
3 222 V
2 321 V
3 422 V
3 445 V
3 249 V
3 -137 V
3 -418 V
3 -458 V
3 -371 V
3 -268 V
3 -186 V
3 -128 V
3 -86 V
3 -56 V
3 -33 V
3 -13 V
3 5 V
2 26 V
3 47 V
3 77 V
3 116 V
3 172 V
3 249 V
3 348 V
3 432 V
3 401 V
3 139 V
3 -236 V
3 -433 V
3 -420 V
3 -324 V
3 -231 V
2 -159 V
3 -110 V
3 -73 V
3 -48 V
3 -26 V
3 -9 V
3 9 V
3 27 V
3 50 V
3 79 V
3 119 V
3 175 V
3 254 V
3 349 V
3 420 V
3 353 V
2 60 V
3 -285 V
3 -432 V
3 -396 V
3 -301 V
3 -217 V
3 -154 V
3 -111 V
3 -82 V
stroke 4901 978 M
3 -62 V
3 -48 V
3 -37 V
3 -30 V
3 -24 V
3 -20 V
2 -16 V
3 -14 V
3 -12 V
3 -10 V
3 -9 V
3 -8 V
3 -7 V
3 -6 V
3 -5 V
3 -5 V
3 -4 V
3 -4 V
3 -4 V
3 -3 V
3 -3 V
3 -3 V
2 -2 V
3 -2 V
3 -3 V
3 -2 V
3 -1 V
3 -2 V
3 -2 V
3 -1 V
3 -2 V
3 -1 V
3 -1 V
3 -1 V
3 -1 V
3 -2 V
3 -1 V
2 0 V
3 -1 V
3 -1 V
3 -1 V
3 -1 V
3 0 V
3 -1 V
3 -1 V
3 0 V
3 -1 V
3 -1 V
3 0 V
3 -1 V
3 0 V
3 -1 V
3 0 V
2 -1 V
3 0 V
3 -1 V
3 0 V
3 0 V
3 -1 V
3 0 V
3 -1 V
3 0 V
3 0 V
3 -1 V
3 0 V
3 0 V
3 0 V
3 -1 V
2 0 V
3 0 V
3 -1 V
3 0 V
3 0 V
3 0 V
3 -1 V
3 0 V
3 0 V
3 0 V
3 0 V
3 -1 V
3 0 V
3 0 V
3 0 V
3 0 V
2 0 V
3 -1 V
3 0 V
3 0 V
3 0 V
3 0 V
3 0 V
3 -1 V
3 0 V
3 0 V
3 0 V
3 0 V
3 0 V
3 0 V
3 -1 V
2 0 V
3 0 V
3 0 V
3 0 V
3 0 V
stroke 5206 598 M
3 0 V
3 0 V
3 0 V
3 -1 V
3 0 V
3 0 V
3 0 V
3 0 V
3 0 V
3 0 V
3 0 V
2 0 V
3 0 V
3 -1 V
3 0 V
3 0 V
3 0 V
3 0 V
3 0 V
3 0 V
3 0 V
3 0 V
3 0 V
3 0 V
3 0 V
3 0 V
2 0 V
3 -1 V
3 0 V
3 0 V
3 0 V
3 0 V
3 0 V
3 0 V
3 0 V
3 0 V
3 0 V
3 0 V
3 0 V
3 0 V
3 0 V
3 0 V
2 0 V
3 0 V
3 -1 V
3 0 V
3 0 V
3 0 V
3 0 V
3 0 V
3 0 V
3 0 V
3 0 V
3 0 V
3 0 V
3 0 V
3 0 V
2 0 V
3 0 V
3 0 V
3 0 V
3 0 V
3 0 V
3 0 V
3 0 V
3 0 V
3 0 V
3 0 V
3 0 V
3 -1 V
3 0 V
3 0 V
3 0 V
2 0 V
3 0 V
3 0 V
3 0 V
3 0 V
3 0 V
3 0 V
3 0 V
3 0 V
3 0 V
3 0 V
3 0 V
3 0 V
3 0 V
3 0 V
3 0 V
2 0 V
3 0 V
3 0 V
3 0 V
3 0 V
3 0 V
3 0 V
3 0 V
3 0 V
3 0 V
3 0 V
3 0 V
3 0 V
3 0 V
3 0 V
stroke 5512 593 M
2 0 V
3 0 V
3 0 V
3 0 V
3 0 V
3 0 V
3 0 V
3 0 V
3 -1 V
3 0 V
3 0 V
3 0 V
3 0 V
3 0 V
3 0 V
3 0 V
2 0 V
3 0 V
3 0 V
3 0 V
3 0 V
3 0 V
3 0 V
3 0 V
3 0 V
3 0 V
3 0 V
3 0 V
3 0 V
3 0 V
3 0 V
2 0 V
3 0 V
3 0 V
3 0 V
3 0 V
3 0 V
3 0 V
3 0 V
3 0 V
3 0 V
3 0 V
3 0 V
3 0 V
3 0 V
3 0 V
3 0 V
2 0 V
3 0 V
3 0 V
3 0 V
3 0 V
3 0 V
3 0 V
3 0 V
3 0 V
3 0 V
3 0 V
3 0 V
3 0 V
3 0 V
3 0 V
2 0 V
3 0 V
3 0 V
3 0 V
3 0 V
3 0 V
3 0 V
3 0 V
3 0 V
3 0 V
3 0 V
3 0 V
3 0 V
3 0 V
3 0 V
3 0 V
2 0 V
3 0 V
3 0 V
3 0 V
3 0 V
3 0 V
3 0 V
3 0 V
3 0 V
3 0 V
3 0 V
3 0 V
3 0 V
3 0 V
3 0 V
2 0 V
3 0 V
3 0 V
3 0 V
3 0 V
3 0 V
3 0 V
3 0 V
3 0 V
3 0 V
3 0 V
stroke 5817 592 M
3 0 V
3 0 V
3 0 V
3 0 V
3 0 V
2 0 V
3 0 V
3 0 V
3 0 V
3 0 V
3 0 V
3 0 V
3 0 V
3 0 V
3 0 V
3 0 V
3 0 V
3 0 V
3 0 V
3 0 V
2 0 V
3 0 V
3 0 V
3 0 V
3 0 V
3 0 V
3 0 V
3 1 V
3 0 V
3 0 V
3 0 V
3 0 V
3 0 V
3 0 V
3 0 V
3 0 V
2 0 V
3 0 V
3 0 V
3 0 V
3 0 V
3 0 V
3 0 V
3 0 V
3 0 V
3 0 V
3 0 V
3 0 V
3 0 V
3 0 V
3 0 V
2 0 V
3 0 V
3 0 V
3 0 V
3 0 V
3 0 V
3 0 V
3 0 V
3 1 V
3 0 V
3 0 V
3 0 V
3 0 V
3 0 V
3 0 V
3 0 V
2 0 V
3 0 V
3 0 V
3 0 V
3 0 V
3 0 V
3 0 V
3 0 V
3 1 V
3 0 V
3 0 V
3 0 V
3 0 V
3 0 V
3 0 V
2 0 V
3 0 V
3 0 V
3 0 V
3 1 V
3 0 V
3 0 V
3 0 V
3 0 V
3 0 V
3 0 V
3 0 V
3 1 V
3 0 V
3 0 V
3 0 V
2 0 V
3 1 V
3 0 V
3 0 V
3 0 V
3 0 V
stroke 6122 598 M
3 1 V
3 0 V
3 0 V
3 0 V
3 1 V
3 0 V
3 0 V
3 1 V
3 0 V
2 0 V
3 1 V
3 0 V
3 1 V
3 0 V
3 1 V
3 0 V
3 1 V
3 0 V
3 1 V
3 1 V
3 1 V
3 1 V
3 1 V
3 1 V
3 1 V
2 1 V
3 2 V
3 1 V
3 2 V
3 2 V
3 2 V
3 3 V
3 2 V
3 4 V
3 3 V
3 5 V
3 5 V
3 6 V
3 8 V
3 9 V
2 11 V
3 14 V
3 18 V
3 23 V
3 31 V
3 42 V
3 57 V
3 81 V
3 114 V
3 152 V
3 175 V
3 135 V
3 6 V
3 -127 V
3 -173 V
3 -151 V
2 -113 V
3 -79 V
3 -56 V
3 -39 V
3 -27 V
3 -20 V
3 -13 V
3 -8 V
3 -5 V
3 -1 V
3 1 V
3 5 V
3 9 V
3 14 V
3 19 V
2 26 V
3 38 V
3 53 V
3 75 V
3 107 V
3 147 V
3 176 V
3 153 V
3 36 V
3 -110 V
3 -175 V
3 -163 V
3 -123 V
3 -88 V
3 -62 V
3 -43 V
2 -31 V
3 -21 V
3 -15 V
3 -10 V
3 -6 V
3 -2 V
3 2 V
3 4 V
3 9 V
3 13 V
3 19 V
3 27 V
3 38 V
3 53 V
3 77 V
2 108 V
3 148 V
stroke 6427 1222 M
3 178 V
3 154 V
3 35 V
3 -111 V
3 -177 V
3 -163 V
3 -124 V
3 -86 V
3 -60 V
3 -40 V
3 -28 V
3 -20 V
3 -16 V
3 -12 V
2 -8 V
3 -4 V
3 2 V
3 5 V
3 11 V
3 15 V
3 19 V
3 24 V
3 34 V
3 48 V
3 72 V
3 101 V
3 140 V
3 176 V
3 171 V
2 76 V
3 -79 V
3 -174 V
3 -175 V
3 -136 V
3 -97 V
3 -66 V
3 -48 V
3 -35 V
3 -28 V
3 -20 V
3 -13 V
3 -6 V
3 -2 V
3 4 V
3 9 V
2 13 V
3 16 V
3 18 V
3 25 V
3 37 V
3 55 V
3 82 V
3 118 V
3 162 V
3 194 V
3 163 V
3 29 V
3 -127 V
3 -194 V
3 -175 V
2 -131 V
3 -92 V
3 -62 V
3 -40 V
3 -27 V
3 -20 V
3 -17 V
3 -15 V
3 -10 V
3 -6 V
3 1 V
3 6 V
3 13 V
3 19 V
3 25 V
3 31 V
2 40 V
3 58 V
3 85 V
3 124 V
3 169 V
3 194 V
3 147 V
3 -1 V
3 -148 V
3 -196 V
3 -172 V
3 -129 V
3 -91 V
3 -64 V
3 -45 V
2 -32 V
3 -22 V
3 -15 V
3 -10 V
3 -5 V
3 -1 V
3 4 V
3 7 V
3 13 V
3 19 V
3 27 V
3 38 V
3 55 V
stroke 6733 908 M
3 79 V
3 112 V
3 155 V
2 196 V
3 188 V
3 78 V
3 -92 V
3 -193 V
3 -193 V
3 -152 V
3 -109 V
3 -77 V
3 -53 V
3 -38 V
3 -27 V
3 -18 V
3 -13 V
3 -7 V
2 -3 V
3 2 V
3 5 V
3 11 V
3 16 V
3 24 V
3 35 V
3 49 V
3 71 V
3 101 V
3 142 V
3 189 V
3 205 V
3 131 V
3 -37 V
3 -178 V
2 -209 V
3 -174 V
3 -129 V
3 -92 V
3 -65 V
3 -48 V
3 -35 V
3 -26 V
3 -21 V
3 -16 V
3 -13 V
3 -11 V
3 -8 V
3 -7 V
3 -6 V
2 -6 V
3 -4 V
3 -4 V
3 -3 V
3 -3 V
3 -3 V
3 -2 V
3 -2 V
3 -2 V
3 -2 V
3 -1 V
3 -2 V
3 -1 V
3 -1 V
3 -1 V
3 -1 V
2 -1 V
3 -1 V
3 0 V
3 -1 V
3 -1 V
3 0 V
3 -1 V
3 -1 V
% End plot #1
% Begin plot #2
stroke
LT1
2559 588 M
0 1820 V
5 -1820 R
2293 0 R
10 0 R
10 0 R
0 1148 V
6650 588 M
28 0 R
0 6 V
26 -6 R
27 0 R
25 0 R
25 0 R
24 0 R
23 0 R
0 557 V
2505 588 M
0 1749 V
4 -1749 R
2294 0 R
9 0 R
0 1194 V
4822 588 M
1774 0 R
27 0 R
27 0 R
0 10 V
27 -10 R
0 1 V
25 -1 R
25 0 R
23 0 R
0 541 V
23 -541 R
-4322 0 R
0 1679 V
4 -1679 R
0 1 V
2294 -1 R
0 1242 V
9 -1242 R
10 0 R
1774 0 R
27 0 R
27 0 R
27 0 R
0 13 V
25 -13 R
0 5 V
24 -5 R
0 522 V
24 -522 R
23 0 R
-4322 0 R
4 0 R
0 1610 V
4695 588 M
0 1290 V
4705 588 M
9 0 R
1774 0 R
27 0 R
0 1 V
27 -1 R
27 0 R
25 0 R
0 522 V
25 -522 R
0 4 V
23 -4 R
23 0 R
-4321 0 R
4 0 R
0 1543 V
4642 588 M
0 1339 V
9 -1339 R
10 0 R
1773 0 R
28 0 R
26 0 R
0 8 V
27 -8 R
0 492 V
25 -492 R
25 0 R
0 13 V
24 -13 R
23 0 R
-4321 0 R
0 1477 V
4 -1477 R
2294 0 R
0 1388 V
9 -1388 R
10 0 R
1773 0 R
28 0 R
26 0 R
0 480 V
27 -480 R
0 8 V
25 -8 R
25 0 R
24 0 R
0 11 V
stroke 6536 599 M
23 -11 R
-4321 0 R
0 1413 V
4 -1413 R
2294 0 R
9 0 R
0 1437 V
4555 588 M
1774 0 R
27 0 R
0 476 V
27 -476 R
27 0 R
25 0 R
0 1 V
25 -1 R
23 0 R
23 0 R
0 6 V
2186 588 M
0 1351 V
4 -1351 R
2294 0 R
9 0 R
10 0 R
0 1488 V
6276 588 M
0 465 V
28 -465 R
26 0 R
27 0 R
25 0 R
25 0 R
24 0 R
23 0 R
-4967 0 R
4 0 R
4 0 R
42 0 R
52 0 R
50 0 R
50 0 R
50 0 R
50 0 R
50 0 R
50 0 R
-435 0 R
4 0 R
5 0 R
42 0 R
51 0 R
50 0 R
50 0 R
50 0 R
50 0 R
50 0 R
50 0 R
-434 0 R
4 0 R
4 0 R
43 0 R
51 0 R
50 0 R
50 0 R
50 0 R
50 0 R
50 0 R
50 0 R
-434 0 R
4 0 R
4 0 R
43 0 R
51 0 R
50 0 R
50 0 R
50 0 R
50 0 R
50 0 R
50 0 R
-434 0 R
4 0 R
5 0 R
42 0 R
51 0 R
50 0 R
50 0 R
50 0 R
50 0 R
50 0 R
50 0 R
-433 0 R
4 0 R
4 0 R
42 0 R
52 0 R
50 0 R
50 0 R
50 0 R
50 0 R
50 0 R
50 0 R
-433 0 R
4 0 R
4 0 R
42 0 R
52 0 R
50 0 R
50 0 R
50 0 R
50 0 R
50 0 R
50 0 R
-433 0 R
4 0 R
4 0 R
42 0 R
52 0 R
50 0 R
50 0 R
50 0 R
50 0 R
50 0 R
50 0 R
1785 0 R
9 0 R
8 0 R
18 0 R
8 0 R
13 0 R
11 0 R
12 0 R
-83 0 R
9 0 R
8 0 R
18 0 R
8 0 R
13 0 R
11 0 R
12 0 R
% End plot #2
stroke
LTb
938 4619 N
938 588 L
6009 0 V
0 4031 V
-6009 0 V
Z stroke
1.000 UP
1.000 UL
LTb
stroke
grestore
end
showpage
%%Trailer
%%DocumentFonts: Helvetica
%%Pages: 1
