 savevect ercf                                                                                                                                                                                                                                                  
CREATED   18 May 2020 13:38:07  BY CFIT 28 Oct 13      
SPIN HAMILTONIAN
STATERANGE 1 6
NTENSORS   5
m100      
 3.211455983988829e-14  0.000000000000000e+00    0.000000000000000e+00  0.000000000000000e+00    0.000000000000000e+00  0.000000000000000e+00    0.000000000000000e+00  0.000000000000000e+00    0.000000000000000e+00  0.000000000000000e+00    0.000000000000000e+00  0.000000000000000e+00   
 0.000000000000000e+00  0.000000000000000e+00    3.211455983988829e-14  0.000000000000000e+00    0.000000000000000e+00  0.000000000000000e+00    0.000000000000000e+00  0.000000000000000e+00    0.000000000000000e+00  0.000000000000000e+00    0.000000000000000e+00  0.000000000000000e+00   
 0.000000000000000e+00  0.000000000000000e+00    0.000000000000000e+00  0.000000000000000e+00    3.211455983988829e-14  0.000000000000000e+00    0.000000000000000e+00  0.000000000000000e+00    0.000000000000000e+00  0.000000000000000e+00    0.000000000000000e+00  0.000000000000000e+00   
 0.000000000000000e+00  0.000000000000000e+00    0.000000000000000e+00  0.000000000000000e+00    0.000000000000000e+00  0.000000000000000e+00    3.211455983988829e-14  0.000000000000000e+00    0.000000000000000e+00  0.000000000000000e+00    0.000000000000000e+00  0.000000000000000e+00   
 0.000000000000000e+00  0.000000000000000e+00    0.000000000000000e+00  0.000000000000000e+00    0.000000000000000e+00  0.000000000000000e+00    0.000000000000000e+00  0.000000000000000e+00    3.211455983988829e-14  0.000000000000000e+00    0.000000000000000e+00  0.000000000000000e+00   
 0.000000000000000e+00  0.000000000000000e+00    0.000000000000000e+00  0.000000000000000e+00    0.000000000000000e+00  0.000000000000000e+00    0.000000000000000e+00  0.000000000000000e+00    0.000000000000000e+00  0.000000000000000e+00    3.211455983988829e-14  0.000000000000000e+00   
m010      
-8.065189378706535e-16  0.000000000000000e+00    0.000000000000000e+00  0.000000000000000e+00    0.000000000000000e+00  0.000000000000000e+00    0.000000000000000e+00  0.000000000000000e+00    0.000000000000000e+00  0.000000000000000e+00    0.000000000000000e+00  0.000000000000000e+00   
 0.000000000000000e+00  0.000000000000000e+00   -8.065189378706535e-16  0.000000000000000e+00    0.000000000000000e+00  0.000000000000000e+00    0.000000000000000e+00  0.000000000000000e+00    0.000000000000000e+00  0.000000000000000e+00    0.000000000000000e+00  0.000000000000000e+00   
 0.000000000000000e+00  0.000000000000000e+00    0.000000000000000e+00  0.000000000000000e+00   -8.065189378706535e-16  0.000000000000000e+00    0.000000000000000e+00  0.000000000000000e+00    0.000000000000000e+00  0.000000000000000e+00    0.000000000000000e+00  0.000000000000000e+00   
 0.000000000000000e+00  0.000000000000000e+00    0.000000000000000e+00  0.000000000000000e+00    0.000000000000000e+00  0.000000000000000e+00   -8.065189378706535e-16  0.000000000000000e+00    0.000000000000000e+00  0.000000000000000e+00    0.000000000000000e+00  0.000000000000000e+00   
 0.000000000000000e+00  0.000000000000000e+00    0.000000000000000e+00  0.000000000000000e+00    0.000000000000000e+00  0.000000000000000e+00    0.000000000000000e+00  0.000000000000000e+00   -8.065189378706535e-16  0.000000000000000e+00    0.000000000000000e+00  0.000000000000000e+00   
 0.000000000000000e+00  0.000000000000000e+00    0.000000000000000e+00  0.000000000000000e+00    0.000000000000000e+00  0.000000000000000e+00    0.000000000000000e+00  0.000000000000000e+00    0.000000000000000e+00  0.000000000000000e+00   -8.065189378706535e-16  0.000000000000000e+00   
m001      
 2.410818567618201e-14  0.000000000000000e+00    0.000000000000000e+00  0.000000000000000e+00    0.000000000000000e+00  0.000000000000000e+00    0.000000000000000e+00  0.000000000000000e+00    0.000000000000000e+00  0.000000000000000e+00    0.000000000000000e+00  0.000000000000000e+00   
 0.000000000000000e+00  0.000000000000000e+00    2.410818567618201e-14  0.000000000000000e+00    0.000000000000000e+00  0.000000000000000e+00    0.000000000000000e+00  0.000000000000000e+00    0.000000000000000e+00  0.000000000000000e+00    0.000000000000000e+00  0.000000000000000e+00   
 0.000000000000000e+00  0.000000000000000e+00    0.000000000000000e+00  0.000000000000000e+00    2.410818567618201e-14  0.000000000000000e+00    0.000000000000000e+00  0.000000000000000e+00    0.000000000000000e+00  0.000000000000000e+00    0.000000000000000e+00  0.000000000000000e+00   
 0.000000000000000e+00  0.000000000000000e+00    0.000000000000000e+00  0.000000000000000e+00    0.000000000000000e+00  0.000000000000000e+00    2.410818567618201e-14  0.000000000000000e+00    0.000000000000000e+00  0.000000000000000e+00    0.000000000000000e+00  0.000000000000000e+00   
 0.000000000000000e+00  0.000000000000000e+00    0.000000000000000e+00  0.000000000000000e+00    0.000000000000000e+00  0.000000000000000e+00    0.000000000000000e+00  0.000000000000000e+00    2.410818567618201e-14  0.000000000000000e+00    0.000000000000000e+00  0.000000000000000e+00   
 0.000000000000000e+00  0.000000000000000e+00    0.000000000000000e+00  0.000000000000000e+00    0.000000000000000e+00  0.000000000000000e+00    0.000000000000000e+00  0.000000000000000e+00    0.000000000000000e+00  0.000000000000000e+00    2.410818567618201e-14  0.000000000000000e+00   
al        
-1.972896308195565e-13  4.141017024184186e-17    2.524758282367539e-13 -4.844615953249285e-15    0.000000000000000e+00  0.000000000000000e+00    0.000000000000000e+00  0.000000000000000e+00    1.997677699141083e-13  4.167948992607508e-15    0.000000000000000e+00  0.000000000000000e+00   
 2.524758282367539e-13  4.844615953249285e-15   -6.617088956003961e-14  1.328147661294743e-18    0.000000000000000e+00  0.000000000000000e+00    2.682327262390418e-13 -5.262514533793330e-15    0.000000000000000e+00  0.000000000000000e+00    0.000000000000000e+00  0.000000000000000e+00   
 0.000000000000000e+00  0.000000000000000e+00    0.000000000000000e+00  0.000000000000000e+00    1.972896308195565e-13 -4.141017024184186e-17    2.524758282367539e-13  4.844615953249285e-15    0.000000000000000e+00  0.000000000000000e+00    1.997677699141083e-13 -4.167948992607508e-15   
 0.000000000000000e+00  0.000000000000000e+00    2.682327262390418e-13  5.262514533793330e-15    2.524758282367539e-13 -4.844615953249285e-15    6.617088956003961e-14 -1.328147661294743e-18    0.000000000000000e+00  0.000000000000000e+00    0.000000000000000e+00  0.000000000000000e+00   
 1.997677699141083e-13 -4.167948992607508e-15    0.000000000000000e+00  0.000000000000000e+00    0.000000000000000e+00  0.000000000000000e+00    0.000000000000000e+00  0.000000000000000e+00   -3.296226715242354e-13 -5.963831926675441e-17    0.000000000000000e+00  0.000000000000000e+00   
 0.000000000000000e+00  0.000000000000000e+00    0.000000000000000e+00  0.000000000000000e+00    1.997677699141083e-13  4.167948992607508e-15    0.000000000000000e+00  0.000000000000000e+00    0.000000000000000e+00  0.000000000000000e+00    3.296226715242354e-13  5.963831926675441e-17   
EQHYP     
 7.057721834876800e-03  5.537477892674988e-20   -2.164665033777449e-02 -1.537878848160723e-02    0.000000000000000e+00  0.000000000000000e+00    2.034959846437289e-02 -1.095493510492702e-02   -3.422635939031028e-02  2.431599962792065e-02    0.000000000000000e+00  0.000000000000000e+00   
-2.164665033777449e-02  1.537878848160723e-02    2.823088733950719e-02  1.886765890008954e-19    2.034959846437289e-02 -1.095493510492702e-02    0.000000000000000e+00  0.000000000000000e+00    1.516769516038769e-02  8.165326527905206e-03    0.000000000000000e+00  0.000000000000000e+00   
 0.000000000000000e+00  0.000000000000000e+00    2.034959846437289e-02  1.095493510492702e-02    7.057721834876800e-03  5.537477892674988e-20    2.164665033777449e-02 -1.537878848160723e-02    0.000000000000000e+00  0.000000000000000e+00    3.422635939031028e-02  2.431599962792065e-02   
 2.034959846437289e-02  1.095493510492702e-02    0.000000000000000e+00  0.000000000000000e+00    2.164665033777449e-02  1.537878848160723e-02    2.823088733950720e-02  2.214991157069995e-19    0.000000000000000e+00  0.000000000000000e+00    1.516769516038769e-02 -8.165326527905206e-03   
-3.422635939031028e-02 -2.431599962792065e-02    1.516769516038769e-02 -8.165326527905206e-03    0.000000000000000e+00  0.000000000000000e+00    0.000000000000000e+00  0.000000000000000e+00   -3.528860917438396e-02  5.421010862427522e-19    0.000000000000000e+00  0.000000000000000e+00   
 0.000000000000000e+00  0.000000000000000e+00    0.000000000000000e+00  0.000000000000000e+00    3.422635939031028e-02 -2.431599962792065e-02    1.516769516038769e-02  8.165326527905206e-03    0.000000000000000e+00  0.000000000000000e+00   -3.528860917438396e-02  5.421010862427522e-19   
