*% ho3+ c4v  cf calculation with weighting

READSTATES  hoc4v
READTENSORS hoc4v

*% Ho LaF3 free ion parameters
ADDTEN MTOT M0 1 M2 0.56 M4 0.31
ADDTEN PTOT P2 1 P4 0.5 P6 0.1
*%
ASSIGN F2 94564 F4 66397 F6 52022
ASSIGN ALPHA 17.15 BETA -607.9 GAMMA 1800
assign t2 400 t3 37 t4 107 t6 -264 t7 316 t8 336
ASSIGN ZETA 2145
ASSIGN MTOT 2.54 PTOT 605

*% note sign changes are no longer needed. 

addten b4c c40 1 c44 .597614
addten b6c c60 1 c64 -1.870829
addten b2a c20 1
addten b4a c40 1 c44 -.836660
addten b6a c60 1 c64 .267261

addten m111 mag10 0.2695 mag11 -0.190595+i0.190595
addten m001 mag10 0.466860
addten m100 mag11 0.330120

addten 5i8b4c 5i8c40 1 5i8c44 .597614
addten 5i8b6c 5i8c60 1 5i8c64 -1.870829
addten 5i8b2a 5i8c20 1
addten 5i8b4a 5i8c40 1 5i8c44 -.836660
addten 5i8b6a 5i8c60 1 5i8c64 .267261

addten 5i7b4c 5i7c40 1 5i7c44 .597614
addten 5i7b6c 5i7c60 1 5i7c64 -1.870829
addten 5i7b2a 5i7c20 1
addten 5i7b4a 5i7c40 1 5i7c44 -.836660
addten 5i7b6a 5i7c60 1 5i7c64 .267261


assign b2a 678
assign b4a 345
assign b6a 420
assign b4c -1075
assign b6c 559

exptval finalweighted.exp weight

delta b2a 1 b4a 1 b6a 1 b4c 1 b6c 1
delta f2 1 f4 1 f6 1
delta zeta 1

diag

lsq 10

saveparam finalweighted.parameters
weighed parameter fit

save hoc4v 
hoc4v eigenvectors 

finish

