Wed Aug 22 16:01:49 NZST 2012
Current directory:
/home/mfr24/calculations/f10
Log file:
657.sljcalc.log
Executable file:
-rwxr-xr-x. 1 mfr24 users 390205 Dec 22  2006 /home/mfr24/linuxemp/bin/sljcalc.exe
Input file:
-rw-r--r--. 1 mfr24 users 75 Apr 16  2002 f10slj.dat

** PROGRAM SLJCALC 07 Oct 01    **   22 Aug 2012 16:01:50 

->SLJCALC f10sl f10slj
  READING FROM f10sl
  WRITING INFO TO f10slj.i_
  WRITING MES  TO f10slj.mm_
  READING STATES
   10 F ELECTRONS: STATES AND REDUCED MATRIX ELEMENTS                                                                                                                                                                                                             
  CREATED   22 Aug 2012 16:01:34  BY READCROSS 15 Oct 00                                                                                                                                                                                                          

     47 STATES       Y  2S  2L   X

      1 [5S >        0   4   0   0
      2 [5D >        0   4   4   0
      3 [5F >        0   4   6   0
      4 [5G >        0   4   8   0
      5 [5I >        0   4  12   0
      6 [3P1>        0   2   2   1
      7 [3P2>        0   2   2   2
      8 [3P3>        0   2   2   3
      9 [3D1>        0   2   4   1
     10 [3D2>        0   2   4   2
     11 [3F1>        0   2   6   1
     12 [3F2>        0   2   6   2
     13 [3F3>        0   2   6   3
     14 [3F4>        0   2   6   4
     15 [3G1>        0   2   8   1
     16 [3G2>        0   2   8   2
     17 [3G3>        0   2   8   3
     18 [3H1>        0   2  10   1
     19 [3H2>        0   2  10   2
     20 [3H3>        0   2  10   3
     21 [3H4>        0   2  10   4
     22 [3I1>        0   2  12   1
     23 [3I2>        0   2  12   2
     24 [3K1>        0   2  14   1
     25 [3K2>        0   2  14   2
     26 [3L >        0   2  16   0
     27 [3M >        0   2  18   0
     28 [1S1>        0   0   0   1
     29 [1S2>        0   0   0   2
     30 [1D1>        0   0   4   1
     31 [1D2>        0   0   4   2
     32 [1D3>        0   0   4   3
     33 [1D4>        0   0   4   4
     34 [1F >        0   0   6   0
     35 [1G1>        0   0   8   1
     36 [1G2>        0   0   8   2
     37 [1G3>        0   0   8   3
     38 [1G4>        0   0   8   4
     39 [1H1>        0   0  10   1
     40 [1H2>        0   0  10   2
     41 [1I1>        0   0  12   1
     42 [1I2>        0   0  12   2
     43 [1I3>        0   0  12   3
     44 [1K >        0   0  14   0
     45 [1L1>        0   0  16   1
     46 [1L2>        0   0  16   2
     47 [1N >        0   0  20   0
  22 Aug 2012 16:01:50 

  SLJ LABELS

    107 STATES         Y  2S  2L   X  2J WHICHSL

      1 [5S  2>        0   4   0   0   4   1
      2 [5D  0>        0   4   4   0   0   2
      3 [5D  1>        0   4   4   0   2   2
      4 [5D  2>        0   4   4   0   4   2
      5 [5D  3>        0   4   4   0   6   2
      6 [5D  4>        0   4   4   0   8   2
      7 [5F  1>        0   4   6   0   2   3
      8 [5F  2>        0   4   6   0   4   3
      9 [5F  3>        0   4   6   0   6   3
     10 [5F  4>        0   4   6   0   8   3
     11 [5F  5>        0   4   6   0  10   3
     12 [5G  2>        0   4   8   0   4   4
     13 [5G  3>        0   4   8   0   6   4
     14 [5G  4>        0   4   8   0   8   4
     15 [5G  5>        0   4   8   0  10   4
     16 [5G  6>        0   4   8   0  12   4
     17 [5I  4>        0   4  12   0   8   5
     18 [5I  5>        0   4  12   0  10   5
     19 [5I  6>        0   4  12   0  12   5
     20 [5I  7>        0   4  12   0  14   5
     21 [5I  8>        0   4  12   0  16   5
     22 [3P1 0>        0   2   2   1   0   6
     23 [3P1 1>        0   2   2   1   2   6
     24 [3P1 2>        0   2   2   1   4   6
     25 [3P2 0>        0   2   2   2   0   7
     26 [3P2 1>        0   2   2   2   2   7
     27 [3P2 2>        0   2   2   2   4   7
     28 [3P3 0>        0   2   2   3   0   8
     29 [3P3 1>        0   2   2   3   2   8
     30 [3P3 2>        0   2   2   3   4   8
     31 [3D1 1>        0   2   4   1   2   9
     32 [3D1 2>        0   2   4   1   4   9
     33 [3D1 3>        0   2   4   1   6   9
     34 [3D2 1>        0   2   4   2   2  10
     35 [3D2 2>        0   2   4   2   4  10
     36 [3D2 3>        0   2   4   2   6  10
     37 [3F1 2>        0   2   6   1   4  11
     38 [3F1 3>        0   2   6   1   6  11
     39 [3F1 4>        0   2   6   1   8  11
     40 [3F2 2>        0   2   6   2   4  12
     41 [3F2 3>        0   2   6   2   6  12
     42 [3F2 4>        0   2   6   2   8  12
     43 [3F3 2>        0   2   6   3   4  13
     44 [3F3 3>        0   2   6   3   6  13
     45 [3F3 4>        0   2   6   3   8  13
     46 [3F4 2>        0   2   6   4   4  14
     47 [3F4 3>        0   2   6   4   6  14
     48 [3F4 4>        0   2   6   4   8  14
     49 [3G1 3>        0   2   8   1   6  15
     50 [3G1 4>        0   2   8   1   8  15
     51 [3G1 5>        0   2   8   1  10  15
     52 [3G2 3>        0   2   8   2   6  16
     53 [3G2 4>        0   2   8   2   8  16
     54 [3G2 5>        0   2   8   2  10  16
     55 [3G3 3>        0   2   8   3   6  17
     56 [3G3 4>        0   2   8   3   8  17
     57 [3G3 5>        0   2   8   3  10  17
     58 [3H1 4>        0   2  10   1   8  18
     59 [3H1 5>        0   2  10   1  10  18
     60 [3H1 6>        0   2  10   1  12  18
     61 [3H2 4>        0   2  10   2   8  19
     62 [3H2 5>        0   2  10   2  10  19
     63 [3H2 6>        0   2  10   2  12  19
     64 [3H3 4>        0   2  10   3   8  20
     65 [3H3 5>        0   2  10   3  10  20
     66 [3H3 6>        0   2  10   3  12  20
     67 [3H4 4>        0   2  10   4   8  21
     68 [3H4 5>        0   2  10   4  10  21
     69 [3H4 6>        0   2  10   4  12  21
     70 [3I1 5>        0   2  12   1  10  22
     71 [3I1 6>        0   2  12   1  12  22
     72 [3I1 7>        0   2  12   1  14  22
     73 [3I2 5>        0   2  12   2  10  23
     74 [3I2 6>        0   2  12   2  12  23
     75 [3I2 7>        0   2  12   2  14  23
     76 [3K1 6>        0   2  14   1  12  24
     77 [3K1 7>        0   2  14   1  14  24
     78 [3K1 8>        0   2  14   1  16  24
     79 [3K2 6>        0   2  14   2  12  25
     80 [3K2 7>        0   2  14   2  14  25
     81 [3K2 8>        0   2  14   2  16  25
     82 [3L  7>        0   2  16   0  14  26
     83 [3L  8>        0   2  16   0  16  26
     84 [3L  9>        0   2  16   0  18  26
     85 [3M  8>        0   2  18   0  16  27
     86 [3M  9>        0   2  18   0  18  27
     87 [3M 10>        0   2  18   0  20  27
     88 [1S1 0>        0   0   0   1   0  28
     89 [1S2 0>        0   0   0   2   0  29
     90 [1D1 2>        0   0   4   1   4  30
     91 [1D2 2>        0   0   4   2   4  31
     92 [1D3 2>        0   0   4   3   4  32
     93 [1D4 2>        0   0   4   4   4  33
     94 [1F  3>        0   0   6   0   6  34
     95 [1G1 4>        0   0   8   1   8  35
     96 [1G2 4>        0   0   8   2   8  36
     97 [1G3 4>        0   0   8   3   8  37
     98 [1G4 4>        0   0   8   4   8  38
     99 [1H1 5>        0   0  10   1  10  39
    100 [1H2 5>        0   0  10   2  10  40
    101 [1I1 6>        0   0  12   1  12  41
    102 [1I2 6>        0   0  12   2  12  42
    103 [1I3 6>        0   0  12   3  12  43
    104 [1K  7>        0   0  14   0  14  44
    105 [1L1 8>        0   0  16   1  16  45
    106 [1L2 8>        0   0  16   2  16  46
    107 [1N 10>        0   0  20   0  20  47

  22 Aug 2012 16:01:50 
  MATRIX ELEMENTS

  *****  EAVG       107 MATRIX ELEMENTS *****




  *****  F2        S= 0    L= 0   J= 0    *****
     83 SL (REDUCED) MATRIX ELEMENTS
  *****  F2          179 MATRIX ELEMENTS  ***** TRACE: -0.000 *****
  22 Aug 2012 16:01:50 



  *****  F4        S= 0    L= 0   J= 0    *****
     83 SL (REDUCED) MATRIX ELEMENTS
  *****  F4          179 MATRIX ELEMENTS  ***** TRACE: -0.000 *****
  22 Aug 2012 16:01:50 



  *****  F6        S= 0    L= 0   J= 0    *****
     83 SL (REDUCED) MATRIX ELEMENTS
  *****  F6          179 MATRIX ELEMENTS  ***** TRACE:  0.000 *****
  22 Aug 2012 16:01:50 



  *****  ALPHA     S= 0    L= 0   J= 0    *****
     47 SL (REDUCED) MATRIX ELEMENTS
  *****  ALPHA       107 MATRIX ELEMENTS  ***** TRACE:  0.077 *****
  22 Aug 2012 16:01:50 



  *****  BETA      S= 0    L= 0   J= 0    *****
     47 SL (REDUCED) MATRIX ELEMENTS
  *****  BETA        107 MATRIX ELEMENTS  ***** TRACE: -0.000 *****
  22 Aug 2012 16:01:50 



  *****  GAMMA     S= 0    L= 0   J= 0    *****
     47 SL (REDUCED) MATRIX ELEMENTS
  *****  GAMMA       107 MATRIX ELEMENTS  ***** TRACE: -0.000 *****
  22 Aug 2012 16:01:50 



  *****  T2        S= 0    L= 0   J= 0    *****
     72 SL (REDUCED) MATRIX ELEMENTS
  *****  T2          156 MATRIX ELEMENTS  ***** TRACE:  0.000 *****
  22 Aug 2012 16:01:50 



  *****  T3        S= 0    L= 0   J= 0    *****
     46 SL (REDUCED) MATRIX ELEMENTS
  *****  T3          106 MATRIX ELEMENTS  ***** TRACE:  0.000 *****
  22 Aug 2012 16:01:50 



  *****  T4        S= 0    L= 0   J= 0    *****
     68 SL (REDUCED) MATRIX ELEMENTS
  *****  T4          144 MATRIX ELEMENTS  ***** TRACE:  0.000 *****
  22 Aug 2012 16:01:50 



  *****  T6        S= 0    L= 0   J= 0    *****
     58 SL (REDUCED) MATRIX ELEMENTS
  *****  T6          116 MATRIX ELEMENTS  ***** TRACE:  0.000 *****
  22 Aug 2012 16:01:50 



  *****  T7        S= 0    L= 0   J= 0    *****
     61 SL (REDUCED) MATRIX ELEMENTS
  *****  T7          117 MATRIX ELEMENTS  ***** TRACE:  0.000 *****
  22 Aug 2012 16:01:50 



  *****  T8        S= 0    L= 0   J= 0    *****
     40 SL (REDUCED) MATRIX ELEMENTS
  *****  T8           74 MATRIX ELEMENTS  ***** TRACE: -0.000 *****
  22 Aug 2012 16:01:50 



  *****  ZETA      S= 1    L= 1   J= 0    *****
    221 SL (REDUCED) MATRIX ELEMENTS
  *****  ZETA        420 MATRIX ELEMENTS  ***** TRACE: -0.000 *****
  22 Aug 2012 16:01:50 



  *****  M0        S= 1    L= 1   J= 0    *****
    285 SL (REDUCED) MATRIX ELEMENTS
  *****  M0          519 MATRIX ELEMENTS  ***** TRACE:  0.000 *****
  22 Aug 2012 16:01:50 



  *****  M2        S= 1    L= 1   J= 0    *****
    285 SL (REDUCED) MATRIX ELEMENTS
  *****  M2          519 MATRIX ELEMENTS  ***** TRACE: -0.000 *****
  22 Aug 2012 16:01:50 



  *****  M4        S= 1    L= 1   J= 0    *****
    284 SL (REDUCED) MATRIX ELEMENTS
  *****  M4          514 MATRIX ELEMENTS  ***** TRACE: -0.000 *****
  22 Aug 2012 16:01:50 



  *****  P2        S= 1    L= 1   J= 0    *****
    283 SL (REDUCED) MATRIX ELEMENTS
  *****  P2          514 MATRIX ELEMENTS  ***** TRACE:  0.000 *****
  22 Aug 2012 16:01:50 



  *****  P4        S= 1    L= 1   J= 0    *****
    284 SL (REDUCED) MATRIX ELEMENTS
  *****  P4          515 MATRIX ELEMENTS  ***** TRACE: -0.000 *****
  22 Aug 2012 16:01:50 



  *****  P6        S= 1    L= 1   J= 0    *****
    281 SL (REDUCED) MATRIX ELEMENTS
  *****  P6          505 MATRIX ELEMENTS  ***** TRACE:  0.000 *****
  22 Aug 2012 16:01:50 



  *****  U1        S= 0    L= 1   J= 1    *****
     44 SL (REDUCED) MATRIX ELEMENTS
  *****  U1          160 MATRIX ELEMENTS  ***** TRACE: 600.493 *****
  22 Aug 2012 16:01:50 



  *****  U2        S= 0    L= 2   J= 2    *****
    250 SL (REDUCED) MATRIX ELEMENTS
  *****  U2         1183 MATRIX ELEMENTS  ***** TRACE: -107.379 *****
  22 Aug 2012 16:01:50 



  *****  U3        S= 0    L= 3   J= 3    *****
    176 SL (REDUCED) MATRIX ELEMENTS
  *****  U3          970 MATRIX ELEMENTS  ***** TRACE: -20.259 *****
  22 Aug 2012 16:01:50 



  *****  U4        S= 0    L= 4   J= 4    *****
    356 SL (REDUCED) MATRIX ELEMENTS
  *****  U4         1868 MATRIX ELEMENTS  ***** TRACE: 16.850 *****
  22 Aug 2012 16:01:50 



  *****  U5        S= 0    L= 5   J= 5    *****
    106 SL (REDUCED) MATRIX ELEMENTS
  *****  U5          537 MATRIX ELEMENTS  ***** TRACE: -11.898 *****
  22 Aug 2012 16:01:50 



  *****  U6        S= 0    L= 6   J= 6    *****
    347 SL (REDUCED) MATRIX ELEMENTS
  *****  U6         1794 MATRIX ELEMENTS  ***** TRACE: -0.086 *****
  22 Aug 2012 16:01:50 



  *****  W101      S= 1    L= 0   J= 1    *****
     27 SL (REDUCED) MATRIX ELEMENTS
  USING TSLJVAL TO CALCULATE W101
  *****  W101        142 MATRIX ELEMENTS  ***** TRACE: 186.812 *****
  22 Aug 2012 16:01:50 



  *****  W110      S= 1    L= 1   J= 0    *****
    221 SL (REDUCED) MATRIX ELEMENTS
  *****  W110        420 MATRIX ELEMENTS  ***** TRACE: -0.000 *****
  22 Aug 2012 16:01:50 



  *****  W111      S= 1    L= 1   J= 1    *****
    221 SL (REDUCED) MATRIX ELEMENTS
  *****  W111       1002 MATRIX ELEMENTS  ***** TRACE: -0.000 *****
  22 Aug 2012 16:01:50 



  *****  W112      S= 1    L= 1   J= 2    *****
    221 SL (REDUCED) MATRIX ELEMENTS
  *****  W112       1334 MATRIX ELEMENTS  ***** TRACE: -90.029 *****
  22 Aug 2012 16:01:50 



  *****  W121      S= 1    L= 2   J= 1    *****
    308 SL (REDUCED) MATRIX ELEMENTS
  *****  W121       1222 MATRIX ELEMENTS  ***** TRACE: -4.308 *****
  22 Aug 2012 16:01:50 



  *****  W122      S= 1    L= 2   J= 2    *****
    308 SL (REDUCED) MATRIX ELEMENTS
  *****  W122       1748 MATRIX ELEMENTS  ***** TRACE: -0.000 *****
  22 Aug 2012 16:01:50 



  *****  W123      S= 1    L= 2   J= 3    *****
    308 SL (REDUCED) MATRIX ELEMENTS
  *****  W123       1975 MATRIX ELEMENTS  ***** TRACE: -20.979 *****
  22 Aug 2012 16:01:50 



  *****  W132      S= 1    L= 3   J= 2    *****
    429 SL (REDUCED) MATRIX ELEMENTS
  *****  W132       2050 MATRIX ELEMENTS  ***** TRACE: 12.981 *****
  22 Aug 2012 16:01:50 



  *****  W133      S= 1    L= 3   J= 3    *****
    429 SL (REDUCED) MATRIX ELEMENTS
  *****  W133       2483 MATRIX ELEMENTS  ***** TRACE:  0.000 *****
  22 Aug 2012 16:01:50 



  *****  W134      S= 1    L= 3   J= 4    *****
    429 SL (REDUCED) MATRIX ELEMENTS
  *****  W134       2645 MATRIX ELEMENTS  ***** TRACE: 37.430 *****
  22 Aug 2012 16:01:50 



  *****  W143      S= 1    L= 4   J= 3    *****
    447 SL (REDUCED) MATRIX ELEMENTS
  *****  W143       2482 MATRIX ELEMENTS  ***** TRACE: -8.242 *****
  22 Aug 2012 16:01:50 



  *****  W144      S= 1    L= 4   J= 4    *****
    447 SL (REDUCED) MATRIX ELEMENTS
  *****  W144       2764 MATRIX ELEMENTS  ***** TRACE:  0.000 *****
  22 Aug 2012 16:01:50 



  *****  W145      S= 1    L= 4   J= 5    *****
    447 SL (REDUCED) MATRIX ELEMENTS
  *****  W145       2765 MATRIX ELEMENTS  ***** TRACE: -18.695 *****
  22 Aug 2012 16:01:50 



  *****  W154      S= 1    L= 5   J= 4    *****
    479 SL (REDUCED) MATRIX ELEMENTS
  *****  W154       2806 MATRIX ELEMENTS  ***** TRACE: -0.126 *****
  22 Aug 2012 16:01:50 



  *****  W155      S= 1    L= 5   J= 5    *****
    479 SL (REDUCED) MATRIX ELEMENTS
  *****  W155       2927 MATRIX ELEMENTS  ***** TRACE: -0.000 *****
  22 Aug 2012 16:01:50 



  *****  W156      S= 1    L= 5   J= 6    *****
    479 SL (REDUCED) MATRIX ELEMENTS
  *****  W156       2834 MATRIX ELEMENTS  ***** TRACE: -0.536 *****
  22 Aug 2012 16:01:50 



  *****  W165      S= 1    L= 6   J= 5    *****
    443 SL (REDUCED) MATRIX ELEMENTS
  *****  W165       2725 MATRIX ELEMENTS  ***** TRACE: -35.045 *****
  22 Aug 2012 16:01:50 



  *****  W166      S= 1    L= 6   J= 6    *****
    443 SL (REDUCED) MATRIX ELEMENTS
  *****  W166       2751 MATRIX ELEMENTS  ***** TRACE:  0.000 *****
  22 Aug 2012 16:01:50 



  *****  W167      S= 1    L= 6   J= 7    *****
    443 SL (REDUCED) MATRIX ELEMENTS
  *****  W167       2559 MATRIX ELEMENTS  ***** TRACE: -60.737 *****
  22 Aug 2012 16:01:50 



  *****  MAGMOM    S= 0    L= 0   J= 1    *****
      0 SL (REDUCED) MATRIX ELEMENTS
  USING FORMULAE FOR MAGNETIC MOMENT
  *****  MAGMOM      161 MATRIX ELEMENTS  ***** TRACE: 6203.412 *****
  22 Aug 2012 16:01:50 
-> 
->MAKECFITIP f10slj
  READING INFO FROM f10slj.i_
  WRITING STATES TO f10slj.st_
   10 ELECTRONS: SLJ STATES, MES AND RMES                                                                                                                                                                                                                         
  CREATED   22 Aug 2012 16:01:50  BY SLJCALC 07 Oct 01                                                                                                                                                                                                            
   107  STATES,    7  CHARACTER LABELS                                                                                                                                                                                                                            
  WRITING ME INFO TO   f10slj.mi_
  EAVG         0   0   0                                                                                                                                                                                                                                          
  F2           0   0   0                                                                                                                                                                                                                                          
  F4           0   0   0                                                                                                                                                                                                                                          
  F6           0   0   0                                                                                                                                                                                                                                          
  ALPHA        0   0   0                                                                                                                                                                                                                                          
  BETA         0   0   0                                                                                                                                                                                                                                          
  GAMMA        0   0   0                                                                                                                                                                                                                                          
  T2           0   0   0                                                                                                                                                                                                                                          
  T3           0   0   0                                                                                                                                                                                                                                          
  T4           0   0   0                                                                                                                                                                                                                                          
  T6           0   0   0                                                                                                                                                                                                                                          
  T7           0   0   0                                                                                                                                                                                                                                          
  T8           0   0   0                                                                                                                                                                                                                                          
  ZETA         2   2   0                                                                                                                                                                                                                                          
  M0           2   2   0                                                                                                                                                                                                                                          
  M2           2   2   0                                                                                                                                                                                                                                          
  M4           2   2   0                                                                                                                                                                                                                                          
  P2           2   2   0                                                                                                                                                                                                                                          
  P4           2   2   0                                                                                                                                                                                                                                          
  P6           2   2   0                                                                                                                                                                                                                                          

  END OF FREE-ION TENSORS: FINISHING.
  22 Aug 2012 16:01:50 
-> 
->FINISH

  FINISHING,BYE
  22 Aug 2012 16:01:50 

0.108u 0.003s 0:00.42 23.8%	0+0k 544+1696io 1pf+0w
