 *% with hyperfine                                                                                                                                                                                                                                              
CREATED    2 Jun 2020 21:11:49  BY CFIT 28 Oct 13      
SPIN HAMILTONIAN
STATERANGE 295 300
NTENSORS   5
m100      
 0.000000000000000e+00  0.000000000000000e+00    0.000000000000000e+00  0.000000000000000e+00    0.000000000000000e+00  0.000000000000000e+00    0.000000000000000e+00  0.000000000000000e+00    0.000000000000000e+00  0.000000000000000e+00    0.000000000000000e+00  0.000000000000000e+00   
 0.000000000000000e+00  0.000000000000000e+00    0.000000000000000e+00  0.000000000000000e+00    0.000000000000000e+00  0.000000000000000e+00    0.000000000000000e+00  0.000000000000000e+00    0.000000000000000e+00  0.000000000000000e+00    0.000000000000000e+00  0.000000000000000e+00   
 0.000000000000000e+00  0.000000000000000e+00    0.000000000000000e+00  0.000000000000000e+00    0.000000000000000e+00  0.000000000000000e+00    0.000000000000000e+00  0.000000000000000e+00    0.000000000000000e+00  0.000000000000000e+00    0.000000000000000e+00  0.000000000000000e+00   
 0.000000000000000e+00  0.000000000000000e+00    0.000000000000000e+00  0.000000000000000e+00    0.000000000000000e+00  0.000000000000000e+00    0.000000000000000e+00  0.000000000000000e+00    0.000000000000000e+00  0.000000000000000e+00    0.000000000000000e+00  0.000000000000000e+00   
 0.000000000000000e+00  0.000000000000000e+00    0.000000000000000e+00  0.000000000000000e+00    0.000000000000000e+00  0.000000000000000e+00    0.000000000000000e+00  0.000000000000000e+00    0.000000000000000e+00  0.000000000000000e+00    0.000000000000000e+00  0.000000000000000e+00   
 0.000000000000000e+00  0.000000000000000e+00    0.000000000000000e+00  0.000000000000000e+00    0.000000000000000e+00  0.000000000000000e+00    0.000000000000000e+00  0.000000000000000e+00    0.000000000000000e+00  0.000000000000000e+00    0.000000000000000e+00  0.000000000000000e+00   
m010      
 0.000000000000000e+00  0.000000000000000e+00    0.000000000000000e+00  0.000000000000000e+00    0.000000000000000e+00  0.000000000000000e+00    0.000000000000000e+00  0.000000000000000e+00    0.000000000000000e+00  0.000000000000000e+00    0.000000000000000e+00  0.000000000000000e+00   
 0.000000000000000e+00  0.000000000000000e+00    0.000000000000000e+00  0.000000000000000e+00    0.000000000000000e+00  0.000000000000000e+00    0.000000000000000e+00  0.000000000000000e+00    0.000000000000000e+00  0.000000000000000e+00    0.000000000000000e+00  0.000000000000000e+00   
 0.000000000000000e+00  0.000000000000000e+00    0.000000000000000e+00  0.000000000000000e+00    0.000000000000000e+00  0.000000000000000e+00    0.000000000000000e+00  0.000000000000000e+00    0.000000000000000e+00  0.000000000000000e+00    0.000000000000000e+00  0.000000000000000e+00   
 0.000000000000000e+00  0.000000000000000e+00    0.000000000000000e+00  0.000000000000000e+00    0.000000000000000e+00  0.000000000000000e+00    0.000000000000000e+00  0.000000000000000e+00    0.000000000000000e+00  0.000000000000000e+00    0.000000000000000e+00  0.000000000000000e+00   
 0.000000000000000e+00  0.000000000000000e+00    0.000000000000000e+00  0.000000000000000e+00    0.000000000000000e+00  0.000000000000000e+00    0.000000000000000e+00  0.000000000000000e+00    0.000000000000000e+00  0.000000000000000e+00    0.000000000000000e+00  0.000000000000000e+00   
 0.000000000000000e+00  0.000000000000000e+00    0.000000000000000e+00  0.000000000000000e+00    0.000000000000000e+00  0.000000000000000e+00    0.000000000000000e+00  0.000000000000000e+00    0.000000000000000e+00  0.000000000000000e+00    0.000000000000000e+00  0.000000000000000e+00   
m001      
 4.175362583958264e-15  0.000000000000000e+00    0.000000000000000e+00  0.000000000000000e+00    0.000000000000000e+00  0.000000000000000e+00    0.000000000000000e+00  0.000000000000000e+00    0.000000000000000e+00  0.000000000000000e+00    0.000000000000000e+00  0.000000000000000e+00   
 0.000000000000000e+00  0.000000000000000e+00    4.175362583958264e-15  0.000000000000000e+00    0.000000000000000e+00  0.000000000000000e+00    0.000000000000000e+00  0.000000000000000e+00    0.000000000000000e+00  0.000000000000000e+00    0.000000000000000e+00  0.000000000000000e+00   
 0.000000000000000e+00  0.000000000000000e+00    0.000000000000000e+00  0.000000000000000e+00    4.175362583958264e-15  0.000000000000000e+00    0.000000000000000e+00  0.000000000000000e+00    0.000000000000000e+00  0.000000000000000e+00    0.000000000000000e+00  0.000000000000000e+00   
 0.000000000000000e+00  0.000000000000000e+00    0.000000000000000e+00  0.000000000000000e+00    0.000000000000000e+00  0.000000000000000e+00    4.175362583958264e-15  0.000000000000000e+00    0.000000000000000e+00  0.000000000000000e+00    0.000000000000000e+00  0.000000000000000e+00   
 0.000000000000000e+00  0.000000000000000e+00    0.000000000000000e+00  0.000000000000000e+00    0.000000000000000e+00  0.000000000000000e+00    0.000000000000000e+00  0.000000000000000e+00    4.175362583958264e-15  0.000000000000000e+00    0.000000000000000e+00  0.000000000000000e+00   
 0.000000000000000e+00  0.000000000000000e+00    0.000000000000000e+00  0.000000000000000e+00    0.000000000000000e+00  0.000000000000000e+00    0.000000000000000e+00  0.000000000000000e+00    0.000000000000000e+00  0.000000000000000e+00    4.175362583958264e-15  0.000000000000000e+00   
al        
-1.895075159847530e-14  0.000000000000000e+00    0.000000000000000e+00  0.000000000000000e+00    0.000000000000000e+00  0.000000000000000e+00    0.000000000000000e+00  0.000000000000000e+00    0.000000000000000e+00  0.000000000000000e+00    0.000000000000000e+00  0.000000000000000e+00   
 0.000000000000000e+00  0.000000000000000e+00   -6.315921383670151e-15  0.000000000000000e+00    0.000000000000000e+00  0.000000000000000e+00    0.000000000000000e+00  0.000000000000000e+00    0.000000000000000e+00  0.000000000000000e+00    0.000000000000000e+00  0.000000000000000e+00   
 0.000000000000000e+00  0.000000000000000e+00    0.000000000000000e+00  0.000000000000000e+00    3.158029967146382e-14  0.000000000000000e+00    0.000000000000000e+00  0.000000000000000e+00    0.000000000000000e+00  0.000000000000000e+00    0.000000000000000e+00  0.000000000000000e+00   
 0.000000000000000e+00  0.000000000000000e+00    0.000000000000000e+00  0.000000000000000e+00    0.000000000000000e+00  0.000000000000000e+00    6.315921383670151e-15  0.000000000000000e+00    0.000000000000000e+00  0.000000000000000e+00    0.000000000000000e+00  0.000000000000000e+00   
 0.000000000000000e+00  0.000000000000000e+00    0.000000000000000e+00  0.000000000000000e+00    0.000000000000000e+00  0.000000000000000e+00    0.000000000000000e+00  0.000000000000000e+00    1.895075159847530e-14  0.000000000000000e+00    0.000000000000000e+00  0.000000000000000e+00   
 0.000000000000000e+00  0.000000000000000e+00    0.000000000000000e+00  0.000000000000000e+00    0.000000000000000e+00  0.000000000000000e+00    0.000000000000000e+00  0.000000000000000e+00    0.000000000000000e+00  0.000000000000000e+00   -3.158029967146382e-14  0.000000000000000e+00   
EQHYP     
-1.093024998302936e-04  0.000000000000000e+00    0.000000000000000e+00  0.000000000000000e+00    0.000000000000000e+00  0.000000000000000e+00    7.180703224953192e-04  0.000000000000000e+00    0.000000000000000e+00  0.000000000000000e+00    0.000000000000000e+00  0.000000000000000e+00   
 0.000000000000000e+00  0.000000000000000e+00   -4.372099993211743e-04  0.000000000000000e+00    0.000000000000000e+00  0.000000000000000e+00    0.000000000000000e+00  0.000000000000000e+00    7.180703224953192e-04  0.000000000000000e+00    5.352180179082427e-04  0.000000000000000e+00   
 0.000000000000000e+00  0.000000000000000e+00    0.000000000000000e+00  0.000000000000000e+00    5.465124991514687e-04  0.000000000000000e+00    5.352180179082427e-04  0.000000000000000e+00    0.000000000000000e+00  0.000000000000000e+00    0.000000000000000e+00  0.000000000000000e+00   
 7.180703224953192e-04  0.000000000000000e+00    0.000000000000000e+00  0.000000000000000e+00    5.352180179082427e-04  0.000000000000000e+00   -4.372099993211743e-04  0.000000000000000e+00    0.000000000000000e+00  0.000000000000000e+00    0.000000000000000e+00  0.000000000000000e+00   
 0.000000000000000e+00  0.000000000000000e+00    7.180703224953192e-04  0.000000000000000e+00    0.000000000000000e+00  0.000000000000000e+00    0.000000000000000e+00  0.000000000000000e+00   -1.093024998302936e-04  0.000000000000000e+00    0.000000000000000e+00  0.000000000000000e+00   
 0.000000000000000e+00  0.000000000000000e+00    5.352180179082427e-04  0.000000000000000e+00    0.000000000000000e+00  0.000000000000000e+00    0.000000000000000e+00  0.000000000000000e+00    0.000000000000000e+00  0.000000000000000e+00    5.465124991514687e-04  0.000000000000000e+00   
