Mon May  4 11:02:32 NZST 2020
Current directory:
/home/users/ksm92/calculations/f6
Log file:
124.jmcalc.log
Executable file:
-rwxr-xr-x. 1 mfr24 physraca 2205920 Apr  4 20:02 /home/users/mfr24/linuxemp/bin/jmcalc.exe
Input file:
-rw-r--r--. 1 ksm92 physgrad 1828 May  4 11:02 jmcalc_hfs.dat

** PROGRAM JMCALC 29 Aug 02     **    4 May 2020 11:02:33 

->*% HFS calculation
-> READSLJ   f6slj
  SLJ INFO COMES FROM f6slj.i_
  SLJ MES  COME  FROM f6slj.mm_
    6 ELECTRONS: SLJ STATES, MES AND RMES                                                                                                                                                                                                                         
  CREATED    7 Apr 2020 20:13:33  BY SLJCALC 07 Oct 01                                                                                                                                                                                                            

    295 STATES         Y  2S  2L   X  2J WHICHSL

      1 [7F  0>        0   6   6   0   0   1
      2 [7F  1>        0   6   6   0   2   1
      3 [7F  2>        0   6   6   0   4   1
      4 [7F  3>        0   6   6   0   6   1
      5 [7F  4>        0   6   6   0   8   1
      6 [7F  5>        0   6   6   0  10   1
      7 [7F  6>        0   6   6   0  12   1
      8 [5S  2>        0   4   0   0   4   2
      9 [5P  1>        0   4   2   0   2   3
     10 [5P  2>        0   4   2   0   4   3
     11 [5P  3>        0   4   2   0   6   3
     12 [5D1 0>        0   4   4   1   0   4
     13 [5D1 1>        0   4   4   1   2   4
     14 [5D1 2>        0   4   4   1   4   4
     15 [5D1 3>        0   4   4   1   6   4
     16 [5D1 4>        0   4   4   1   8   4
     17 [5D2 0>        0   4   4   2   0   5
     18 [5D2 1>        0   4   4   2   2   5
     19 [5D2 2>        0   4   4   2   4   5
     20 [5D2 3>        0   4   4   2   6   5
     21 [5D2 4>        0   4   4   2   8   5
     22 [5D3 0>        0   4   4   3   0   6
     23 [5D3 1>        0   4   4   3   2   6
     24 [5D3 2>        0   4   4   3   4   6
     25 [5D3 3>        0   4   4   3   6   6
     26 [5D3 4>        0   4   4   3   8   6
     27 [5F1 1>        0   4   6   1   2   7
     28 [5F1 2>        0   4   6   1   4   7
     29 [5F1 3>        0   4   6   1   6   7
     30 [5F1 4>        0   4   6   1   8   7
     31 [5F1 5>        0   4   6   1  10   7
     32 [5F2 1>        0   4   6   2   2   8
     33 [5F2 2>        0   4   6   2   4   8
     34 [5F2 3>        0   4   6   2   6   8
     35 [5F2 4>        0   4   6   2   8   8
     36 [5F2 5>        0   4   6   2  10   8
     37 [5G1 2>        0   4   8   1   4   9
     38 [5G1 3>        0   4   8   1   6   9
     39 [5G1 4>        0   4   8   1   8   9
     40 [5G1 5>        0   4   8   1  10   9
     41 [5G1 6>        0   4   8   1  12   9
     42 [5G2 2>        0   4   8   2   4  10
     43 [5G2 3>        0   4   8   2   6  10
     44 [5G2 4>        0   4   8   2   8  10
     45 [5G2 5>        0   4   8   2  10  10
     46 [5G2 6>        0   4   8   2  12  10
     47 [5G3 2>        0   4   8   3   4  11
     48 [5G3 3>        0   4   8   3   6  11
     49 [5G3 4>        0   4   8   3   8  11
     50 [5G3 5>        0   4   8   3  10  11
     51 [5G3 6>        0   4   8   3  12  11
     52 [5H1 3>        0   4  10   1   6  12
     53 [5H1 4>        0   4  10   1   8  12
     54 [5H1 5>        0   4  10   1  10  12
     55 [5H1 6>        0   4  10   1  12  12
     56 [5H1 7>        0   4  10   1  14  12
     57 [5H2 3>        0   4  10   2   6  13
     58 [5H2 4>        0   4  10   2   8  13
     59 [5H2 5>        0   4  10   2  10  13
     60 [5H2 6>        0   4  10   2  12  13
     61 [5H2 7>        0   4  10   2  14  13
     62 [5I1 4>        0   4  12   1   8  14
     63 [5I1 5>        0   4  12   1  10  14
     64 [5I1 6>        0   4  12   1  12  14
     65 [5I1 7>        0   4  12   1  14  14
     66 [5I1 8>        0   4  12   1  16  14
     67 [5I2 4>        0   4  12   2   8  15
     68 [5I2 5>        0   4  12   2  10  15
     69 [5I2 6>        0   4  12   2  12  15
     70 [5I2 7>        0   4  12   2  14  15
     71 [5I2 8>        0   4  12   2  16  15
     72 [5K  5>        0   4  14   0  10  16
     73 [5K  6>        0   4  14   0  12  16
     74 [5K  7>        0   4  14   0  14  16
     75 [5K  8>        0   4  14   0  16  16
     76 [5K  9>        0   4  14   0  18  16
     77 [5L  6>        0   4  16   0  12  17
     78 [5L  7>        0   4  16   0  14  17
     79 [5L  8>        0   4  16   0  16  17
     80 [5L  9>        0   4  16   0  18  17
     81 [5L 10>        0   4  16   0  20  17
     82 [3P1 0>        0   2   2   1   0  18
     83 [3P1 1>        0   2   2   1   2  18
     84 [3P1 2>        0   2   2   1   4  18
     85 [3P2 0>        0   2   2   2   0  19
     86 [3P2 1>        0   2   2   2   2  19
     87 [3P2 2>        0   2   2   2   4  19
     88 [3P3 0>        0   2   2   3   0  20
     89 [3P3 1>        0   2   2   3   2  20
     90 [3P3 2>        0   2   2   3   4  20
     91 [3P4 0>        0   2   2   4   0  21
     92 [3P4 1>        0   2   2   4   2  21
     93 [3P4 2>        0   2   2   4   4  21
     94 [3P5 0>        0   2   2   5   0  22
     95 [3P5 1>        0   2   2   5   2  22
     96 [3P5 2>        0   2   2   5   4  22
     97 [3P6 0>        0   2   2   6   0  23
     98 [3P6 1>        0   2   2   6   2  23
     99 [3P6 2>        0   2   2   6   4  23
    100 [3D1 1>        0   2   4   1   2  24
    101 [3D1 2>        0   2   4   1   4  24
    102 [3D1 3>        0   2   4   1   6  24
    103 [3D2 1>        0   2   4   2   2  25
    104 [3D2 2>        0   2   4   2   4  25
    105 [3D2 3>        0   2   4   2   6  25
    106 [3D3 1>        0   2   4   3   2  26
    107 [3D3 2>        0   2   4   3   4  26
    108 [3D3 3>        0   2   4   3   6  26
    109 [3D4 1>        0   2   4   4   2  27
    110 [3D4 2>        0   2   4   4   4  27
    111 [3D4 3>        0   2   4   4   6  27
    112 [3D5 1>        0   2   4   5   2  28
    113 [3D5 2>        0   2   4   5   4  28
    114 [3D5 3>        0   2   4   5   6  28
    115 [3F1 2>        0   2   6   1   4  29
    116 [3F1 3>        0   2   6   1   6  29
    117 [3F1 4>        0   2   6   1   8  29
    118 [3F2 2>        0   2   6   2   4  30
    119 [3F2 3>        0   2   6   2   6  30
    120 [3F2 4>        0   2   6   2   8  30
    121 [3F3 2>        0   2   6   3   4  31
    122 [3F3 3>        0   2   6   3   6  31
    123 [3F3 4>        0   2   6   3   8  31
    124 [3F4 2>        0   2   6   4   4  32
    125 [3F4 3>        0   2   6   4   6  32
    126 [3F4 4>        0   2   6   4   8  32
    127 [3F5 2>        0   2   6   5   4  33
    128 [3F5 3>        0   2   6   5   6  33
    129 [3F5 4>        0   2   6   5   8  33
    130 [3F6 2>        0   2   6   6   4  34
    131 [3F6 3>        0   2   6   6   6  34
    132 [3F6 4>        0   2   6   6   8  34
    133 [3F7 2>        0   2   6   7   4  35
    134 [3F7 3>        0   2   6   7   6  35
    135 [3F7 4>        0   2   6   7   8  35
    136 [3F8 2>        0   2   6   8   4  36
    137 [3F8 3>        0   2   6   8   6  36
    138 [3F8 4>        0   2   6   8   8  36
    139 [3F9 2>        0   2   6   9   4  37
    140 [3F9 3>        0   2   6   9   6  37
    141 [3F9 4>        0   2   6   9   8  37
    142 [3G1 3>        0   2   8   1   6  38
    143 [3G1 4>        0   2   8   1   8  38
    144 [3G1 5>        0   2   8   1  10  38
    145 [3G2 3>        0   2   8   2   6  39
    146 [3G2 4>        0   2   8   2   8  39
    147 [3G2 5>        0   2   8   2  10  39
    148 [3G3 3>        0   2   8   3   6  40
    149 [3G3 4>        0   2   8   3   8  40
    150 [3G3 5>        0   2   8   3  10  40
    151 [3G4 3>        0   2   8   4   6  41
    152 [3G4 4>        0   2   8   4   8  41
    153 [3G4 5>        0   2   8   4  10  41
    154 [3G5 3>        0   2   8   5   6  42
    155 [3G5 4>        0   2   8   5   8  42
    156 [3G5 5>        0   2   8   5  10  42
    157 [3G6 3>        0   2   8   6   6  43
    158 [3G6 4>        0   2   8   6   8  43
    159 [3G6 5>        0   2   8   6  10  43
    160 [3G7 3>        0   2   8   7   6  44
    161 [3G7 4>        0   2   8   7   8  44
    162 [3G7 5>        0   2   8   7  10  44
    163 [3H1 4>        0   2  10   1   8  45
    164 [3H1 5>        0   2  10   1  10  45
    165 [3H1 6>        0   2  10   1  12  45
    166 [3H2 4>        0   2  10   2   8  46
    167 [3H2 5>        0   2  10   2  10  46
    168 [3H2 6>        0   2  10   2  12  46
    169 [3H3 4>        0   2  10   3   8  47
    170 [3H3 5>        0   2  10   3  10  47
    171 [3H3 6>        0   2  10   3  12  47
    172 [3H4 4>        0   2  10   4   8  48
    173 [3H4 5>        0   2  10   4  10  48
    174 [3H4 6>        0   2  10   4  12  48
    175 [3H5 4>        0   2  10   5   8  49
    176 [3H5 5>        0   2  10   5  10  49
    177 [3H5 6>        0   2  10   5  12  49
    178 [3H6 4>        0   2  10   6   8  50
    179 [3H6 5>        0   2  10   6  10  50
    180 [3H6 6>        0   2  10   6  12  50
    181 [3H7 4>        0   2  10   7   8  51
    182 [3H7 5>        0   2  10   7  10  51
    183 [3H7 6>        0   2  10   7  12  51
    184 [3H8 4>        0   2  10   8   8  52
    185 [3H8 5>        0   2  10   8  10  52
    186 [3H8 6>        0   2  10   8  12  52
    187 [3H9 4>        0   2  10   9   8  53
    188 [3H9 5>        0   2  10   9  10  53
    189 [3H9 6>        0   2  10   9  12  53
    190 [3I1 5>        0   2  12   1  10  54
    191 [3I1 6>        0   2  12   1  12  54
    192 [3I1 7>        0   2  12   1  14  54
    193 [3I2 5>        0   2  12   2  10  55
    194 [3I2 6>        0   2  12   2  12  55
    195 [3I2 7>        0   2  12   2  14  55
    196 [3I3 5>        0   2  12   3  10  56
    197 [3I3 6>        0   2  12   3  12  56
    198 [3I3 7>        0   2  12   3  14  56
    199 [3I4 5>        0   2  12   4  10  57
    200 [3I4 6>        0   2  12   4  12  57
    201 [3I4 7>        0   2  12   4  14  57
    202 [3I5 5>        0   2  12   5  10  58
    203 [3I5 6>        0   2  12   5  12  58
    204 [3I5 7>        0   2  12   5  14  58
    205 [3I6 5>        0   2  12   6  10  59
    206 [3I6 6>        0   2  12   6  12  59
    207 [3I6 7>        0   2  12   6  14  59
    208 [3K1 6>        0   2  14   1  12  60
    209 [3K1 7>        0   2  14   1  14  60
    210 [3K1 8>        0   2  14   1  16  60
    211 [3K2 6>        0   2  14   2  12  61
    212 [3K2 7>        0   2  14   2  14  61
    213 [3K2 8>        0   2  14   2  16  61
    214 [3K3 6>        0   2  14   3  12  62
    215 [3K3 7>        0   2  14   3  14  62
    216 [3K3 8>        0   2  14   3  16  62
    217 [3K4 6>        0   2  14   4  12  63
    218 [3K4 7>        0   2  14   4  14  63
    219 [3K4 8>        0   2  14   4  16  63
    220 [3K5 6>        0   2  14   5  12  64
    221 [3K5 7>        0   2  14   5  14  64
    222 [3K5 8>        0   2  14   5  16  64
    223 [3K6 6>        0   2  14   6  12  65
    224 [3K6 7>        0   2  14   6  14  65
    225 [3K6 8>        0   2  14   6  16  65
    226 [3L1 7>        0   2  16   1  14  66
    227 [3L1 8>        0   2  16   1  16  66
    228 [3L1 9>        0   2  16   1  18  66
    229 [3L2 7>        0   2  16   2  14  67
    230 [3L2 8>        0   2  16   2  16  67
    231 [3L2 9>        0   2  16   2  18  67
    232 [3L3 7>        0   2  16   3  14  68
    233 [3L3 8>        0   2  16   3  16  68
    234 [3L3 9>        0   2  16   3  18  68
    235 [3M1 8>        0   2  18   1  16  69
    236 [3M1 9>        0   2  18   1  18  69
    237 [3M110>        0   2  18   1  20  69
    238 [3M2 8>        0   2  18   2  16  70
    239 [3M2 9>        0   2  18   2  18  70
    240 [3M210>        0   2  18   2  20  70
    241 [3M3 8>        0   2  18   3  16  71
    242 [3M3 9>        0   2  18   3  18  71
    243 [3M310>        0   2  18   3  20  71
    244 [3N  9>        0   2  20   0  18  72
    245 [3N 10>        0   2  20   0  20  72
    246 [3N 11>        0   2  20   0  22  72
    247 [3O 10>        0   2  22   0  20  73
    248 [3O 11>        0   2  22   0  22  73
    249 [3O 12>        0   2  22   0  24  73
    250 [1S1 0>        0   0   0   1   0  74
    251 [1S2 0>        0   0   0   2   0  75
    252 [1S3 0>        0   0   0   3   0  76
    253 [1S4 0>        0   0   0   4   0  77
    254 [1P  1>        0   0   2   0   2  78
    255 [1D1 2>        0   0   4   1   4  79
    256 [1D2 2>        0   0   4   2   4  80
    257 [1D3 2>        0   0   4   3   4  81
    258 [1D4 2>        0   0   4   4   4  82
    259 [1D5 2>        0   0   4   5   4  83
    260 [1D6 2>        0   0   4   6   4  84
    261 [1F1 3>        0   0   6   1   6  85
    262 [1F2 3>        0   0   6   2   6  86
    263 [1F3 3>        0   0   6   3   6  87
    264 [1F4 3>        0   0   6   4   6  88
    265 [1G1 4>        0   0   8   1   8  89
    266 [1G2 4>        0   0   8   2   8  90
    267 [1G3 4>        0   0   8   3   8  91
    268 [1G4 4>        0   0   8   4   8  92
    269 [1G5 4>        0   0   8   5   8  93
    270 [1G6 4>        0   0   8   6   8  94
    271 [1G7 4>        0   0   8   7   8  95
    272 [1G8 4>        0   0   8   8   8  96
    273 [1H1 5>        0   0  10   1  10  97
    274 [1H2 5>        0   0  10   2  10  98
    275 [1H3 5>        0   0  10   3  10  99
    276 [1H4 5>        0   0  10   4  10 100
    277 [1I1 6>        0   0  12   1  12 101
    278 [1I2 6>        0   0  12   2  12 102
    279 [1I3 6>        0   0  12   3  12 103
    280 [1I4 6>        0   0  12   4  12 104
    281 [1I5 6>        0   0  12   5  12 105
    282 [1I6 6>        0   0  12   6  12 106
    283 [1I7 6>        0   0  12   7  12 107
    284 [1K1 7>        0   0  14   1  14 108
    285 [1K2 7>        0   0  14   2  14 109
    286 [1K3 7>        0   0  14   3  14 110
    287 [1L1 8>        0   0  16   1  16 111
    288 [1L2 8>        0   0  16   2  16 112
    289 [1L3 8>        0   0  16   3  16 113
    290 [1L4 8>        0   0  16   4  16 114
    291 [1M1 9>        0   0  18   1  18 115
    292 [1M2 9>        0   0  18   2  18 116
    293 [1N110>        0   0  20   1  20 117
    294 [1N210>        0   0  20   2  20 118
    295 [1Q 12>        0   0  24   0  24 119

   4 May 2020 11:02:33 
-> READVECTS eufi
  READING EIGENVALUES FROM  eufi.vi_
  READING EIGENVECTORS FROM eufi.vm_
  eigenvectors for Eu3+ free ion                                                                                                                                                                                                                                  
  CREATED    7 Apr 2020 20:07:29  BY CFIT 03 Aug 00                                                                                                                                                                                                               
  REAL        13 BLOCKS                                                                                                                                                                                                                                           
   4 May 2020 11:02:33 
-> OUTPUT 1 12
-> *% I=5/2
->JMLABELGEN nuclear 5
  TWICE NUCLEAR SPIN IS: 5

     12 SLJ STATES TO BE OUTPUT

        SLJOUTPUT      Y  2S  2L   X  2J WHICHSL   ENERGY_LEVEL    ENERGY         EVECT %

      1 [7F  0)        0   6   6   0   0   1            1          0.000             93
      2 [7F  1)        0   6   6   0   2   1            2        382.281             95
      3 [7F  2)        0   6   6   0   4   1            3       1051.745             96
      4 [7F  3)        0   6   6   0   6   1            4       1913.684             97
      5 [7F  4)        0   6   6   0   8   1            5       2898.070             98
      6 [7F  5)        0   6   6   0  10   1            6       3956.481             97
      7 [7F  6)        0   6   6   0  12   1            7       5055.294             96
      8 [5D3 0)        0   4   4   3   0   6            8      17303.939             46
      9 [5D3 1)        0   4   4   3   2   6            9      19062.381             51
     10 [5D3 2)        0   4   4   3   4   6           10      21552.658             55
     11 [5D3 3)        0   4   4   3   6   6           11      24465.311             55
     12 [5L  6)        0   4  16   0  12  17           12      25289.533             88


    468 SLJM LABELS

        SLJMLABEL               Y  2S  2L   X  2J  2M  2IZ SLJ PARENT

      1 [7F  6  6,  5)          0   6   6   0  12  12   5      7
      2 [7F  6  6,  3)          0   6   6   0  12  12   3      7
      3 [7F  6  6,  1)          0   6   6   0  12  12   1      7
      4 [7F  6  6, -1)          0   6   6   0  12  12  -1      7
      5 [7F  6  6, -3)          0   6   6   0  12  12  -3      7
      6 [7F  6  6, -5)          0   6   6   0  12  12  -5      7
      7 [5L  6  6,  5)          0   4  16   0  12  12   5     12
      8 [5L  6  6,  3)          0   4  16   0  12  12   3     12
      9 [5L  6  6,  1)          0   4  16   0  12  12   1     12
     10 [5L  6  6, -1)          0   4  16   0  12  12  -1     12
     11 [5L  6  6, -3)          0   4  16   0  12  12  -3     12
     12 [5L  6  6, -5)          0   4  16   0  12  12  -5     12
     13 [7F  5  5,  5)          0   6   6   0  10  10   5      6
     14 [7F  5  5,  3)          0   6   6   0  10  10   3      6
     15 [7F  5  5,  1)          0   6   6   0  10  10   1      6
     16 [7F  5  5, -1)          0   6   6   0  10  10  -1      6
     17 [7F  5  5, -3)          0   6   6   0  10  10  -3      6
     18 [7F  5  5, -5)          0   6   6   0  10  10  -5      6
     19 [7F  6  5,  5)          0   6   6   0  12  10   5      7
     20 [7F  6  5,  3)          0   6   6   0  12  10   3      7
     21 [7F  6  5,  1)          0   6   6   0  12  10   1      7
     22 [7F  6  5, -1)          0   6   6   0  12  10  -1      7
     23 [7F  6  5, -3)          0   6   6   0  12  10  -3      7
     24 [7F  6  5, -5)          0   6   6   0  12  10  -5      7
     25 [5L  6  5,  5)          0   4  16   0  12  10   5     12
     26 [5L  6  5,  3)          0   4  16   0  12  10   3     12
     27 [5L  6  5,  1)          0   4  16   0  12  10   1     12
     28 [5L  6  5, -1)          0   4  16   0  12  10  -1     12
     29 [5L  6  5, -3)          0   4  16   0  12  10  -3     12
     30 [5L  6  5, -5)          0   4  16   0  12  10  -5     12
     31 [7F  4  4,  5)          0   6   6   0   8   8   5      5
     32 [7F  4  4,  3)          0   6   6   0   8   8   3      5
     33 [7F  4  4,  1)          0   6   6   0   8   8   1      5
     34 [7F  4  4, -1)          0   6   6   0   8   8  -1      5
     35 [7F  4  4, -3)          0   6   6   0   8   8  -3      5
     36 [7F  4  4, -5)          0   6   6   0   8   8  -5      5
     37 [7F  5  4,  5)          0   6   6   0  10   8   5      6
     38 [7F  5  4,  3)          0   6   6   0  10   8   3      6
     39 [7F  5  4,  1)          0   6   6   0  10   8   1      6
     40 [7F  5  4, -1)          0   6   6   0  10   8  -1      6
     41 [7F  5  4, -3)          0   6   6   0  10   8  -3      6
     42 [7F  5  4, -5)          0   6   6   0  10   8  -5      6
     43 [7F  6  4,  5)          0   6   6   0  12   8   5      7
     44 [7F  6  4,  3)          0   6   6   0  12   8   3      7
     45 [7F  6  4,  1)          0   6   6   0  12   8   1      7
     46 [7F  6  4, -1)          0   6   6   0  12   8  -1      7
     47 [7F  6  4, -3)          0   6   6   0  12   8  -3      7
     48 [7F  6  4, -5)          0   6   6   0  12   8  -5      7
     49 [5L  6  4,  5)          0   4  16   0  12   8   5     12
     50 [5L  6  4,  3)          0   4  16   0  12   8   3     12
     51 [5L  6  4,  1)          0   4  16   0  12   8   1     12
     52 [5L  6  4, -1)          0   4  16   0  12   8  -1     12
     53 [5L  6  4, -3)          0   4  16   0  12   8  -3     12
     54 [5L  6  4, -5)          0   4  16   0  12   8  -5     12
     55 [7F  3  3,  5)          0   6   6   0   6   6   5      4
     56 [7F  3  3,  3)          0   6   6   0   6   6   3      4
     57 [7F  3  3,  1)          0   6   6   0   6   6   1      4
     58 [7F  3  3, -1)          0   6   6   0   6   6  -1      4
     59 [7F  3  3, -3)          0   6   6   0   6   6  -3      4
     60 [7F  3  3, -5)          0   6   6   0   6   6  -5      4
     61 [7F  4  3,  5)          0   6   6   0   8   6   5      5
     62 [7F  4  3,  3)          0   6   6   0   8   6   3      5
     63 [7F  4  3,  1)          0   6   6   0   8   6   1      5
     64 [7F  4  3, -1)          0   6   6   0   8   6  -1      5
     65 [7F  4  3, -3)          0   6   6   0   8   6  -3      5
     66 [7F  4  3, -5)          0   6   6   0   8   6  -5      5
     67 [7F  5  3,  5)          0   6   6   0  10   6   5      6
     68 [7F  5  3,  3)          0   6   6   0  10   6   3      6
     69 [7F  5  3,  1)          0   6   6   0  10   6   1      6
     70 [7F  5  3, -1)          0   6   6   0  10   6  -1      6
     71 [7F  5  3, -3)          0   6   6   0  10   6  -3      6
     72 [7F  5  3, -5)          0   6   6   0  10   6  -5      6
     73 [7F  6  3,  5)          0   6   6   0  12   6   5      7
     74 [7F  6  3,  3)          0   6   6   0  12   6   3      7
     75 [7F  6  3,  1)          0   6   6   0  12   6   1      7
     76 [7F  6  3, -1)          0   6   6   0  12   6  -1      7
     77 [7F  6  3, -3)          0   6   6   0  12   6  -3      7
     78 [7F  6  3, -5)          0   6   6   0  12   6  -5      7
     79 [5D3 3  3,  5)          0   4   4   3   6   6   5     11
     80 [5D3 3  3,  3)          0   4   4   3   6   6   3     11
     81 [5D3 3  3,  1)          0   4   4   3   6   6   1     11
     82 [5D3 3  3, -1)          0   4   4   3   6   6  -1     11
     83 [5D3 3  3, -3)          0   4   4   3   6   6  -3     11
     84 [5D3 3  3, -5)          0   4   4   3   6   6  -5     11
     85 [5L  6  3,  5)          0   4  16   0  12   6   5     12
     86 [5L  6  3,  3)          0   4  16   0  12   6   3     12
     87 [5L  6  3,  1)          0   4  16   0  12   6   1     12
     88 [5L  6  3, -1)          0   4  16   0  12   6  -1     12
     89 [5L  6  3, -3)          0   4  16   0  12   6  -3     12
     90 [5L  6  3, -5)          0   4  16   0  12   6  -5     12
     91 [7F  2  2,  5)          0   6   6   0   4   4   5      3
     92 [7F  2  2,  3)          0   6   6   0   4   4   3      3
     93 [7F  2  2,  1)          0   6   6   0   4   4   1      3
     94 [7F  2  2, -1)          0   6   6   0   4   4  -1      3
     95 [7F  2  2, -3)          0   6   6   0   4   4  -3      3
     96 [7F  2  2, -5)          0   6   6   0   4   4  -5      3
     97 [7F  3  2,  5)          0   6   6   0   6   4   5      4
     98 [7F  3  2,  3)          0   6   6   0   6   4   3      4
     99 [7F  3  2,  1)          0   6   6   0   6   4   1      4
    100 [7F  3  2, -1)          0   6   6   0   6   4  -1      4
    101 [7F  3  2, -3)          0   6   6   0   6   4  -3      4
    102 [7F  3  2, -5)          0   6   6   0   6   4  -5      4
    103 [7F  4  2,  5)          0   6   6   0   8   4   5      5
    104 [7F  4  2,  3)          0   6   6   0   8   4   3      5
    105 [7F  4  2,  1)          0   6   6   0   8   4   1      5
    106 [7F  4  2, -1)          0   6   6   0   8   4  -1      5
    107 [7F  4  2, -3)          0   6   6   0   8   4  -3      5
    108 [7F  4  2, -5)          0   6   6   0   8   4  -5      5
    109 [7F  5  2,  5)          0   6   6   0  10   4   5      6
    110 [7F  5  2,  3)          0   6   6   0  10   4   3      6
    111 [7F  5  2,  1)          0   6   6   0  10   4   1      6
    112 [7F  5  2, -1)          0   6   6   0  10   4  -1      6
    113 [7F  5  2, -3)          0   6   6   0  10   4  -3      6
    114 [7F  5  2, -5)          0   6   6   0  10   4  -5      6
    115 [7F  6  2,  5)          0   6   6   0  12   4   5      7
    116 [7F  6  2,  3)          0   6   6   0  12   4   3      7
    117 [7F  6  2,  1)          0   6   6   0  12   4   1      7
    118 [7F  6  2, -1)          0   6   6   0  12   4  -1      7
    119 [7F  6  2, -3)          0   6   6   0  12   4  -3      7
    120 [7F  6  2, -5)          0   6   6   0  12   4  -5      7
    121 [5D3 2  2,  5)          0   4   4   3   4   4   5     10
    122 [5D3 2  2,  3)          0   4   4   3   4   4   3     10
    123 [5D3 2  2,  1)          0   4   4   3   4   4   1     10
    124 [5D3 2  2, -1)          0   4   4   3   4   4  -1     10
    125 [5D3 2  2, -3)          0   4   4   3   4   4  -3     10
    126 [5D3 2  2, -5)          0   4   4   3   4   4  -5     10
    127 [5D3 3  2,  5)          0   4   4   3   6   4   5     11
    128 [5D3 3  2,  3)          0   4   4   3   6   4   3     11
    129 [5D3 3  2,  1)          0   4   4   3   6   4   1     11
    130 [5D3 3  2, -1)          0   4   4   3   6   4  -1     11
    131 [5D3 3  2, -3)          0   4   4   3   6   4  -3     11
    132 [5D3 3  2, -5)          0   4   4   3   6   4  -5     11
    133 [5L  6  2,  5)          0   4  16   0  12   4   5     12
    134 [5L  6  2,  3)          0   4  16   0  12   4   3     12
    135 [5L  6  2,  1)          0   4  16   0  12   4   1     12
    136 [5L  6  2, -1)          0   4  16   0  12   4  -1     12
    137 [5L  6  2, -3)          0   4  16   0  12   4  -3     12
    138 [5L  6  2, -5)          0   4  16   0  12   4  -5     12
    139 [7F  1  1,  5)          0   6   6   0   2   2   5      2
    140 [7F  1  1,  3)          0   6   6   0   2   2   3      2
    141 [7F  1  1,  1)          0   6   6   0   2   2   1      2
    142 [7F  1  1, -1)          0   6   6   0   2   2  -1      2
    143 [7F  1  1, -3)          0   6   6   0   2   2  -3      2
    144 [7F  1  1, -5)          0   6   6   0   2   2  -5      2
    145 [7F  2  1,  5)          0   6   6   0   4   2   5      3
    146 [7F  2  1,  3)          0   6   6   0   4   2   3      3
    147 [7F  2  1,  1)          0   6   6   0   4   2   1      3
    148 [7F  2  1, -1)          0   6   6   0   4   2  -1      3
    149 [7F  2  1, -3)          0   6   6   0   4   2  -3      3
    150 [7F  2  1, -5)          0   6   6   0   4   2  -5      3
    151 [7F  3  1,  5)          0   6   6   0   6   2   5      4
    152 [7F  3  1,  3)          0   6   6   0   6   2   3      4
    153 [7F  3  1,  1)          0   6   6   0   6   2   1      4
    154 [7F  3  1, -1)          0   6   6   0   6   2  -1      4
    155 [7F  3  1, -3)          0   6   6   0   6   2  -3      4
    156 [7F  3  1, -5)          0   6   6   0   6   2  -5      4
    157 [7F  4  1,  5)          0   6   6   0   8   2   5      5
    158 [7F  4  1,  3)          0   6   6   0   8   2   3      5
    159 [7F  4  1,  1)          0   6   6   0   8   2   1      5
    160 [7F  4  1, -1)          0   6   6   0   8   2  -1      5
    161 [7F  4  1, -3)          0   6   6   0   8   2  -3      5
    162 [7F  4  1, -5)          0   6   6   0   8   2  -5      5
    163 [7F  5  1,  5)          0   6   6   0  10   2   5      6
    164 [7F  5  1,  3)          0   6   6   0  10   2   3      6
    165 [7F  5  1,  1)          0   6   6   0  10   2   1      6
    166 [7F  5  1, -1)          0   6   6   0  10   2  -1      6
    167 [7F  5  1, -3)          0   6   6   0  10   2  -3      6
    168 [7F  5  1, -5)          0   6   6   0  10   2  -5      6
    169 [7F  6  1,  5)          0   6   6   0  12   2   5      7
    170 [7F  6  1,  3)          0   6   6   0  12   2   3      7
    171 [7F  6  1,  1)          0   6   6   0  12   2   1      7
    172 [7F  6  1, -1)          0   6   6   0  12   2  -1      7
    173 [7F  6  1, -3)          0   6   6   0  12   2  -3      7
    174 [7F  6  1, -5)          0   6   6   0  12   2  -5      7
    175 [5D3 1  1,  5)          0   4   4   3   2   2   5      9
    176 [5D3 1  1,  3)          0   4   4   3   2   2   3      9
    177 [5D3 1  1,  1)          0   4   4   3   2   2   1      9
    178 [5D3 1  1, -1)          0   4   4   3   2   2  -1      9
    179 [5D3 1  1, -3)          0   4   4   3   2   2  -3      9
    180 [5D3 1  1, -5)          0   4   4   3   2   2  -5      9
    181 [5D3 2  1,  5)          0   4   4   3   4   2   5     10
    182 [5D3 2  1,  3)          0   4   4   3   4   2   3     10
    183 [5D3 2  1,  1)          0   4   4   3   4   2   1     10
    184 [5D3 2  1, -1)          0   4   4   3   4   2  -1     10
    185 [5D3 2  1, -3)          0   4   4   3   4   2  -3     10
    186 [5D3 2  1, -5)          0   4   4   3   4   2  -5     10
    187 [5D3 3  1,  5)          0   4   4   3   6   2   5     11
    188 [5D3 3  1,  3)          0   4   4   3   6   2   3     11
    189 [5D3 3  1,  1)          0   4   4   3   6   2   1     11
    190 [5D3 3  1, -1)          0   4   4   3   6   2  -1     11
    191 [5D3 3  1, -3)          0   4   4   3   6   2  -3     11
    192 [5D3 3  1, -5)          0   4   4   3   6   2  -5     11
    193 [5L  6  1,  5)          0   4  16   0  12   2   5     12
    194 [5L  6  1,  3)          0   4  16   0  12   2   3     12
    195 [5L  6  1,  1)          0   4  16   0  12   2   1     12
    196 [5L  6  1, -1)          0   4  16   0  12   2  -1     12
    197 [5L  6  1, -3)          0   4  16   0  12   2  -3     12
    198 [5L  6  1, -5)          0   4  16   0  12   2  -5     12
    199 [7F  0  0,  5)          0   6   6   0   0   0   5      1
    200 [7F  0  0,  3)          0   6   6   0   0   0   3      1
    201 [7F  0  0,  1)          0   6   6   0   0   0   1      1
    202 [7F  0  0, -1)          0   6   6   0   0   0  -1      1
    203 [7F  0  0, -3)          0   6   6   0   0   0  -3      1
    204 [7F  0  0, -5)          0   6   6   0   0   0  -5      1
    205 [7F  1  0,  5)          0   6   6   0   2   0   5      2
    206 [7F  1  0,  3)          0   6   6   0   2   0   3      2
    207 [7F  1  0,  1)          0   6   6   0   2   0   1      2
    208 [7F  1  0, -1)          0   6   6   0   2   0  -1      2
    209 [7F  1  0, -3)          0   6   6   0   2   0  -3      2
    210 [7F  1  0, -5)          0   6   6   0   2   0  -5      2
    211 [7F  2  0,  5)          0   6   6   0   4   0   5      3
    212 [7F  2  0,  3)          0   6   6   0   4   0   3      3
    213 [7F  2  0,  1)          0   6   6   0   4   0   1      3
    214 [7F  2  0, -1)          0   6   6   0   4   0  -1      3
    215 [7F  2  0, -3)          0   6   6   0   4   0  -3      3
    216 [7F  2  0, -5)          0   6   6   0   4   0  -5      3
    217 [7F  3  0,  5)          0   6   6   0   6   0   5      4
    218 [7F  3  0,  3)          0   6   6   0   6   0   3      4
    219 [7F  3  0,  1)          0   6   6   0   6   0   1      4
    220 [7F  3  0, -1)          0   6   6   0   6   0  -1      4
    221 [7F  3  0, -3)          0   6   6   0   6   0  -3      4
    222 [7F  3  0, -5)          0   6   6   0   6   0  -5      4
    223 [7F  4  0,  5)          0   6   6   0   8   0   5      5
    224 [7F  4  0,  3)          0   6   6   0   8   0   3      5
    225 [7F  4  0,  1)          0   6   6   0   8   0   1      5
    226 [7F  4  0, -1)          0   6   6   0   8   0  -1      5
    227 [7F  4  0, -3)          0   6   6   0   8   0  -3      5
    228 [7F  4  0, -5)          0   6   6   0   8   0  -5      5
    229 [7F  5  0,  5)          0   6   6   0  10   0   5      6
    230 [7F  5  0,  3)          0   6   6   0  10   0   3      6
    231 [7F  5  0,  1)          0   6   6   0  10   0   1      6
    232 [7F  5  0, -1)          0   6   6   0  10   0  -1      6
    233 [7F  5  0, -3)          0   6   6   0  10   0  -3      6
    234 [7F  5  0, -5)          0   6   6   0  10   0  -5      6
    235 [7F  6  0,  5)          0   6   6   0  12   0   5      7
    236 [7F  6  0,  3)          0   6   6   0  12   0   3      7
    237 [7F  6  0,  1)          0   6   6   0  12   0   1      7
    238 [7F  6  0, -1)          0   6   6   0  12   0  -1      7
    239 [7F  6  0, -3)          0   6   6   0  12   0  -3      7
    240 [7F  6  0, -5)          0   6   6   0  12   0  -5      7
    241 [5D3 0  0,  5)          0   4   4   3   0   0   5      8
    242 [5D3 0  0,  3)          0   4   4   3   0   0   3      8
    243 [5D3 0  0,  1)          0   4   4   3   0   0   1      8
    244 [5D3 0  0, -1)          0   4   4   3   0   0  -1      8
    245 [5D3 0  0, -3)          0   4   4   3   0   0  -3      8
    246 [5D3 0  0, -5)          0   4   4   3   0   0  -5      8
    247 [5D3 1  0,  5)          0   4   4   3   2   0   5      9
    248 [5D3 1  0,  3)          0   4   4   3   2   0   3      9
    249 [5D3 1  0,  1)          0   4   4   3   2   0   1      9
    250 [5D3 1  0, -1)          0   4   4   3   2   0  -1      9
    251 [5D3 1  0, -3)          0   4   4   3   2   0  -3      9
    252 [5D3 1  0, -5)          0   4   4   3   2   0  -5      9
    253 [5D3 2  0,  5)          0   4   4   3   4   0   5     10
    254 [5D3 2  0,  3)          0   4   4   3   4   0   3     10
    255 [5D3 2  0,  1)          0   4   4   3   4   0   1     10
    256 [5D3 2  0, -1)          0   4   4   3   4   0  -1     10
    257 [5D3 2  0, -3)          0   4   4   3   4   0  -3     10
    258 [5D3 2  0, -5)          0   4   4   3   4   0  -5     10
    259 [5D3 3  0,  5)          0   4   4   3   6   0   5     11
    260 [5D3 3  0,  3)          0   4   4   3   6   0   3     11
    261 [5D3 3  0,  1)          0   4   4   3   6   0   1     11
    262 [5D3 3  0, -1)          0   4   4   3   6   0  -1     11
    263 [5D3 3  0, -3)          0   4   4   3   6   0  -3     11
    264 [5D3 3  0, -5)          0   4   4   3   6   0  -5     11
    265 [5L  6  0,  5)          0   4  16   0  12   0   5     12
    266 [5L  6  0,  3)          0   4  16   0  12   0   3     12
    267 [5L  6  0,  1)          0   4  16   0  12   0   1     12
    268 [5L  6  0, -1)          0   4  16   0  12   0  -1     12
    269 [5L  6  0, -3)          0   4  16   0  12   0  -3     12
    270 [5L  6  0, -5)          0   4  16   0  12   0  -5     12
    271 [7F  1 -1,  5)          0   6   6   0   2  -2   5      2
    272 [7F  1 -1,  3)          0   6   6   0   2  -2   3      2
    273 [7F  1 -1,  1)          0   6   6   0   2  -2   1      2
    274 [7F  1 -1, -1)          0   6   6   0   2  -2  -1      2
    275 [7F  1 -1, -3)          0   6   6   0   2  -2  -3      2
    276 [7F  1 -1, -5)          0   6   6   0   2  -2  -5      2
    277 [7F  2 -1,  5)          0   6   6   0   4  -2   5      3
    278 [7F  2 -1,  3)          0   6   6   0   4  -2   3      3
    279 [7F  2 -1,  1)          0   6   6   0   4  -2   1      3
    280 [7F  2 -1, -1)          0   6   6   0   4  -2  -1      3
    281 [7F  2 -1, -3)          0   6   6   0   4  -2  -3      3
    282 [7F  2 -1, -5)          0   6   6   0   4  -2  -5      3
    283 [7F  3 -1,  5)          0   6   6   0   6  -2   5      4
    284 [7F  3 -1,  3)          0   6   6   0   6  -2   3      4
    285 [7F  3 -1,  1)          0   6   6   0   6  -2   1      4
    286 [7F  3 -1, -1)          0   6   6   0   6  -2  -1      4
    287 [7F  3 -1, -3)          0   6   6   0   6  -2  -3      4
    288 [7F  3 -1, -5)          0   6   6   0   6  -2  -5      4
    289 [7F  4 -1,  5)          0   6   6   0   8  -2   5      5
    290 [7F  4 -1,  3)          0   6   6   0   8  -2   3      5
    291 [7F  4 -1,  1)          0   6   6   0   8  -2   1      5
    292 [7F  4 -1, -1)          0   6   6   0   8  -2  -1      5
    293 [7F  4 -1, -3)          0   6   6   0   8  -2  -3      5
    294 [7F  4 -1, -5)          0   6   6   0   8  -2  -5      5
    295 [7F  5 -1,  5)          0   6   6   0  10  -2   5      6
    296 [7F  5 -1,  3)          0   6   6   0  10  -2   3      6
    297 [7F  5 -1,  1)          0   6   6   0  10  -2   1      6
    298 [7F  5 -1, -1)          0   6   6   0  10  -2  -1      6
    299 [7F  5 -1, -3)          0   6   6   0  10  -2  -3      6
    300 [7F  5 -1, -5)          0   6   6   0  10  -2  -5      6
    301 [7F  6 -1,  5)          0   6   6   0  12  -2   5      7
    302 [7F  6 -1,  3)          0   6   6   0  12  -2   3      7
    303 [7F  6 -1,  1)          0   6   6   0  12  -2   1      7
    304 [7F  6 -1, -1)          0   6   6   0  12  -2  -1      7
    305 [7F  6 -1, -3)          0   6   6   0  12  -2  -3      7
    306 [7F  6 -1, -5)          0   6   6   0  12  -2  -5      7
    307 [5D3 1 -1,  5)          0   4   4   3   2  -2   5      9
    308 [5D3 1 -1,  3)          0   4   4   3   2  -2   3      9
    309 [5D3 1 -1,  1)          0   4   4   3   2  -2   1      9
    310 [5D3 1 -1, -1)          0   4   4   3   2  -2  -1      9
    311 [5D3 1 -1, -3)          0   4   4   3   2  -2  -3      9
    312 [5D3 1 -1, -5)          0   4   4   3   2  -2  -5      9
    313 [5D3 2 -1,  5)          0   4   4   3   4  -2   5     10
    314 [5D3 2 -1,  3)          0   4   4   3   4  -2   3     10
    315 [5D3 2 -1,  1)          0   4   4   3   4  -2   1     10
    316 [5D3 2 -1, -1)          0   4   4   3   4  -2  -1     10
    317 [5D3 2 -1, -3)          0   4   4   3   4  -2  -3     10
    318 [5D3 2 -1, -5)          0   4   4   3   4  -2  -5     10
    319 [5D3 3 -1,  5)          0   4   4   3   6  -2   5     11
    320 [5D3 3 -1,  3)          0   4   4   3   6  -2   3     11
    321 [5D3 3 -1,  1)          0   4   4   3   6  -2   1     11
    322 [5D3 3 -1, -1)          0   4   4   3   6  -2  -1     11
    323 [5D3 3 -1, -3)          0   4   4   3   6  -2  -3     11
    324 [5D3 3 -1, -5)          0   4   4   3   6  -2  -5     11
    325 [5L  6 -1,  5)          0   4  16   0  12  -2   5     12
    326 [5L  6 -1,  3)          0   4  16   0  12  -2   3     12
    327 [5L  6 -1,  1)          0   4  16   0  12  -2   1     12
    328 [5L  6 -1, -1)          0   4  16   0  12  -2  -1     12
    329 [5L  6 -1, -3)          0   4  16   0  12  -2  -3     12
    330 [5L  6 -1, -5)          0   4  16   0  12  -2  -5     12
    331 [7F  2 -2,  5)          0   6   6   0   4  -4   5      3
    332 [7F  2 -2,  3)          0   6   6   0   4  -4   3      3
    333 [7F  2 -2,  1)          0   6   6   0   4  -4   1      3
    334 [7F  2 -2, -1)          0   6   6   0   4  -4  -1      3
    335 [7F  2 -2, -3)          0   6   6   0   4  -4  -3      3
    336 [7F  2 -2, -5)          0   6   6   0   4  -4  -5      3
    337 [7F  3 -2,  5)          0   6   6   0   6  -4   5      4
    338 [7F  3 -2,  3)          0   6   6   0   6  -4   3      4
    339 [7F  3 -2,  1)          0   6   6   0   6  -4   1      4
    340 [7F  3 -2, -1)          0   6   6   0   6  -4  -1      4
    341 [7F  3 -2, -3)          0   6   6   0   6  -4  -3      4
    342 [7F  3 -2, -5)          0   6   6   0   6  -4  -5      4
    343 [7F  4 -2,  5)          0   6   6   0   8  -4   5      5
    344 [7F  4 -2,  3)          0   6   6   0   8  -4   3      5
    345 [7F  4 -2,  1)          0   6   6   0   8  -4   1      5
    346 [7F  4 -2, -1)          0   6   6   0   8  -4  -1      5
    347 [7F  4 -2, -3)          0   6   6   0   8  -4  -3      5
    348 [7F  4 -2, -5)          0   6   6   0   8  -4  -5      5
    349 [7F  5 -2,  5)          0   6   6   0  10  -4   5      6
    350 [7F  5 -2,  3)          0   6   6   0  10  -4   3      6
    351 [7F  5 -2,  1)          0   6   6   0  10  -4   1      6
    352 [7F  5 -2, -1)          0   6   6   0  10  -4  -1      6
    353 [7F  5 -2, -3)          0   6   6   0  10  -4  -3      6
    354 [7F  5 -2, -5)          0   6   6   0  10  -4  -5      6
    355 [7F  6 -2,  5)          0   6   6   0  12  -4   5      7
    356 [7F  6 -2,  3)          0   6   6   0  12  -4   3      7
    357 [7F  6 -2,  1)          0   6   6   0  12  -4   1      7
    358 [7F  6 -2, -1)          0   6   6   0  12  -4  -1      7
    359 [7F  6 -2, -3)          0   6   6   0  12  -4  -3      7
    360 [7F  6 -2, -5)          0   6   6   0  12  -4  -5      7
    361 [5D3 2 -2,  5)          0   4   4   3   4  -4   5     10
    362 [5D3 2 -2,  3)          0   4   4   3   4  -4   3     10
    363 [5D3 2 -2,  1)          0   4   4   3   4  -4   1     10
    364 [5D3 2 -2, -1)          0   4   4   3   4  -4  -1     10
    365 [5D3 2 -2, -3)          0   4   4   3   4  -4  -3     10
    366 [5D3 2 -2, -5)          0   4   4   3   4  -4  -5     10
    367 [5D3 3 -2,  5)          0   4   4   3   6  -4   5     11
    368 [5D3 3 -2,  3)          0   4   4   3   6  -4   3     11
    369 [5D3 3 -2,  1)          0   4   4   3   6  -4   1     11
    370 [5D3 3 -2, -1)          0   4   4   3   6  -4  -1     11
    371 [5D3 3 -2, -3)          0   4   4   3   6  -4  -3     11
    372 [5D3 3 -2, -5)          0   4   4   3   6  -4  -5     11
    373 [5L  6 -2,  5)          0   4  16   0  12  -4   5     12
    374 [5L  6 -2,  3)          0   4  16   0  12  -4   3     12
    375 [5L  6 -2,  1)          0   4  16   0  12  -4   1     12
    376 [5L  6 -2, -1)          0   4  16   0  12  -4  -1     12
    377 [5L  6 -2, -3)          0   4  16   0  12  -4  -3     12
    378 [5L  6 -2, -5)          0   4  16   0  12  -4  -5     12
    379 [7F  3 -3,  5)          0   6   6   0   6  -6   5      4
    380 [7F  3 -3,  3)          0   6   6   0   6  -6   3      4
    381 [7F  3 -3,  1)          0   6   6   0   6  -6   1      4
    382 [7F  3 -3, -1)          0   6   6   0   6  -6  -1      4
    383 [7F  3 -3, -3)          0   6   6   0   6  -6  -3      4
    384 [7F  3 -3, -5)          0   6   6   0   6  -6  -5      4
    385 [7F  4 -3,  5)          0   6   6   0   8  -6   5      5
    386 [7F  4 -3,  3)          0   6   6   0   8  -6   3      5
    387 [7F  4 -3,  1)          0   6   6   0   8  -6   1      5
    388 [7F  4 -3, -1)          0   6   6   0   8  -6  -1      5
    389 [7F  4 -3, -3)          0   6   6   0   8  -6  -3      5
    390 [7F  4 -3, -5)          0   6   6   0   8  -6  -5      5
    391 [7F  5 -3,  5)          0   6   6   0  10  -6   5      6
    392 [7F  5 -3,  3)          0   6   6   0  10  -6   3      6
    393 [7F  5 -3,  1)          0   6   6   0  10  -6   1      6
    394 [7F  5 -3, -1)          0   6   6   0  10  -6  -1      6
    395 [7F  5 -3, -3)          0   6   6   0  10  -6  -3      6
    396 [7F  5 -3, -5)          0   6   6   0  10  -6  -5      6
    397 [7F  6 -3,  5)          0   6   6   0  12  -6   5      7
    398 [7F  6 -3,  3)          0   6   6   0  12  -6   3      7
    399 [7F  6 -3,  1)          0   6   6   0  12  -6   1      7
    400 [7F  6 -3, -1)          0   6   6   0  12  -6  -1      7
    401 [7F  6 -3, -3)          0   6   6   0  12  -6  -3      7
    402 [7F  6 -3, -5)          0   6   6   0  12  -6  -5      7
    403 [5D3 3 -3,  5)          0   4   4   3   6  -6   5     11
    404 [5D3 3 -3,  3)          0   4   4   3   6  -6   3     11
    405 [5D3 3 -3,  1)          0   4   4   3   6  -6   1     11
    406 [5D3 3 -3, -1)          0   4   4   3   6  -6  -1     11
    407 [5D3 3 -3, -3)          0   4   4   3   6  -6  -3     11
    408 [5D3 3 -3, -5)          0   4   4   3   6  -6  -5     11
    409 [5L  6 -3,  5)          0   4  16   0  12  -6   5     12
    410 [5L  6 -3,  3)          0   4  16   0  12  -6   3     12
    411 [5L  6 -3,  1)          0   4  16   0  12  -6   1     12
    412 [5L  6 -3, -1)          0   4  16   0  12  -6  -1     12
    413 [5L  6 -3, -3)          0   4  16   0  12  -6  -3     12
    414 [5L  6 -3, -5)          0   4  16   0  12  -6  -5     12
    415 [7F  4 -4,  5)          0   6   6   0   8  -8   5      5
    416 [7F  4 -4,  3)          0   6   6   0   8  -8   3      5
    417 [7F  4 -4,  1)          0   6   6   0   8  -8   1      5
    418 [7F  4 -4, -1)          0   6   6   0   8  -8  -1      5
    419 [7F  4 -4, -3)          0   6   6   0   8  -8  -3      5
    420 [7F  4 -4, -5)          0   6   6   0   8  -8  -5      5
    421 [7F  5 -4,  5)          0   6   6   0  10  -8   5      6
    422 [7F  5 -4,  3)          0   6   6   0  10  -8   3      6
    423 [7F  5 -4,  1)          0   6   6   0  10  -8   1      6
    424 [7F  5 -4, -1)          0   6   6   0  10  -8  -1      6
    425 [7F  5 -4, -3)          0   6   6   0  10  -8  -3      6
    426 [7F  5 -4, -5)          0   6   6   0  10  -8  -5      6
    427 [7F  6 -4,  5)          0   6   6   0  12  -8   5      7
    428 [7F  6 -4,  3)          0   6   6   0  12  -8   3      7
    429 [7F  6 -4,  1)          0   6   6   0  12  -8   1      7
    430 [7F  6 -4, -1)          0   6   6   0  12  -8  -1      7
    431 [7F  6 -4, -3)          0   6   6   0  12  -8  -3      7
    432 [7F  6 -4, -5)          0   6   6   0  12  -8  -5      7
    433 [5L  6 -4,  5)          0   4  16   0  12  -8   5     12
    434 [5L  6 -4,  3)          0   4  16   0  12  -8   3     12
    435 [5L  6 -4,  1)          0   4  16   0  12  -8   1     12
    436 [5L  6 -4, -1)          0   4  16   0  12  -8  -1     12
    437 [5L  6 -4, -3)          0   4  16   0  12  -8  -3     12
    438 [5L  6 -4, -5)          0   4  16   0  12  -8  -5     12
    439 [7F  5 -5,  5)          0   6   6   0  10 -10   5      6
    440 [7F  5 -5,  3)          0   6   6   0  10 -10   3      6
    441 [7F  5 -5,  1)          0   6   6   0  10 -10   1      6
    442 [7F  5 -5, -1)          0   6   6   0  10 -10  -1      6
    443 [7F  5 -5, -3)          0   6   6   0  10 -10  -3      6
    444 [7F  5 -5, -5)          0   6   6   0  10 -10  -5      6
    445 [7F  6 -5,  5)          0   6   6   0  12 -10   5      7
    446 [7F  6 -5,  3)          0   6   6   0  12 -10   3      7
    447 [7F  6 -5,  1)          0   6   6   0  12 -10   1      7
    448 [7F  6 -5, -1)          0   6   6   0  12 -10  -1      7
    449 [7F  6 -5, -3)          0   6   6   0  12 -10  -3      7
    450 [7F  6 -5, -5)          0   6   6   0  12 -10  -5      7
    451 [5L  6 -5,  5)          0   4  16   0  12 -10   5     12
    452 [5L  6 -5,  3)          0   4  16   0  12 -10   3     12
    453 [5L  6 -5,  1)          0   4  16   0  12 -10   1     12
    454 [5L  6 -5, -1)          0   4  16   0  12 -10  -1     12
    455 [5L  6 -5, -3)          0   4  16   0  12 -10  -3     12
    456 [5L  6 -5, -5)          0   4  16   0  12 -10  -5     12
    457 [7F  6 -6,  5)          0   6   6   0  12 -12   5      7
    458 [7F  6 -6,  3)          0   6   6   0  12 -12   3      7
    459 [7F  6 -6,  1)          0   6   6   0  12 -12   1      7
    460 [7F  6 -6, -1)          0   6   6   0  12 -12  -1      7
    461 [7F  6 -6, -3)          0   6   6   0  12 -12  -3      7
    462 [7F  6 -6, -5)          0   6   6   0  12 -12  -5      7
    463 [5L  6 -6,  5)          0   4  16   0  12 -12   5     12
    464 [5L  6 -6,  3)          0   4  16   0  12 -12   3     12
    465 [5L  6 -6,  1)          0   4  16   0  12 -12   1     12
    466 [5L  6 -6, -1)          0   4  16   0  12 -12  -1     12
    467 [5L  6 -6, -3)          0   4  16   0  12 -12  -3     12
    468 [5L  6 -6, -5)          0   4  16   0  12 -12  -5     12

   4 May 2020 11:02:33 
-> WRITELAB eucf_hfs
  WRITING STATES TO eucf_hfs.st_
?>Eu hfs states 12 multiplets
   4 May 2020 11:02:33 
-> READTENSORS
  EAVG         0   0   0                                                                                                                                                                                                                                          
  SKIPPING THIS TENSOR
   4 May 2020 11:02:33 
  F2           0   0   0                                                                                                                                                                                                                                          
    839 (REDUCED) MATRIX ELEMENTS IN
     17  (TRANSFORMED) (REDUCED) MATRIX ELEMENTS OUT
   4 May 2020 11:02:33 
  F4           0   0   0                                                                                                                                                                                                                                          
    827 (REDUCED) MATRIX ELEMENTS IN
     17  (TRANSFORMED) (REDUCED) MATRIX ELEMENTS OUT
   4 May 2020 11:02:33 
  F6           0   0   0                                                                                                                                                                                                                                          
    836 (REDUCED) MATRIX ELEMENTS IN
     17  (TRANSFORMED) (REDUCED) MATRIX ELEMENTS OUT
   4 May 2020 11:02:33 
  ALPHA        0   0   0                                                                                                                                                                                                                                          
    295 (REDUCED) MATRIX ELEMENTS IN
     17  (TRANSFORMED) (REDUCED) MATRIX ELEMENTS OUT
   4 May 2020 11:02:33 
  BETA         0   0   0                                                                                                                                                                                                                                          
    295 (REDUCED) MATRIX ELEMENTS IN
     17  (TRANSFORMED) (REDUCED) MATRIX ELEMENTS OUT
   4 May 2020 11:02:33 
  GAMMA        0   0   0                                                                                                                                                                                                                                          
    295 (REDUCED) MATRIX ELEMENTS IN
     17  (TRANSFORMED) (REDUCED) MATRIX ELEMENTS OUT
   4 May 2020 11:02:33 
  T2           0   0   0                                                                                                                                                                                                                                          
    767 (REDUCED) MATRIX ELEMENTS IN
     17  (TRANSFORMED) (REDUCED) MATRIX ELEMENTS OUT
   4 May 2020 11:02:33 
  T3           0   0   0                                                                                                                                                                                                                                          
    315 (REDUCED) MATRIX ELEMENTS IN
     17  (TRANSFORMED) (REDUCED) MATRIX ELEMENTS OUT
   4 May 2020 11:02:33 
  T4           0   0   0                                                                                                                                                                                                                                          
    713 (REDUCED) MATRIX ELEMENTS IN
     17  (TRANSFORMED) (REDUCED) MATRIX ELEMENTS OUT
   4 May 2020 11:02:33 
  T6           0   0   0                                                                                                                                                                                                                                          
    682 (REDUCED) MATRIX ELEMENTS IN
     17  (TRANSFORMED) (REDUCED) MATRIX ELEMENTS OUT
   4 May 2020 11:02:33 
  T7           0   0   0                                                                                                                                                                                                                                          
    674 (REDUCED) MATRIX ELEMENTS IN
     17  (TRANSFORMED) (REDUCED) MATRIX ELEMENTS OUT
   4 May 2020 11:02:33 
  T8           0   0   0                                                                                                                                                                                                                                          
    499 (REDUCED) MATRIX ELEMENTS IN
     17  (TRANSFORMED) (REDUCED) MATRIX ELEMENTS OUT
   4 May 2020 11:02:33 
  ZETA         2   2   0                                                                                                                                                                                                                                          
   2546 (REDUCED) MATRIX ELEMENTS IN
     17  (TRANSFORMED) (REDUCED) MATRIX ELEMENTS OUT
   4 May 2020 11:02:33 
  M0           2   2   0                                                                                                                                                                                                                                          
   3145 (REDUCED) MATRIX ELEMENTS IN
     17  (TRANSFORMED) (REDUCED) MATRIX ELEMENTS OUT
   4 May 2020 11:02:33 
  M2           2   2   0                                                                                                                                                                                                                                          
   3153 (REDUCED) MATRIX ELEMENTS IN
     17  (TRANSFORMED) (REDUCED) MATRIX ELEMENTS OUT
   4 May 2020 11:02:33 
  M4           2   2   0                                                                                                                                                                                                                                          
   3153 (REDUCED) MATRIX ELEMENTS IN
     17  (TRANSFORMED) (REDUCED) MATRIX ELEMENTS OUT
   4 May 2020 11:02:33 
  P2           2   2   0                                                                                                                                                                                                                                          
   3139 (REDUCED) MATRIX ELEMENTS IN
     17  (TRANSFORMED) (REDUCED) MATRIX ELEMENTS OUT
   4 May 2020 11:02:33 
  P4           2   2   0                                                                                                                                                                                                                                          
   3144 (REDUCED) MATRIX ELEMENTS IN
     17  (TRANSFORMED) (REDUCED) MATRIX ELEMENTS OUT
   4 May 2020 11:02:33 
  P6           2   2   0                                                                                                                                                                                                                                          
   3136 (REDUCED) MATRIX ELEMENTS IN
     17  (TRANSFORMED) (REDUCED) MATRIX ELEMENTS OUT
   4 May 2020 11:02:33 
  U1           0   2   2                                                                                                                                                                                                                                          
    469 (REDUCED) MATRIX ELEMENTS IN
     31  (TRANSFORMED) (REDUCED) MATRIX ELEMENTS OUT
   4 May 2020 11:02:33 
  U2           0   4   4                                                                                                                                                                                                                                          
   6873 (REDUCED) MATRIX ELEMENTS IN
     41  (TRANSFORMED) (REDUCED) MATRIX ELEMENTS OUT
   4 May 2020 11:02:33 
  U3           0   6   6                                                                                                                                                                                                                                          
   4308 (REDUCED) MATRIX ELEMENTS IN
     46  (TRANSFORMED) (REDUCED) MATRIX ELEMENTS OUT
   4 May 2020 11:02:33 
  U4           0   8   8                                                                                                                                                                                                                                          
  11223 (REDUCED) MATRIX ELEMENTS IN
     46  (TRANSFORMED) (REDUCED) MATRIX ELEMENTS OUT
   4 May 2020 11:02:33 
  U5           0  10  10                                                                                                                                                                                                                                          
   2258 (REDUCED) MATRIX ELEMENTS IN
     43  (TRANSFORMED) (REDUCED) MATRIX ELEMENTS OUT
   4 May 2020 11:02:33 
  U6           0  12  12                                                                                                                                                                                                                                          
  11891 (REDUCED) MATRIX ELEMENTS IN
     39  (TRANSFORMED) (REDUCED) MATRIX ELEMENTS OUT
   4 May 2020 11:02:33 
  W101         2   0   2                                                                                                                                                                                                                                          
    426 (REDUCED) MATRIX ELEMENTS IN
     31  (TRANSFORMED) (REDUCED) MATRIX ELEMENTS OUT
   4 May 2020 11:02:33 
  W110         2   2   0                                                                                                                                                                                                                                          
   2546 (REDUCED) MATRIX ELEMENTS IN
     17  (TRANSFORMED) (REDUCED) MATRIX ELEMENTS OUT
   4 May 2020 11:02:33 
  W111         2   2   2                                                                                                                                                                                                                                          
   6184 (REDUCED) MATRIX ELEMENTS IN
     31  (TRANSFORMED) (REDUCED) MATRIX ELEMENTS OUT
   4 May 2020 11:02:33 
  W112         2   2   4                                                                                                                                                                                                                                          
   8712 (REDUCED) MATRIX ELEMENTS IN
     41  (TRANSFORMED) (REDUCED) MATRIX ELEMENTS OUT
   4 May 2020 11:02:33 
  W121         2   4   2                                                                                                                                                                                                                                          
   5083 (REDUCED) MATRIX ELEMENTS IN
     31  (TRANSFORMED) (REDUCED) MATRIX ELEMENTS OUT
   4 May 2020 11:02:33 
  W122         2   4   4                                                                                                                                                                                                                                          
   7166 (REDUCED) MATRIX ELEMENTS IN
     41  (TRANSFORMED) (REDUCED) MATRIX ELEMENTS OUT
   4 May 2020 11:02:34 
  W123         2   4   6                                                                                                                                                                                                                                          
   8409 (REDUCED) MATRIX ELEMENTS IN
     46  (TRANSFORMED) (REDUCED) MATRIX ELEMENTS OUT
   4 May 2020 11:02:34 
  W132         2   6   4                                                                                                                                                                                                                                          
  12731 (REDUCED) MATRIX ELEMENTS IN
     41  (TRANSFORMED) (REDUCED) MATRIX ELEMENTS OUT
   4 May 2020 11:02:34 
  W133         2   6   6                                                                                                                                                                                                                                          
  15473 (REDUCED) MATRIX ELEMENTS IN
     46  (TRANSFORMED) (REDUCED) MATRIX ELEMENTS OUT
   4 May 2020 11:02:34 
  W134         2   6   8                                                                                                                                                                                                                                          
  16826 (REDUCED) MATRIX ELEMENTS IN
     46  (TRANSFORMED) (REDUCED) MATRIX ELEMENTS OUT
   4 May 2020 11:02:34 
  W143         2   8   6                                                                                                                                                                                                                                          
  10725 (REDUCED) MATRIX ELEMENTS IN
     46  (TRANSFORMED) (REDUCED) MATRIX ELEMENTS OUT
   4 May 2020 11:02:34 
  W144         2   8   8                                                                                                                                                                                                                                          
  11950 (REDUCED) MATRIX ELEMENTS IN
     46  (TRANSFORMED) (REDUCED) MATRIX ELEMENTS OUT
   4 May 2020 11:02:34 
  W145         2   8  10                                                                                                                                                                                                                                          
  12301 (REDUCED) MATRIX ELEMENTS IN
     43  (TRANSFORMED) (REDUCED) MATRIX ELEMENTS OUT
   4 May 2020 11:02:34 
  W154         2  10   8                                                                                                                                                                                                                                          
  20745 (REDUCED) MATRIX ELEMENTS IN
     46  (TRANSFORMED) (REDUCED) MATRIX ELEMENTS OUT
   4 May 2020 11:02:34 
  W155         2  10  10                                                                                                                                                                                                                                          
  21815 (REDUCED) MATRIX ELEMENTS IN
     43  (TRANSFORMED) (REDUCED) MATRIX ELEMENTS OUT
   4 May 2020 11:02:34 
  W156         2  10  12                                                                                                                                                                                                                                          
  21708 (REDUCED) MATRIX ELEMENTS IN
     39  (TRANSFORMED) (REDUCED) MATRIX ELEMENTS OUT
   4 May 2020 11:02:34 
  W165         2  12  10                                                                                                                                                                                                                                          
  12648 (REDUCED) MATRIX ELEMENTS IN
     43  (TRANSFORMED) (REDUCED) MATRIX ELEMENTS OUT
   4 May 2020 11:02:34 
  W166         2  12  12                                                                                                                                                                                                                                          
  12782 (REDUCED) MATRIX ELEMENTS IN
     39  (TRANSFORMED) (REDUCED) MATRIX ELEMENTS OUT
   4 May 2020 11:02:34 
  W167         2  12  14                                                                                                                                                                                                                                          
  12342 (REDUCED) MATRIX ELEMENTS IN
     28  (TRANSFORMED) (REDUCED) MATRIX ELEMENTS OUT
   4 May 2020 11:02:34 
  MAGMOM       0   0   2                                                                                                                                                                                                                                          
    457 (REDUCED) MATRIX ELEMENTS IN
     31  (TRANSFORMED) (REDUCED) MATRIX ELEMENTS OUT
   4 May 2020 11:02:34 
-> OPENOUTPUT eucf_hfs
  WRITING INFO TO     eucf_hfs.mi_
  WRITING ME S TO     eucf_hfs.mm_
?>EU hfs matrix elements 12 multiplets
   4 May 2020 11:02:35 
->matelcalc eavg
    468 MATRIX ELEMENTS

   4 May 2020 11:02:35 
->MATELCALC F2 F2 0
  CALCULATING TENSOR  F2          Q= 0
  (REDUCED) TENSOR IS F2          S= 0   L= 0   J= 0
    642 MATRIX ELEMENTS

   4 May 2020 11:02:35 
->MATELCALC F4 F4 0
  CALCULATING TENSOR  F4          Q= 0
  (REDUCED) TENSOR IS F4          S= 0   L= 0   J= 0
    642 MATRIX ELEMENTS

   4 May 2020 11:02:35 
->MATELCALC F6 F6 0
  CALCULATING TENSOR  F6          Q= 0
  (REDUCED) TENSOR IS F6          S= 0   L= 0   J= 0
    642 MATRIX ELEMENTS

   4 May 2020 11:02:35 
->MATELCALC ALPHA ALPHA 0
  CALCULATING TENSOR  ALPHA       Q= 0
  (REDUCED) TENSOR IS ALPHA       S= 0   L= 0   J= 0
    642 MATRIX ELEMENTS

   4 May 2020 11:02:35 
->MATELCALC BETA BETA 0
  CALCULATING TENSOR  BETA        Q= 0
  (REDUCED) TENSOR IS BETA        S= 0   L= 0   J= 0
    642 MATRIX ELEMENTS

   4 May 2020 11:02:35 
->MATELCALC GAMMA GAMMA 0
  CALCULATING TENSOR  GAMMA       Q= 0
  (REDUCED) TENSOR IS GAMMA       S= 0   L= 0   J= 0
    642 MATRIX ELEMENTS

   4 May 2020 11:02:35 
->MATELCALC T2 T2 0
  CALCULATING TENSOR  T2          Q= 0
  (REDUCED) TENSOR IS T2          S= 0   L= 0   J= 0
    642 MATRIX ELEMENTS

   4 May 2020 11:02:35 
->MATELCALC T3 T3 0
  CALCULATING TENSOR  T3          Q= 0
  (REDUCED) TENSOR IS T3          S= 0   L= 0   J= 0
    642 MATRIX ELEMENTS

   4 May 2020 11:02:35 
->MATELCALC T4 T4 0
  CALCULATING TENSOR  T4          Q= 0
  (REDUCED) TENSOR IS T4          S= 0   L= 0   J= 0
    642 MATRIX ELEMENTS

   4 May 2020 11:02:35 
->MATELCALC T6 T6 0
  CALCULATING TENSOR  T6          Q= 0
  (REDUCED) TENSOR IS T6          S= 0   L= 0   J= 0
    642 MATRIX ELEMENTS

   4 May 2020 11:02:35 
->MATELCALC T7 T7 0
  CALCULATING TENSOR  T7          Q= 0
  (REDUCED) TENSOR IS T7          S= 0   L= 0   J= 0
    642 MATRIX ELEMENTS

   4 May 2020 11:02:35 
->MATELCALC T8 T8 0
  CALCULATING TENSOR  T8          Q= 0
  (REDUCED) TENSOR IS T8          S= 0   L= 0   J= 0
    642 MATRIX ELEMENTS

   4 May 2020 11:02:35 
->MATELCALC ZETA ZETA 0
  CALCULATING TENSOR  ZETA        Q= 0
  (REDUCED) TENSOR IS ZETA        S= 1   L= 1   J= 0
    642 MATRIX ELEMENTS

   4 May 2020 11:02:35 
->MATELCALC M0 M0 0
  CALCULATING TENSOR  M0          Q= 0
  (REDUCED) TENSOR IS M0          S= 1   L= 1   J= 0
    642 MATRIX ELEMENTS

   4 May 2020 11:02:35 
->MATELCALC M2 M2 0
  CALCULATING TENSOR  M2          Q= 0
  (REDUCED) TENSOR IS M2          S= 1   L= 1   J= 0
    642 MATRIX ELEMENTS

   4 May 2020 11:02:35 
->MATELCALC M4 M4 0
  CALCULATING TENSOR  M4          Q= 0
  (REDUCED) TENSOR IS M4          S= 1   L= 1   J= 0
    642 MATRIX ELEMENTS

   4 May 2020 11:02:35 
->MATELCALC P2 P2 0
  CALCULATING TENSOR  P2          Q= 0
  (REDUCED) TENSOR IS P2          S= 1   L= 1   J= 0
    642 MATRIX ELEMENTS

   4 May 2020 11:02:35 
->MATELCALC P4 P4 0
  CALCULATING TENSOR  P4          Q= 0
  (REDUCED) TENSOR IS P4          S= 1   L= 1   J= 0
    642 MATRIX ELEMENTS

   4 May 2020 11:02:35 
->MATELCALC P6 P6 0
  CALCULATING TENSOR  P6          Q= 0
  (REDUCED) TENSOR IS P6          S= 1   L= 1   J= 0
    642 MATRIX ELEMENTS

   4 May 2020 11:02:35 
-> MATELCALC C20 U2 0  -1.36626
  CALCULATING TENSOR  C20         Q= 0
  MULTIPLYING BY -1.366260000000000e+00
  (REDUCED) TENSOR IS U2          S= 0   L= 2   J= 2
   1320 MATRIX ELEMENTS

   4 May 2020 11:02:35 
->MATELCALC C21 U2 1  -1.36626
  CALCULATING TENSOR  C21         Q= 1
  MULTIPLYING BY -1.366260000000000e+00
  (REDUCED) TENSOR IS U2          S= 0   L= 2   J= 2
   2244 MATRIX ELEMENTS

   4 May 2020 11:02:35 
->MATELCALC C22 U2 2  -1.36626
  CALCULATING TENSOR  C22         Q= 2
  MULTIPLYING BY -1.366260000000000e+00
  (REDUCED) TENSOR IS U2          S= 0   L= 2   J= 2
   2040 MATRIX ELEMENTS

   4 May 2020 11:02:35 
->MATELCALC C40 U4 0   1.12815
  CALCULATING TENSOR  C40         Q= 0
  MULTIPLYING BY  1.128150000000000e+00
  (REDUCED) TENSOR IS U4          S= 0   L= 4   J= 4
   1644 MATRIX ELEMENTS

   4 May 2020 11:02:35 
->MATELCALC C41 U4 1   1.12815
  CALCULATING TENSOR  C41         Q= 1
  MULTIPLYING BY  1.128150000000000e+00
  (REDUCED) TENSOR IS U4          S= 0   L= 4   J= 4
   2892 MATRIX ELEMENTS

   4 May 2020 11:02:35 
->MATELCALC C42 U4 2   1.12815
  CALCULATING TENSOR  C42         Q= 2
  MULTIPLYING BY  1.128150000000000e+00
  (REDUCED) TENSOR IS U4          S= 0   L= 4   J= 4
   2700 MATRIX ELEMENTS

   4 May 2020 11:02:35 
->MATELCALC C43 U4 3   1.12815
  CALCULATING TENSOR  C43         Q= 3
  MULTIPLYING BY  1.128150000000000e+00
  (REDUCED) TENSOR IS U4          S= 0   L= 4   J= 4
   2400 MATRIX ELEMENTS

   4 May 2020 11:02:35 
->MATELCALC C44 U4 4   1.12815
  CALCULATING TENSOR  C44         Q= 4
  MULTIPLYING BY  1.128150000000000e+00
  (REDUCED) TENSOR IS U4          S= 0   L= 4   J= 4
   2016 MATRIX ELEMENTS

   4 May 2020 11:02:35 
->MATELCALC C60 U6 0  -1.27738
  CALCULATING TENSOR  C60         Q= 0
  MULTIPLYING BY -1.277380000000000e+00
  (REDUCED) TENSOR IS U6          S= 0   L= 6   J= 6
   1434 MATRIX ELEMENTS

   4 May 2020 11:02:35 
->MATELCALC C61 U6 1  -1.27738
  CALCULATING TENSOR  C61         Q= 1
  MULTIPLYING BY -1.277380000000000e+00
  (REDUCED) TENSOR IS U6          S= 0   L= 6   J= 6
   2472 MATRIX ELEMENTS

   4 May 2020 11:02:35 
->MATELCALC C62 U6 2  -1.27738
  CALCULATING TENSOR  C62         Q= 2
  MULTIPLYING BY -1.277380000000000e+00
  (REDUCED) TENSOR IS U6          S= 0   L= 6   J= 6
   2400 MATRIX ELEMENTS

   4 May 2020 11:02:35 
->MATELCALC C63 U6 3  -1.27738
  CALCULATING TENSOR  C63         Q= 3
  MULTIPLYING BY -1.277380000000000e+00
  (REDUCED) TENSOR IS U6          S= 0   L= 6   J= 6
   2196 MATRIX ELEMENTS

   4 May 2020 11:02:35 
->MATELCALC C64 U6 4  -1.27738
  CALCULATING TENSOR  C64         Q= 4
  MULTIPLYING BY -1.277380000000000e+00
  (REDUCED) TENSOR IS U6          S= 0   L= 6   J= 6
   1968 MATRIX ELEMENTS

   4 May 2020 11:02:35 
->MATELCALC C65 U6 5  -1.27738
  CALCULATING TENSOR  C65         Q= 5
  MULTIPLYING BY -1.277380000000000e+00
  (REDUCED) TENSOR IS U6          S= 0   L= 6   J= 6
   1560 MATRIX ELEMENTS

   4 May 2020 11:02:35 
->MATELCALC C66 U6 6  -1.27738
  CALCULATING TENSOR  C66         Q= 6
  MULTIPLYING BY -1.277380000000000e+00
  (REDUCED) TENSOR IS U6          S= 0   L= 6   J= 6
   1248 MATRIX ELEMENTS

   4 May 2020 11:02:35 
-> MATELCALC MAG10 MAGMOM 0
  CALCULATING TENSOR  MAG10       Q= 0
  (REDUCED) TENSOR IS MAGMOM      S= 0   L= 0   J= 1
   1026 MATRIX ELEMENTS

   4 May 2020 11:02:35 
->MATELCALC MAG11 MAGMOM 1
  CALCULATING TENSOR  MAG11       Q= 1
  (REDUCED) TENSOR IS MAGMOM      S= 0   L= 0   J= 1
   1656 MATRIX ELEMENTS

   4 May 2020 11:02:35 
-> *%Hyperfine tensors
->*%magnetic dipole ones ahyp,bhyp
-> matelcalc ahyp nuclear u1 102.8785692
  CALCULATING TENSOR  AHYP        Q= 0
  MULTIPLYING BY  1.028785692000000e+02
  (REDUCED) TENSOR IS U1          S= 0   L= 1   J= 1
   2406 MATRIX ELEMENTS

   4 May 2020 11:02:35 
->matelcalc bhyp nuclear w121 -1.673320053
  CALCULATING TENSOR  BHYP        Q= 0
  MULTIPLYING BY -1.673320053000000e+00
  (REDUCED) TENSOR IS W121        S= 1   L= 2   J= 1
   2406 MATRIX ELEMENTS

   4 May 2020 11:02:35 
-> *%and the electric quadrupole
->*%set to 30/7
->matelcalc eqhyp nuclear u2 4.2857142                                
  CALCULATING TENSOR  EQHYP       Q= 0
  MULTIPLYING BY  4.285714200000000e+00
  (REDUCED) TENSOR IS U2          S= 0   L= 2   J= 2
   4176 MATRIX ELEMENTS

   4 May 2020 11:02:35 
-> % INTENSITY

**    INTENSITY                             ** PROGRAM JMCALC 29 Aug 02     ** 
   4 May 2020 11:02:35 
->*% Now open file that will be read by vtrans to create intensity matrices.
-> OPENOUTPUT euint_hfs
  WRITING INFO TO     euint_hfs.mi_
  WRITING ME S TO     euint_hfs.mm_
?>Eu intensity hfs matrix elements 12 multiplets
   4 May 2020 11:02:35 
-> MATELCALC U20 U2 0
  CALCULATING TENSOR  U20         Q= 0
  (REDUCED) TENSOR IS U2          S= 0   L= 2   J= 2
   1320 MATRIX ELEMENTS

   4 May 2020 11:02:35 
->MATELCALC U21 U2 1
  CALCULATING TENSOR  U21         Q= 1
  (REDUCED) TENSOR IS U2          S= 0   L= 2   J= 2
   2244 MATRIX ELEMENTS

   4 May 2020 11:02:35 
->MATELCALC U22 U2 2
  CALCULATING TENSOR  U22         Q= 2
  (REDUCED) TENSOR IS U2          S= 0   L= 2   J= 2
   2040 MATRIX ELEMENTS

   4 May 2020 11:02:35 
->MATELCALC U40 U4 0
  CALCULATING TENSOR  U40         Q= 0
  (REDUCED) TENSOR IS U4          S= 0   L= 4   J= 4
   1644 MATRIX ELEMENTS

   4 May 2020 11:02:35 
->MATELCALC U41 U4 1
  CALCULATING TENSOR  U41         Q= 1
  (REDUCED) TENSOR IS U4          S= 0   L= 4   J= 4
   2892 MATRIX ELEMENTS

   4 May 2020 11:02:35 
->MATELCALC U42 U4 2
  CALCULATING TENSOR  U42         Q= 2
  (REDUCED) TENSOR IS U4          S= 0   L= 4   J= 4
   2700 MATRIX ELEMENTS

   4 May 2020 11:02:35 
->MATELCALC U43 U4 3
  CALCULATING TENSOR  U43         Q= 3
  (REDUCED) TENSOR IS U4          S= 0   L= 4   J= 4
   2400 MATRIX ELEMENTS

   4 May 2020 11:02:35 
->MATELCALC U44 U4 4
  CALCULATING TENSOR  U44         Q= 4
  (REDUCED) TENSOR IS U4          S= 0   L= 4   J= 4
   2016 MATRIX ELEMENTS

   4 May 2020 11:02:35 
->MATELCALC U60 U6 0
  CALCULATING TENSOR  U60         Q= 0
  (REDUCED) TENSOR IS U6          S= 0   L= 6   J= 6
   1434 MATRIX ELEMENTS

   4 May 2020 11:02:35 
->MATELCALC U61 U6 1
  CALCULATING TENSOR  U61         Q= 1
  (REDUCED) TENSOR IS U6          S= 0   L= 6   J= 6
   2472 MATRIX ELEMENTS

   4 May 2020 11:02:35 
->MATELCALC U62 U6 2
  CALCULATING TENSOR  U62         Q= 2
  (REDUCED) TENSOR IS U6          S= 0   L= 6   J= 6
   2400 MATRIX ELEMENTS

   4 May 2020 11:02:35 
->MATELCALC U63 U6 3
  CALCULATING TENSOR  U63         Q= 3
  (REDUCED) TENSOR IS U6          S= 0   L= 6   J= 6
   2196 MATRIX ELEMENTS

   4 May 2020 11:02:35 
->MATELCALC U64 U6 4
  CALCULATING TENSOR  U64         Q= 4
  (REDUCED) TENSOR IS U6          S= 0   L= 6   J= 6
   1968 MATRIX ELEMENTS

   4 May 2020 11:02:35 
->MATELCALC U65 U6 5
  CALCULATING TENSOR  U65         Q= 5
  (REDUCED) TENSOR IS U6          S= 0   L= 6   J= 6
   1560 MATRIX ELEMENTS

   4 May 2020 11:02:35 
->MATELCALC U66 U6 6
  CALCULATING TENSOR  U66         Q= 6
  (REDUCED) TENSOR IS U6          S= 0   L= 6   J= 6
   1248 MATRIX ELEMENTS

   4 May 2020 11:02:35 
->MATELCALC M10 MAGMOM 0
  CALCULATING TENSOR  M10         Q= 0
  (REDUCED) TENSOR IS MAGMOM      S= 0   L= 0   J= 1
   1026 MATRIX ELEMENTS

   4 May 2020 11:02:35 
->MATELCALC M11 MAGMOM 1
  CALCULATING TENSOR  M11         Q= 1
  (REDUCED) TENSOR IS MAGMOM      S= 0   L= 0   J= 1
   1656 MATRIX ELEMENTS

   4 May 2020 11:02:35 
-> finish

  FINISHING,BYE
   4 May 2020 11:02:35 

0.453u 0.374s 0:02.26 36.2%	0+0k 7216+4440io 1pf+0w
