Fri May  8 15:20:30 NZST 2020
Current directory:
/home/users/ksm92/calculations/f2/yso/site1
Log file:
145.lcfit.log
Executable file:
-rwxr-xr-x. 1 mfr24 physraca 2663008 Apr  4 20:02 /home/users/mfr24/linuxemp/bin/lcfit.exe
Input file:
-rw-r--r--. 1 ksm92 physgrad 2638 May  8 15:20 cfit.dat

** PROGRAM CFIT 03 Aug 00       **    8 May 2020 15:20:30 

  MAXSTATENUM 37323   maxblocksize 5000   MAXPARAMNUM 250  COMPLEX PARAMS ALLOWED  DOUBLE PRECISION

->* Sebastian Er Site 1. 
-> 
->READSTATES  ../../f2cf
  READING STATES FROM ../../f2cf.st_
  f2 all multiplets                                                                                                                                                                                                                                               
  CREATED   21 Apr 2020 21:27:12  BY JMCALC 29 Aug 02                                                                                                                                                                                                             
    91 STATES
->READTENSORS ../../f2cf
  READING INFO FROM ../../f2cf.mi_
  MES FROM ../../f2cf.mm_
  f2 cf matrix elements all multiplets                                                                                                                                                                                                                            
  CREATED   21 Apr 2020 21:27:13  BY JMCALC 29 Aug 02                                                                                                                                                                                                             
    1 EAVG          91 MES
    2 F2            91 MES
    3 F4            91 MES
    4 F6            91 MES
    5 ALPHA         91 MES
    6 BETA          91 MES
    7 GAMMA         91 MES
    8 ZETA         105 MES
    9 M0           105 MES
   10 M2           105 MES
   11 M4           105 MES
   12 P2           105 MES
   13 P4           105 MES
   14 P6           105 MES
   15 C20          211 MES
   16 C21          332 MES
   17 C22          307 MES
   18 C40          247 MES
   19 C41          408 MES
   20 C42          379 MES
   21 C43          338 MES
   22 C44          283 MES
   23 C60          205 MES
   24 C61          336 MES
   25 C62          319 MES
   26 C63          284 MES
   27 C64          249 MES
   28 C65          200 MES
   29 C66          153 MES
   30 MAG10        114 MES
   31 MAG11        150 MES
  NPARAMS = 31
-> 
->*% Tesla
->addten m111 mag10 0.2695 mag11 -0.190595+i0.190595
  m111       = 
        MAG10           0.269500                  
        MAG11          -0.190595  +i      0.190595
->addten m001 mag10  0.466860
  m001       = 
        MAG10           0.466860                  
->addten m100 mag11 -0.330120
  m100       = 
        MAG11          -0.330120                  
->addten m010 mag11 +i0.330120
  m010       = 
        MAG11                     +i      0.330120
-> *% for g values
->addten magz mag10 1
  magz       = 
        MAG10           1.000000                  
->addten magx mag11 -0.70710678
  magx       = 
        MAG11          -0.707107                  
->addten magy mag11 i0.70710678
  magy       = 
        MAG11                     +i      0.707107
->addten magx+y magx 0.7071068 magy  0.7071068
  magx+y     = 
        MAG11          -0.500000                  
        MAG11                     +i      0.500000
->addten magy+z magy 0.7071068 magz  0.7071068
  magy+z     = 
        MAG11                     +i      0.500000
        MAG10           0.707107                  
->addten magz+x magz 0.7071068 magx  0.7071068
  magz+x     = 
        MAG10           0.707107                  
        MAG11          -0.500000                  
->addten magx-y magx 0.7071068 magy -0.7071068
  magx-y     = 
        MAG11          -0.500000                  
        MAG11                     -i      0.500000
->addten magy-z magy 0.7071068 magz -0.7071068
  magy-z     = 
        MAG11                     +i      0.500000
        MAG10          -0.707107                  
->addten magz-x magz 0.7071068 magx -0.7071068
  magz-x     = 
        MAG10           0.707107                  
        MAG11           0.500000                  
-> 
->addten mtot m0 1 m2 0.56 m4 0.31
  mtot       = 
        M0              1.000000                  
        M2              0.560000                  
        M4              0.310000                  
->addten ptot p2 1 p4 0.5 p6 0.1
  ptot       = 
        P2              1.000000                  
        P4              0.500000                  
        P6              0.100000                  
-> ASSIGN F2 68878 F4 50347 F6 32901
->ASSIGN ALPHA 16.23 BETA -566.6 GAMMA 1371
->ASSIGN ZETA 751.7
->ASSIGN MTOT 2.08 PTOT -88.6
-> 
-> 
->*% Thesis site 1 NEEDS CHECKING! 
->assign C20    -563
->assign C21    558+i280
->assign C22    143-i121
->assign C40   -125
->assign C41    225-i831
->assign C42    -48-i945
->assign C43   -615-i688
->assign C44    744-i102
->assign C60   -28
->assign C61   49+i199
->assign C62  120-i107
->assign C63  195-i55
->assign C64  -287-i161
->assign C65 -117+i162
->assign C66   136+i186
-> *% New parameters from Sebastian
-> *% EAVG                   35522.63
->*% F2                     96074.96
->*% F4                     67488.52
->*% F6                     53144.42
->*% C20                     -408.50
->*% C21              404.17+i426.61
->*% C22             -336.55-i228.29
->*% C40                      982.50
->*% C41              470.88+i439.95
->*% C42               77.84+i411.41
->*% C43             -351.13-i445.90
->*% C44             -617.51+i921.55
->*% C60                     -410.22
->*% C61               16.06+i199.35
->*% C62             -169.29+i466.67
->*% C63             -132.73+i120.67
->*% C64              196.92-i141.06
->*% C65               121.97-i40.60
->*% C66                58.20-i12.40
->*%HYP        :              0.0053
->*%EQHYP      :               0.063
-> diag

** ENERGIES                                 ** PROGRAM CFIT 03 Aug 00       ** 
   8 May 2020 15:20:31 
    2 F2         =   68878.0000                
    3 F4         =   50347.0000                
    4 F6         =   32901.0000                
    5 ALPHA      =      16.2300                
    6 BETA       =    -566.6000                
    7 GAMMA      =    1371.0000                
    8 ZETA       =     751.7000                
   15 C20        =    -563.0000                
   16 C21        =     558.0000  +i    280.0000
   17 C22        =     143.0000  -i    121.0000
   18 C40        =    -125.0000                
   19 C41        =     225.0000  -i    831.0000
   20 C42        =     -48.0000  -i    945.0000
   21 C43        =    -615.0000  -i    688.0000
   22 C44        =     744.0000  -i    102.0000
   23 C60        =     -28.0000                
   24 C61        =      49.0000  +i    199.0000
   25 C62        =     120.0000  -i    107.0000
   26 C63        =     195.0000  -i     55.0000
   27 C64        =    -287.0000  -i    161.0000
   28 C65        =    -117.0000  +i    162.0000
   29 C66        =     136.0000  +i    186.0000
   45 mtot       =       2.0800                
   46 ptot       =     -88.6000                



       BLK LEV                                                                               THEORY      EXPERIMENT   EXPT-THEORY

   1*   1   1  (-0.41,-0.35)  29%   34 [3H  4  1>  (-0.47, 0.25)  29%   58 [3H  4 -1>      0.000000          *
   2*   1   2  (-0.52,-0.25)  33%   23 [3H  4  2>  (-0.24,-0.52)  33%   68 [3H  4 -2>     52.844734          *
   3*   1   3  ( 0.57,-0.04)  33%   46 [3H  4  0>  ( 0.15,-0.36)  15%   68 [3H  4 -2>     92.679808          *
   4*   1   4  ( 0.55,-0.04)  30%   46 [3H  4  0>  (-0.04, 0.43)  19%   14 [3H  4  3>    152.488559          *
   5*   1   5  ( 0.42,-0.15)  20%   58 [3H  4 -1>  (-0.09,-0.44)  20%   34 [3H  4  1>    331.614396          *
   6*   1   6  (-0.29, 0.30)  18%   14 [3H  4  3>  ( 0.41,-0.10)  18%   76 [3H  4 -3>    430.842334          *
   7*   1   7  (-0.27, 0.31)  17%   82 [3H  4 -4>  ( 0.41, 0.02)  17%    7 [3H  4  4>    532.216185          *
   8*   1   8  ( 0.08,-0.45)  20%   82 [3H  4 -4>  (-0.32,-0.32)  20%    7 [3H  4  4>    761.735086          *
   9*   1   9  (-0.39,-0.21)  20%    7 [3H  4  4>  (-0.09, 0.44)  20%   82 [3H  4 -4>    808.820713          *
  10*   1  10  (-0.46, 0.21)  25%   69 [3H  5 -2>  (-0.29, 0.41)  25%   24 [3H  5  2>   2138.605294          *
  11*   1  11  ( 0.36,-0.13)  15%   59 [3H  5 -1>  ( 0.34,-0.19)  15%   35 [3H  5  1>   2158.354347          *
  12*   1  12  ( 0.19, 0.43)  22%   47 [3H  5  0>  (-0.35,-0.20)  17%   77 [3H  5 -3>   2181.080632          *
  13*   1  13  ( 0.31, 0.29)  18%   77 [3H  5 -3>  (-0.06, 0.42)  18%   15 [3H  5  3>   2199.957346          *
  14*   1  14  (-0.44,-0.11)  20%   35 [3H  5  1>  (-0.45, 0.05)  20%   59 [3H  5 -1>   2377.711171          *
  15*   1  15  (-0.60, 0.21)  40%   47 [3H  5  0>  (-0.00,-0.32)  10%    8 [3H  5  4>   2390.225715          *
  16*   1  16  (-0.35,-0.35)  24%   35 [3H  5  1>  ( 0.48, 0.11)  24%   59 [3H  5 -1>   2509.599203          *
  17*   1  17  (-0.27,-0.37)  21%    3 [3H  5  5>  ( 0.45,-0.05)  21%   87 [3H  5 -5>   2594.750414          *
  18*   1  18  (-0.39, 0.11)  16%   87 [3H  5 -5>  (-0.22,-0.33)  16%    3 [3H  5  5>   2629.281399          *
  19*   1  19  (-0.17, 0.39)  18%    3 [3H  5  5>  (-0.24,-0.35)  18%   87 [3H  5 -5>   2841.708128          *
  20*   1  20  (-0.25,-0.35)  18%   87 [3H  5 -5>  ( 0.15,-0.40)  18%    3 [3H  5  5>   2859.632864          *
  21*   1  21  ( 0.31, 0.26)  16%   84 [3H  6 -4>  ( 0.05, 0.40)  16%    9 [3H  6  4>   4228.038620          *
  22*   1  22  ( 0.36,-0.03)  13%   78 [3H  6 -3>  (-0.08, 0.35)  13%   16 [3H  6  3>   4246.230743          *
  23*   1  23  (-0.02,-0.39)  16%   48 [3H  6  0>  ( 0.18, 0.34)  15%   78 [3H  6 -3>   4272.381284          *
  24*   1  24  (-0.15, 0.39)  17%   16 [3H  6  3>  (-0.29, 0.30)  17%   78 [3H  6 -3>   4292.316898          *
  25*   1  25  (-0.36, 0.27)  20%   60 [3H  6 -1>  (-0.44,-0.07)  20%   36 [3H  6  1>   4484.242558          *
  26*   1  26  (-0.34, 0.30)  21%   48 [3H  6  0>  ( 0.25, 0.30)  15%   84 [3H  6 -4>   4516.319264          *
  27*   1  27  (-0.20,-0.40)  20%   70 [3H  6 -2>  (-0.04, 0.45)  20%   25 [3H  6  2>   4593.071434          *
  28*   1  28  (-0.19,-0.45)  24%   36 [3H  6  1>  ( 0.45, 0.20)  24%   60 [3H  6 -1>   4640.949936          *
  29*   1  29  (-0.15,-0.54)  32%   48 [3H  6  0>  (-0.22, 0.31)  14%   25 [3H  6  2>   4717.133746          *
  30*   1  30  (-0.50, 0.00)  25%    1 [3H  6  6>  ( 0.29, 0.40)  25%   90 [3H  6 -6>   4834.693679          *
  31*   1  31  (-0.29,-0.35)  21%   90 [3H  6 -6>  (-0.46, 0.00)  21%    1 [3H  6  6>   4861.871298          *
  32*   1  32  (-0.08, 0.31)  10%    9 [3H  6  4>  ( 0.29,-0.12)  10%   84 [3H  6 -4>   5098.950101          *
  33*   1  33  ( 0.10,-0.31)  11%   88 [3H  6 -5>  (-0.30, 0.12)  11%    4 [3H  6  5>   5106.936303          *
  34*   1  34  (-0.45,-0.25)  27%   20 [3F  2  2>  (-0.16,-0.49)  27%   65 [3F  2 -2>   5221.343568          *
  35*   1  35  (-0.02, 0.58)  34%   65 [3F  2 -2>  (-0.41,-0.42)  34%   20 [3F  2  2>   5237.377799          *
  36*   1  36  (-0.42, 0.42)  35%   43 [3F  2  0>  ( 0.38,-0.21)  19%   55 [3F  2 -1>   5332.969128          *
  37*   1  37  ( 0.23,-0.68)  52%   43 [3F  2  0>  ( 0.10, 0.36)  14%   31 [3F  2  1>   5421.621230          *
  38*   1  38  (-0.56, 0.14)  34%   55 [3F  2 -1>  (-0.17, 0.55)  34%   31 [3F  2  1>   5448.695022          *
  39*   1  39  (-0.52, 0.19)  31%   12 [3F  3  3>  ( 0.40, 0.39)  31%   74 [3F  3 -3>   6575.958608          *
  40*   1  40  ( 0.34, 0.37)  25%   74 [3F  3 -3>  ( 0.50, 0.06)  25%   12 [3F  3  3>   6603.694379          *
  41*   1  41  (-0.33, 0.23)  16%   44 [3F  3  0>  ( 0.02,-0.40)  16%   56 [3F  3 -1>   6683.069138          *
  42*   1  42  ( 0.21, 0.58)  38%   44 [3F  3  0>  (-0.18,-0.27)  11%   66 [3F  3 -2>   6703.315618          *
  43*   1  43  (-0.21,-0.39)  20%   74 [3F  3 -3>  (-0.13, 0.42)  20%   12 [3F  3  3>   6728.948271          *
  44*   1  44  (-0.30, 0.42)  26%   32 [3F  3  1>  ( 0.11,-0.50)  26%   56 [3F  3 -1>   6783.532904          *
  45*   1  45  (-0.44,-0.10)  20%   66 [3F  3 -2>  ( 0.34, 0.30)  20%   21 [3F  3  2>   6820.503503          *
  46*   1  46  ( 0.23, 0.24)  11%   75 [3F  4 -3>  ( 0.30,-0.14)  11%   13 [3F  4  3>   6969.015103          *
  47*   1  47  ( 0.28, 0.23)  13%    6 [3F  4  4>  ( 0.34, 0.14)  13%   81 [3F  4 -4>   7011.536092          *
  48*   1  48  ( 0.31, 0.13)  11%   67 [3F  4 -2>  ( 0.20, 0.27)  11%   22 [3F  4  2>   7025.988200          *
  49*   1  49  ( 0.33, 0.06)  11%   45 [3F  4  0>  (-0.25, 0.17)   9%   13 [3F  4  3>   7085.237825          *
  50*   1  50  ( 0.31,-0.11)  11%   57 [3F  4 -1>  ( 0.05, 0.33)  11%   33 [3F  4  1>   7108.320135          *
  51*   1  51  (-0.27, 0.25)  14%   33 [3F  4  1>  (-0.17,-0.33)  14%   57 [3F  4 -1>   7153.643096          *
  52*   1  52  ( 0.44,-0.08)  20%   45 [3F  4  0>  ( 0.04,-0.31)  10%   75 [3F  4 -3>   7321.844722          *
  53*   1  53  (-0.05,-0.33)  11%   81 [3F  4 -4>  (-0.31, 0.11)  11%    6 [3F  4  4>   7336.358214          *
  54*   1  54  ( 0.26, 0.19)  11%   22 [3F  4  2>  (-0.32,-0.02)  11%   67 [3F  4 -2>   7380.435430          *
  55*   1  55  ( 0.21,-0.25)  11%   62 [1G  4 -1>  ( 0.18, 0.28)  11%   38 [1G  4  1>   9777.819545          *
  56*   1  56  (-0.21,-0.25)  10%   10 [1G  4  4>  ( 0.22,-0.23)  10%   85 [1G  4 -4>   9865.223275          *
  57*   1  57  ( 0.03, 0.46)  21%   51 [1G  4  0>  ( 0.03, 0.37)  14%   45 [3F  4  0>   9908.979891          *
  58*   1  58  ( 0.28,-0.25)  14%   17 [1G  4  3>  (-0.15,-0.34)  14%   79 [1G  4 -3>   9964.759975          *
  59*   1  59  ( 0.18,-0.27)  11%   27 [1G  4  2>  ( 0.28, 0.16)  11%   72 [1G  4 -2>  10044.891090          *
  60*   1  60  ( 0.17, 0.30)  12%   62 [1G  4 -1>  ( 0.20,-0.29)  12%   38 [1G  4  1>  10114.678972          *
  61*   1  61  ( 0.39,-0.05)  16%   51 [1G  4  0>  ( 0.11,-0.30)  11%   79 [1G  4 -3>  10402.444708          *
  62*   1  62  ( 0.37,-0.13)  15%   10 [1G  4  4>  ( 0.06, 0.38)  15%   85 [1G  4 -4>  10451.097520          *
  63*   1  63  ( 0.34, 0.14)  14%   72 [1G  4 -2>  (-0.34,-0.15)  14%   27 [1G  4  2>  10550.393026          *
  64*   1  64  (-0.51,-0.03)  26%   26 [1D  2  2>  ( 0.37, 0.35)  26%   71 [1D  2 -2>  16733.451931          *
  65*   1  65  ( 0.54, 0.06)  29%   26 [1D  2  2>  ( 0.08, 0.53)  29%   71 [1D  2 -2>  17025.390340          *
  66*   1  66  (-0.32, 0.46)  31%   50 [1D  2  0>  (-0.31,-0.30)  18%   37 [1D  2  1>  17197.136344          *
  67*   1  67  ( 0.48, 0.07)  23%   61 [1D  2 -1>  (-0.48, 0.06)  23%   37 [1D  2  1>  17497.022265          *
  68*   1  68  ( 0.39, 0.51)  41%   50 [1D  2  0>  ( 0.40,-0.22)  21%   37 [1D  2  1>  17542.378626          *
  69*   1  69  (-0.24, 0.26)  13%   73 [1I  6 -2>  (-0.05,-0.36)  13%   28 [1I  6  2>  20922.924221          *
  70*   1  70  ( 0.04, 0.37)  14%   18 [1I  6  3>  ( 0.28,-0.24)  14%   80 [1I  6 -3>  20929.073349          *
  71*   1  71  ( 0.03,-0.98)  96%   40 [3P  0  0>  ( 0.00,-0.10)   1%   49 [1S  0  0>  21031.745389          *
  72*   1  72  ( 0.15,-0.57)  35%   52 [1I  6  0>  (-0.16,-0.30)  12%   63 [1I  6 -1>  21128.562051          *
  73*   1  73  ( 0.03,-0.47)  22%   39 [1I  6  1>  ( 0.38,-0.28)  22%   63 [1I  6 -1>  21149.556114          *
  74*   1  74  ( 0.04, 0.85)  72%   41 [3P  1  0>  ( 0.20,-0.30)  13%   29 [3P  1  1>  21480.234997          *
  75*   1  75  ( 0.42,-0.14)  20%   52 [1I  6  0>  ( 0.20, 0.21)   8%   28 [1I  6  2>  21536.974583          *
  76*   1  76  (-0.36,-0.09)  14%   39 [1I  6  1>  (-0.33, 0.17)  14%   63 [1I  6 -1>  21641.724766          *
  77*   1  77  (-0.26, 0.60)  43%   53 [3P  1 -1>  (-0.47, 0.45)  43%   29 [3P  1  1>  21657.947147          *
  78*   1  78  (-0.41,-0.01)  17%   73 [1I  6 -2>  (-0.41, 0.01)  17%   28 [1I  6  2>  21735.946762          *
  79*   1  79  (-0.49,-0.37)  38%   53 [3P  1 -1>  ( 0.43, 0.44)  38%   29 [3P  1  1>  21804.572789          *
  80*   1  80  ( 0.44,-0.01)  20%   80 [1I  6 -3>  (-0.05, 0.44)  20%   18 [1I  6  3>  21929.177304          *
  81*   1  81  (-0.16,-0.32)  13%   52 [1I  6  0>  (-0.03,-0.33)  11%   18 [1I  6  3>  21950.261733          *
  82*   1  82  (-0.05, 0.48)  24%   86 [1I  6 -4>  ( 0.15,-0.46)  24%   11 [1I  6  4>  22133.690922          *
  83*   1  83  (-0.14, 0.49)  26%   11 [1I  6  4>  (-0.08, 0.51)  26%   86 [1I  6 -4>  22175.439300          *
  84*   1  84  (-0.46,-0.02)  21%    2 [1I  6  6>  (-0.37, 0.26)  21%   91 [1I  6 -6>  22440.136651          *
  85*   1  85  ( 0.43, 0.14)  20%   89 [1I  6 -5>  ( 0.27,-0.36)  20%    5 [1I  6  5>  22450.028656          *
  86*   1  86  ( 0.50, 0.21)  29%   19 [3P  2  2>  (-0.20,-0.50)  29%   64 [3P  2 -2>  22660.828424          *
  87*   1  87  ( 0.18, 0.53)  31%   64 [3P  2 -2>  ( 0.53, 0.18)  31%   19 [3P  2  2>  22733.725132          *
  88*   1  88  ( 0.27,-0.57)  39%   42 [3P  2  0>  ( 0.33,-0.12)  12%   30 [3P  2  1>  23038.414647          *
  89*   1  89  ( 0.47,-0.33)  33%   30 [3P  2  1>  (-0.12,-0.56)  33%   54 [3P  2 -1>  23087.977014          *
  90*   1  90  (-0.64,-0.01)  40%   42 [3P  2  0>  (-0.37, 0.27)  20%   54 [3P  2 -1>  23135.145827          *
  91*   1  91  ( 0.55,-0.83)  99%   49 [1S  0  0>  (-0.06, 0.09)   1%   40 [3P  0  0>  47113.183673          *

  MINEVAL WAS    -10272.8971

   8 May 2020 15:20:31 
-> writediag cutoff 0.02 range 1 2

** EIGENVECTOR MAJOR COMPONENT ANALYSIS     ** PROGRAM CFIT 03 Aug 00       ** 
   8 May 2020 15:20:31 
  CUTOFF= 0.02000   RANGE: 1 TO 2


   1      0.00    0.0510, -0.2395(  6%)  7 [3H  4  4>   0.0195, -0.0149(  0%)  8 [3H  5  4>   0.0083, -0.0409(  0%) 10 [1G  4  4> 
                 -0.2515,  0.2629( 13%) 14 [3H  4  3>  -0.0434,  0.0441(  0%) 17 [1G  4  3>   0.0043,  0.0295(  0%) 20 [3F  2  2> 
                  0.0157,  0.0131(  0%) 33 [3F  4  1>  -0.4098, -0.3490( 29%) 34 [3H  4  1>  -0.0692, -0.0596(  1%) 38 [1G  4  1> 
                 -0.0237, -0.0025(  0%) 47 [3H  5  0>   0.0181, -0.0095(  0%) 57 [3F  4 -1>  -0.4744,  0.2544( 29%) 58 [3H  4 -1> 
                 -0.0802,  0.0436(  1%) 62 [1G  4 -1>  -0.0104,  0.0279(  0%) 65 [3F  2 -2>  -0.1902, -0.3102( 13%) 76 [3H  4 -3> 
                 -0.0331, -0.0523(  0%) 79 [1G  4 -3>   0.0008, -0.2449(  6%) 82 [3H  4 -4>   0.0159,  0.0187(  0%) 83 [3H  5 -4> 
                  0.0005, -0.0417(  0%) 85 [1G  4 -4> 

   2     52.84    0.0014, -0.0337(  0%)  3 [3H  5  5>  -0.1255,  0.1605(  4%)  7 [3H  4  4>  -0.0221,  0.0285(  0%) 10 [1G  4  4> 
                  0.2118,  0.2090(  9%) 14 [3H  4  3>   0.0345,  0.0335(  0%) 17 [1G  4  3>   0.0154,  0.0144(  0%) 22 [3F  4  2> 
                 -0.5188, -0.2493( 33%) 23 [3H  4  2>  -0.0861, -0.0449(  1%) 27 [1G  4  2>  -0.0238,  0.0130(  0%) 31 [3F  2  1> 
                  0.1290, -0.0299(  2%) 34 [3H  4  1>  -0.0240, -0.0065(  0%) 35 [3H  5  1>   0.0215, -0.0057(  0%) 38 [1G  4  1> 
                  0.0501,  0.0514(  1%) 46 [3H  4  0>  -0.0136,  0.0234(  0%) 55 [3F  2 -1>   0.0331, -0.1283(  2%) 58 [3H  4 -1> 
                 -0.0059, -0.0242(  0%) 59 [3H  5 -1>   0.0062, -0.0214(  0%) 62 [1G  4 -1>   0.0140,  0.0158(  0%) 67 [3F  4 -2> 
                 -0.2364, -0.5248( 33%) 68 [3H  4 -2>  -0.0427, -0.0871(  1%) 72 [1G  4 -2>  -0.2037, -0.2169(  9%) 76 [3H  4 -3> 
                 -0.0326, -0.0353(  0%) 79 [1G  4 -3>   0.1636, -0.1215(  4%) 82 [3H  4 -4>   0.0290, -0.0214(  0%) 85 [1G  4 -4> 
                 -0.0337,  0.0006(  0%) 87 [3H  5 -5> 

   8 May 2020 15:20:31 
->savevect ercf
  THEORVAL TO ercf.vi_
  EVECTS TO ercf.vm_
?>Pt3+  eigenvectors in YSO site 1
  COMPLEX EIGENVECTORS
   8 May 2020 15:20:31 
-> 
->finish

  FINISHING,BYE
   8 May 2020 15:20:31 

0.054u 0.054s 0:00.65 15.3%	0+0k 5640+856io 1pf+0w
