# Pr YSO Site 1 Energy
1   0.0  
2  89.0
3 146.0
4 212.0
5 271.0
6 302.0
7 409.0
8 765.0
9 886.0
34 5131.0
35 5191.0
36 5211.0
37 5284.0
38 5369.0
39 6459.0
40 6488.0
41 6554.0
42 6568.0
43 6616.0
44 6639.0
45 6688.0
64 16529.2
65 16588.8
66 16754.1
67 17030.4
68 17330.5
69 20499.0
86 21980.0
87 22040.0
89 22464.0
90 22505.0
