%!PS-Adobe-2.0
%%Title: specedmd5I6_1.ps
%%Creator: gnuplot 4.4 patchlevel 3
%%CreationDate: Wed Aug 22 16:13:38 2012
%%DocumentFonts: (atend)
%%BoundingBox: 50 50 554 770
%%Orientation: Landscape
%%Pages: (atend)
%%EndComments
%%BeginProlog
/gnudict 256 dict def
gnudict begin
%
% The following true/false flags may be edited by hand if desired.
% The unit line width and grayscale image gamma correction may also be changed.
%
/Color false def
/Blacktext false def
/Solid false def
/Dashlength 1 def
/Landscape true def
/Level1 false def
/Rounded false def
/ClipToBoundingBox false def
/TransparentPatterns false def
/gnulinewidth 5.000 def
/userlinewidth gnulinewidth def
/Gamma 1.0 def
%
/vshift -46 def
/dl1 {
  10.0 Dashlength mul mul
  Rounded { currentlinewidth 0.75 mul sub dup 0 le { pop 0.01 } if } if
} def
/dl2 {
  10.0 Dashlength mul mul
  Rounded { currentlinewidth 0.75 mul add } if
} def
/hpt_ 31.5 def
/vpt_ 31.5 def
/hpt hpt_ def
/vpt vpt_ def
Level1 {} {
/SDict 10 dict def
systemdict /pdfmark known not {
  userdict /pdfmark systemdict /cleartomark get put
} if
SDict begin [
  /Title (specedmd5I6_1.ps)
  /Subject (gnuplot plot)
  /Creator (gnuplot 4.4 patchlevel 3)
  /Author (mfr24)
%  /Producer (gnuplot)
%  /Keywords ()
  /CreationDate (Wed Aug 22 16:13:38 2012)
  /DOCINFO pdfmark
end
} ifelse
/doclip {
  ClipToBoundingBox {
    newpath 50 50 moveto 554 50 lineto 554 770 lineto 50 770 lineto closepath
    clip
  } if
} def
%
% Gnuplot Prolog Version 4.4 (August 2010)
%
%/SuppressPDFMark true def
%
/M {moveto} bind def
/L {lineto} bind def
/R {rmoveto} bind def
/V {rlineto} bind def
/N {newpath moveto} bind def
/Z {closepath} bind def
/C {setrgbcolor} bind def
/f {rlineto fill} bind def
/g {setgray} bind def
/Gshow {show} def   % May be redefined later in the file to support UTF-8
/vpt2 vpt 2 mul def
/hpt2 hpt 2 mul def
/Lshow {currentpoint stroke M 0 vshift R 
	Blacktext {gsave 0 setgray show grestore} {show} ifelse} def
/Rshow {currentpoint stroke M dup stringwidth pop neg vshift R
	Blacktext {gsave 0 setgray show grestore} {show} ifelse} def
/Cshow {currentpoint stroke M dup stringwidth pop -2 div vshift R 
	Blacktext {gsave 0 setgray show grestore} {show} ifelse} def
/UP {dup vpt_ mul /vpt exch def hpt_ mul /hpt exch def
  /hpt2 hpt 2 mul def /vpt2 vpt 2 mul def} def
/DL {Color {setrgbcolor Solid {pop []} if 0 setdash}
 {pop pop pop 0 setgray Solid {pop []} if 0 setdash} ifelse} def
/BL {stroke userlinewidth 2 mul setlinewidth
	Rounded {1 setlinejoin 1 setlinecap} if} def
/AL {stroke userlinewidth 2 div setlinewidth
	Rounded {1 setlinejoin 1 setlinecap} if} def
/UL {dup gnulinewidth mul /userlinewidth exch def
	dup 1 lt {pop 1} if 10 mul /udl exch def} def
/PL {stroke userlinewidth setlinewidth
	Rounded {1 setlinejoin 1 setlinecap} if} def
3.8 setmiterlimit
% Default Line colors
/LCw {1 1 1} def
/LCb {0 0 0} def
/LCa {0 0 0} def
/LC0 {1 0 0} def
/LC1 {0 1 0} def
/LC2 {0 0 1} def
/LC3 {1 0 1} def
/LC4 {0 1 1} def
/LC5 {1 1 0} def
/LC6 {0 0 0} def
/LC7 {1 0.3 0} def
/LC8 {0.5 0.5 0.5} def
% Default Line Types
/LTw {PL [] 1 setgray} def
/LTb {BL [] LCb DL} def
/LTa {AL [1 udl mul 2 udl mul] 0 setdash LCa setrgbcolor} def
/LT0 {PL [] LC0 DL} def
/LT1 {PL [4 dl1 2 dl2] LC1 DL} def
/LT2 {PL [2 dl1 3 dl2] LC2 DL} def
/LT3 {PL [1 dl1 1.5 dl2] LC3 DL} def
/LT4 {PL [6 dl1 2 dl2 1 dl1 2 dl2] LC4 DL} def
/LT5 {PL [3 dl1 3 dl2 1 dl1 3 dl2] LC5 DL} def
/LT6 {PL [2 dl1 2 dl2 2 dl1 6 dl2] LC6 DL} def
/LT7 {PL [1 dl1 2 dl2 6 dl1 2 dl2 1 dl1 2 dl2] LC7 DL} def
/LT8 {PL [2 dl1 2 dl2 2 dl1 2 dl2 2 dl1 2 dl2 2 dl1 4 dl2] LC8 DL} def
/Pnt {stroke [] 0 setdash gsave 1 setlinecap M 0 0 V stroke grestore} def
/Dia {stroke [] 0 setdash 2 copy vpt add M
  hpt neg vpt neg V hpt vpt neg V
  hpt vpt V hpt neg vpt V closepath stroke
  Pnt} def
/Pls {stroke [] 0 setdash vpt sub M 0 vpt2 V
  currentpoint stroke M
  hpt neg vpt neg R hpt2 0 V stroke
 } def
/Box {stroke [] 0 setdash 2 copy exch hpt sub exch vpt add M
  0 vpt2 neg V hpt2 0 V 0 vpt2 V
  hpt2 neg 0 V closepath stroke
  Pnt} def
/Crs {stroke [] 0 setdash exch hpt sub exch vpt add M
  hpt2 vpt2 neg V currentpoint stroke M
  hpt2 neg 0 R hpt2 vpt2 V stroke} def
/TriU {stroke [] 0 setdash 2 copy vpt 1.12 mul add M
  hpt neg vpt -1.62 mul V
  hpt 2 mul 0 V
  hpt neg vpt 1.62 mul V closepath stroke
  Pnt} def
/Star {2 copy Pls Crs} def
/BoxF {stroke [] 0 setdash exch hpt sub exch vpt add M
  0 vpt2 neg V hpt2 0 V 0 vpt2 V
  hpt2 neg 0 V closepath fill} def
/TriUF {stroke [] 0 setdash vpt 1.12 mul add M
  hpt neg vpt -1.62 mul V
  hpt 2 mul 0 V
  hpt neg vpt 1.62 mul V closepath fill} def
/TriD {stroke [] 0 setdash 2 copy vpt 1.12 mul sub M
  hpt neg vpt 1.62 mul V
  hpt 2 mul 0 V
  hpt neg vpt -1.62 mul V closepath stroke
  Pnt} def
/TriDF {stroke [] 0 setdash vpt 1.12 mul sub M
  hpt neg vpt 1.62 mul V
  hpt 2 mul 0 V
  hpt neg vpt -1.62 mul V closepath fill} def
/DiaF {stroke [] 0 setdash vpt add M
  hpt neg vpt neg V hpt vpt neg V
  hpt vpt V hpt neg vpt V closepath fill} def
/Pent {stroke [] 0 setdash 2 copy gsave
  translate 0 hpt M 4 {72 rotate 0 hpt L} repeat
  closepath stroke grestore Pnt} def
/PentF {stroke [] 0 setdash gsave
  translate 0 hpt M 4 {72 rotate 0 hpt L} repeat
  closepath fill grestore} def
/Circle {stroke [] 0 setdash 2 copy
  hpt 0 360 arc stroke Pnt} def
/CircleF {stroke [] 0 setdash hpt 0 360 arc fill} def
/C0 {BL [] 0 setdash 2 copy moveto vpt 90 450 arc} bind def
/C1 {BL [] 0 setdash 2 copy moveto
	2 copy vpt 0 90 arc closepath fill
	vpt 0 360 arc closepath} bind def
/C2 {BL [] 0 setdash 2 copy moveto
	2 copy vpt 90 180 arc closepath fill
	vpt 0 360 arc closepath} bind def
/C3 {BL [] 0 setdash 2 copy moveto
	2 copy vpt 0 180 arc closepath fill
	vpt 0 360 arc closepath} bind def
/C4 {BL [] 0 setdash 2 copy moveto
	2 copy vpt 180 270 arc closepath fill
	vpt 0 360 arc closepath} bind def
/C5 {BL [] 0 setdash 2 copy moveto
	2 copy vpt 0 90 arc
	2 copy moveto
	2 copy vpt 180 270 arc closepath fill
	vpt 0 360 arc} bind def
/C6 {BL [] 0 setdash 2 copy moveto
	2 copy vpt 90 270 arc closepath fill
	vpt 0 360 arc closepath} bind def
/C7 {BL [] 0 setdash 2 copy moveto
	2 copy vpt 0 270 arc closepath fill
	vpt 0 360 arc closepath} bind def
/C8 {BL [] 0 setdash 2 copy moveto
	2 copy vpt 270 360 arc closepath fill
	vpt 0 360 arc closepath} bind def
/C9 {BL [] 0 setdash 2 copy moveto
	2 copy vpt 270 450 arc closepath fill
	vpt 0 360 arc closepath} bind def
/C10 {BL [] 0 setdash 2 copy 2 copy moveto vpt 270 360 arc closepath fill
	2 copy moveto
	2 copy vpt 90 180 arc closepath fill
	vpt 0 360 arc closepath} bind def
/C11 {BL [] 0 setdash 2 copy moveto
	2 copy vpt 0 180 arc closepath fill
	2 copy moveto
	2 copy vpt 270 360 arc closepath fill
	vpt 0 360 arc closepath} bind def
/C12 {BL [] 0 setdash 2 copy moveto
	2 copy vpt 180 360 arc closepath fill
	vpt 0 360 arc closepath} bind def
/C13 {BL [] 0 setdash 2 copy moveto
	2 copy vpt 0 90 arc closepath fill
	2 copy moveto
	2 copy vpt 180 360 arc closepath fill
	vpt 0 360 arc closepath} bind def
/C14 {BL [] 0 setdash 2 copy moveto
	2 copy vpt 90 360 arc closepath fill
	vpt 0 360 arc} bind def
/C15 {BL [] 0 setdash 2 copy vpt 0 360 arc closepath fill
	vpt 0 360 arc closepath} bind def
/Rec {newpath 4 2 roll moveto 1 index 0 rlineto 0 exch rlineto
	neg 0 rlineto closepath} bind def
/Square {dup Rec} bind def
/Bsquare {vpt sub exch vpt sub exch vpt2 Square} bind def
/S0 {BL [] 0 setdash 2 copy moveto 0 vpt rlineto BL Bsquare} bind def
/S1 {BL [] 0 setdash 2 copy vpt Square fill Bsquare} bind def
/S2 {BL [] 0 setdash 2 copy exch vpt sub exch vpt Square fill Bsquare} bind def
/S3 {BL [] 0 setdash 2 copy exch vpt sub exch vpt2 vpt Rec fill Bsquare} bind def
/S4 {BL [] 0 setdash 2 copy exch vpt sub exch vpt sub vpt Square fill Bsquare} bind def
/S5 {BL [] 0 setdash 2 copy 2 copy vpt Square fill
	exch vpt sub exch vpt sub vpt Square fill Bsquare} bind def
/S6 {BL [] 0 setdash 2 copy exch vpt sub exch vpt sub vpt vpt2 Rec fill Bsquare} bind def
/S7 {BL [] 0 setdash 2 copy exch vpt sub exch vpt sub vpt vpt2 Rec fill
	2 copy vpt Square fill Bsquare} bind def
/S8 {BL [] 0 setdash 2 copy vpt sub vpt Square fill Bsquare} bind def
/S9 {BL [] 0 setdash 2 copy vpt sub vpt vpt2 Rec fill Bsquare} bind def
/S10 {BL [] 0 setdash 2 copy vpt sub vpt Square fill 2 copy exch vpt sub exch vpt Square fill
	Bsquare} bind def
/S11 {BL [] 0 setdash 2 copy vpt sub vpt Square fill 2 copy exch vpt sub exch vpt2 vpt Rec fill
	Bsquare} bind def
/S12 {BL [] 0 setdash 2 copy exch vpt sub exch vpt sub vpt2 vpt Rec fill Bsquare} bind def
/S13 {BL [] 0 setdash 2 copy exch vpt sub exch vpt sub vpt2 vpt Rec fill
	2 copy vpt Square fill Bsquare} bind def
/S14 {BL [] 0 setdash 2 copy exch vpt sub exch vpt sub vpt2 vpt Rec fill
	2 copy exch vpt sub exch vpt Square fill Bsquare} bind def
/S15 {BL [] 0 setdash 2 copy Bsquare fill Bsquare} bind def
/D0 {gsave translate 45 rotate 0 0 S0 stroke grestore} bind def
/D1 {gsave translate 45 rotate 0 0 S1 stroke grestore} bind def
/D2 {gsave translate 45 rotate 0 0 S2 stroke grestore} bind def
/D3 {gsave translate 45 rotate 0 0 S3 stroke grestore} bind def
/D4 {gsave translate 45 rotate 0 0 S4 stroke grestore} bind def
/D5 {gsave translate 45 rotate 0 0 S5 stroke grestore} bind def
/D6 {gsave translate 45 rotate 0 0 S6 stroke grestore} bind def
/D7 {gsave translate 45 rotate 0 0 S7 stroke grestore} bind def
/D8 {gsave translate 45 rotate 0 0 S8 stroke grestore} bind def
/D9 {gsave translate 45 rotate 0 0 S9 stroke grestore} bind def
/D10 {gsave translate 45 rotate 0 0 S10 stroke grestore} bind def
/D11 {gsave translate 45 rotate 0 0 S11 stroke grestore} bind def
/D12 {gsave translate 45 rotate 0 0 S12 stroke grestore} bind def
/D13 {gsave translate 45 rotate 0 0 S13 stroke grestore} bind def
/D14 {gsave translate 45 rotate 0 0 S14 stroke grestore} bind def
/D15 {gsave translate 45 rotate 0 0 S15 stroke grestore} bind def
/DiaE {stroke [] 0 setdash vpt add M
  hpt neg vpt neg V hpt vpt neg V
  hpt vpt V hpt neg vpt V closepath stroke} def
/BoxE {stroke [] 0 setdash exch hpt sub exch vpt add M
  0 vpt2 neg V hpt2 0 V 0 vpt2 V
  hpt2 neg 0 V closepath stroke} def
/TriUE {stroke [] 0 setdash vpt 1.12 mul add M
  hpt neg vpt -1.62 mul V
  hpt 2 mul 0 V
  hpt neg vpt 1.62 mul V closepath stroke} def
/TriDE {stroke [] 0 setdash vpt 1.12 mul sub M
  hpt neg vpt 1.62 mul V
  hpt 2 mul 0 V
  hpt neg vpt -1.62 mul V closepath stroke} def
/PentE {stroke [] 0 setdash gsave
  translate 0 hpt M 4 {72 rotate 0 hpt L} repeat
  closepath stroke grestore} def
/CircE {stroke [] 0 setdash 
  hpt 0 360 arc stroke} def
/Opaque {gsave closepath 1 setgray fill grestore 0 setgray closepath} def
/DiaW {stroke [] 0 setdash vpt add M
  hpt neg vpt neg V hpt vpt neg V
  hpt vpt V hpt neg vpt V Opaque stroke} def
/BoxW {stroke [] 0 setdash exch hpt sub exch vpt add M
  0 vpt2 neg V hpt2 0 V 0 vpt2 V
  hpt2 neg 0 V Opaque stroke} def
/TriUW {stroke [] 0 setdash vpt 1.12 mul add M
  hpt neg vpt -1.62 mul V
  hpt 2 mul 0 V
  hpt neg vpt 1.62 mul V Opaque stroke} def
/TriDW {stroke [] 0 setdash vpt 1.12 mul sub M
  hpt neg vpt 1.62 mul V
  hpt 2 mul 0 V
  hpt neg vpt -1.62 mul V Opaque stroke} def
/PentW {stroke [] 0 setdash gsave
  translate 0 hpt M 4 {72 rotate 0 hpt L} repeat
  Opaque stroke grestore} def
/CircW {stroke [] 0 setdash 
  hpt 0 360 arc Opaque stroke} def
/BoxFill {gsave Rec 1 setgray fill grestore} def
/Density {
  /Fillden exch def
  currentrgbcolor
  /ColB exch def /ColG exch def /ColR exch def
  /ColR ColR Fillden mul Fillden sub 1 add def
  /ColG ColG Fillden mul Fillden sub 1 add def
  /ColB ColB Fillden mul Fillden sub 1 add def
  ColR ColG ColB setrgbcolor} def
/BoxColFill {gsave Rec PolyFill} def
/PolyFill {gsave Density fill grestore grestore} def
/h {rlineto rlineto rlineto gsave closepath fill grestore} bind def
%
% PostScript Level 1 Pattern Fill routine for rectangles
% Usage: x y w h s a XX PatternFill
%	x,y = lower left corner of box to be filled
%	w,h = width and height of box
%	  a = angle in degrees between lines and x-axis
%	 XX = 0/1 for no/yes cross-hatch
%
/PatternFill {gsave /PFa [ 9 2 roll ] def
  PFa 0 get PFa 2 get 2 div add PFa 1 get PFa 3 get 2 div add translate
  PFa 2 get -2 div PFa 3 get -2 div PFa 2 get PFa 3 get Rec
  gsave 1 setgray fill grestore clip
  currentlinewidth 0.5 mul setlinewidth
  /PFs PFa 2 get dup mul PFa 3 get dup mul add sqrt def
  0 0 M PFa 5 get rotate PFs -2 div dup translate
  0 1 PFs PFa 4 get div 1 add floor cvi
	{PFa 4 get mul 0 M 0 PFs V} for
  0 PFa 6 get ne {
	0 1 PFs PFa 4 get div 1 add floor cvi
	{PFa 4 get mul 0 2 1 roll M PFs 0 V} for
 } if
  stroke grestore} def
%
/languagelevel where
 {pop languagelevel} {1} ifelse
 2 lt
	{/InterpretLevel1 true def}
	{/InterpretLevel1 Level1 def}
 ifelse
%
% PostScript level 2 pattern fill definitions
%
/Level2PatternFill {
/Tile8x8 {/PaintType 2 /PatternType 1 /TilingType 1 /BBox [0 0 8 8] /XStep 8 /YStep 8}
	bind def
/KeepColor {currentrgbcolor [/Pattern /DeviceRGB] setcolorspace} bind def
<< Tile8x8
 /PaintProc {0.5 setlinewidth pop 0 0 M 8 8 L 0 8 M 8 0 L stroke} 
>> matrix makepattern
/Pat1 exch def
<< Tile8x8
 /PaintProc {0.5 setlinewidth pop 0 0 M 8 8 L 0 8 M 8 0 L stroke
	0 4 M 4 8 L 8 4 L 4 0 L 0 4 L stroke}
>> matrix makepattern
/Pat2 exch def
<< Tile8x8
 /PaintProc {0.5 setlinewidth pop 0 0 M 0 8 L
	8 8 L 8 0 L 0 0 L fill}
>> matrix makepattern
/Pat3 exch def
<< Tile8x8
 /PaintProc {0.5 setlinewidth pop -4 8 M 8 -4 L
	0 12 M 12 0 L stroke}
>> matrix makepattern
/Pat4 exch def
<< Tile8x8
 /PaintProc {0.5 setlinewidth pop -4 0 M 8 12 L
	0 -4 M 12 8 L stroke}
>> matrix makepattern
/Pat5 exch def
<< Tile8x8
 /PaintProc {0.5 setlinewidth pop -2 8 M 4 -4 L
	0 12 M 8 -4 L 4 12 M 10 0 L stroke}
>> matrix makepattern
/Pat6 exch def
<< Tile8x8
 /PaintProc {0.5 setlinewidth pop -2 0 M 4 12 L
	0 -4 M 8 12 L 4 -4 M 10 8 L stroke}
>> matrix makepattern
/Pat7 exch def
<< Tile8x8
 /PaintProc {0.5 setlinewidth pop 8 -2 M -4 4 L
	12 0 M -4 8 L 12 4 M 0 10 L stroke}
>> matrix makepattern
/Pat8 exch def
<< Tile8x8
 /PaintProc {0.5 setlinewidth pop 0 -2 M 12 4 L
	-4 0 M 12 8 L -4 4 M 8 10 L stroke}
>> matrix makepattern
/Pat9 exch def
/Pattern1 {PatternBgnd KeepColor Pat1 setpattern} bind def
/Pattern2 {PatternBgnd KeepColor Pat2 setpattern} bind def
/Pattern3 {PatternBgnd KeepColor Pat3 setpattern} bind def
/Pattern4 {PatternBgnd KeepColor Landscape {Pat5} {Pat4} ifelse setpattern} bind def
/Pattern5 {PatternBgnd KeepColor Landscape {Pat4} {Pat5} ifelse setpattern} bind def
/Pattern6 {PatternBgnd KeepColor Landscape {Pat9} {Pat6} ifelse setpattern} bind def
/Pattern7 {PatternBgnd KeepColor Landscape {Pat8} {Pat7} ifelse setpattern} bind def
} def
%
%
%End of PostScript Level 2 code
%
/PatternBgnd {
  TransparentPatterns {} {gsave 1 setgray fill grestore} ifelse
} def
%
% Substitute for Level 2 pattern fill codes with
% grayscale if Level 2 support is not selected.
%
/Level1PatternFill {
/Pattern1 {0.250 Density} bind def
/Pattern2 {0.500 Density} bind def
/Pattern3 {0.750 Density} bind def
/Pattern4 {0.125 Density} bind def
/Pattern5 {0.375 Density} bind def
/Pattern6 {0.625 Density} bind def
/Pattern7 {0.875 Density} bind def
} def
%
% Now test for support of Level 2 code
%
Level1 {Level1PatternFill} {Level2PatternFill} ifelse
%
/Symbol-Oblique /Symbol findfont [1 0 .167 1 0 0] makefont
dup length dict begin {1 index /FID eq {pop pop} {def} ifelse} forall
currentdict end definefont pop
end
%%EndProlog
%%Page: 1 1
gnudict begin
gsave
doclip
50 50 translate
0.100 0.100 scale
90 rotate
0 -5040 translate
0 setgray
newpath
(Helvetica) findfont 140 scalefont setfont
1.000 UL
LTb
938 588 M
63 0 V
5946 0 R
-63 0 V
854 588 M
( 0) Rshow
1.000 UL
LTb
938 1036 M
63 0 V
5946 0 R
-63 0 V
-6030 0 R
( 0.0002) Rshow
1.000 UL
LTb
938 1484 M
63 0 V
5946 0 R
-63 0 V
-6030 0 R
( 0.0004) Rshow
1.000 UL
LTb
938 1932 M
63 0 V
5946 0 R
-63 0 V
-6030 0 R
( 0.0006) Rshow
1.000 UL
LTb
938 2380 M
63 0 V
5946 0 R
-63 0 V
-6030 0 R
( 0.0008) Rshow
1.000 UL
LTb
938 2827 M
63 0 V
5946 0 R
-63 0 V
-6030 0 R
( 0.001) Rshow
1.000 UL
LTb
938 3275 M
63 0 V
5946 0 R
-63 0 V
-6030 0 R
( 0.0012) Rshow
1.000 UL
LTb
938 3723 M
63 0 V
5946 0 R
-63 0 V
-6030 0 R
( 0.0014) Rshow
1.000 UL
LTb
938 4171 M
63 0 V
5946 0 R
-63 0 V
-6030 0 R
( 0.0016) Rshow
1.000 UL
LTb
938 4619 M
63 0 V
5946 0 R
-63 0 V
-6030 0 R
( 0.0018) Rshow
1.000 UL
LTb
938 588 M
0 63 V
0 3968 R
0 -63 V
938 448 M
( 8751) Cshow
1.000 UL
LTb
2140 588 M
0 63 V
0 3968 R
0 -63 V
0 -4108 R
( 8752) Cshow
1.000 UL
LTb
3342 588 M
0 63 V
0 3968 R
0 -63 V
0 -4108 R
( 8753) Cshow
1.000 UL
LTb
4543 588 M
0 63 V
0 3968 R
0 -63 V
0 -4108 R
( 8754) Cshow
1.000 UL
LTb
5745 588 M
0 63 V
0 3968 R
0 -63 V
0 -4108 R
( 8755) Cshow
1.000 UL
LTb
6947 588 M
0 63 V
0 3968 R
0 -63 V
0 -4108 R
( 8756) Cshow
1.000 UL
LTb
1.000 UL
LTb
938 4619 N
938 588 L
6009 0 V
0 4031 V
-6009 0 V
Z stroke
LCb setrgbcolor
112 2603 M
currentpoint gsave translate -270 rotate 0 0 M
(dipole strength) Cshow
grestore
LTb
LCb setrgbcolor
3942 238 M
(energy \(cm-1\)   \(temp=  4.00, fwhm=  0.05\)) Cshow
LTb
3942 4829 M
(ED+MD Theoretical hyperfine intensity..          \(5I8 -> 5I6first\)) Cshow
182 70 M
(Wed Aug 22 16:13:38 2012) Lshow
1.000 UP
1.000 UL
LTb
% Begin plot #1
1.000 UL
LT0
LCb setrgbcolor
6296 4486 M
(ISOTROPIC) Rshow
LT0
6380 4486 M
399 0 V
938 590 M
3 0 V
3 0 V
3 0 V
3 0 V
3 0 V
3 0 V
3 0 V
2 0 V
3 0 V
3 0 V
3 0 V
3 0 V
3 0 V
3 0 V
3 0 V
3 0 V
3 0 V
3 0 V
3 0 V
3 0 V
3 0 V
3 0 V
3 0 V
2 0 V
3 0 V
3 0 V
3 0 V
3 0 V
3 0 V
3 0 V
3 0 V
3 0 V
3 0 V
3 0 V
3 0 V
3 0 V
3 0 V
3 0 V
2 0 V
3 0 V
3 0 V
3 0 V
3 0 V
3 0 V
3 0 V
3 0 V
3 0 V
3 0 V
3 0 V
3 0 V
3 0 V
3 0 V
3 0 V
3 0 V
2 0 V
3 0 V
3 0 V
3 0 V
3 0 V
3 0 V
3 0 V
3 0 V
3 0 V
3 0 V
3 0 V
3 0 V
3 1 V
3 0 V
3 0 V
2 0 V
3 0 V
3 0 V
3 0 V
3 0 V
3 0 V
3 0 V
3 0 V
3 0 V
3 0 V
3 0 V
3 0 V
3 0 V
3 0 V
3 0 V
3 0 V
2 0 V
3 0 V
3 0 V
3 0 V
3 0 V
3 0 V
3 0 V
3 0 V
3 0 V
3 0 V
3 0 V
3 0 V
3 0 V
3 0 V
3 0 V
2 0 V
3 0 V
stroke 1237 591 M
3 0 V
3 0 V
3 0 V
3 0 V
3 0 V
3 0 V
3 0 V
3 0 V
3 0 V
3 0 V
3 0 V
3 0 V
3 0 V
3 0 V
2 0 V
3 0 V
3 0 V
3 0 V
3 0 V
3 0 V
3 0 V
3 0 V
3 0 V
3 0 V
3 0 V
3 0 V
3 0 V
3 0 V
3 0 V
2 0 V
3 0 V
3 0 V
3 0 V
3 0 V
3 0 V
3 0 V
3 0 V
3 0 V
3 0 V
3 0 V
3 0 V
3 0 V
3 0 V
3 0 V
3 0 V
2 0 V
3 0 V
3 0 V
3 0 V
3 0 V
3 0 V
3 0 V
3 0 V
3 0 V
3 0 V
3 0 V
3 0 V
3 0 V
3 0 V
3 0 V
2 0 V
3 0 V
3 0 V
3 0 V
3 0 V
3 0 V
3 0 V
3 0 V
3 0 V
3 0 V
3 0 V
3 0 V
3 0 V
3 0 V
3 0 V
3 0 V
2 0 V
3 0 V
3 0 V
3 0 V
3 0 V
3 0 V
3 0 V
3 0 V
3 0 V
3 0 V
3 0 V
3 0 V
3 0 V
3 0 V
3 0 V
2 1 V
3 0 V
3 0 V
3 0 V
3 0 V
3 0 V
3 0 V
3 0 V
3 0 V
3 0 V
3 0 V
3 0 V
3 0 V
stroke 1543 592 M
3 0 V
3 0 V
3 0 V
2 0 V
3 0 V
3 0 V
3 0 V
3 0 V
3 0 V
3 0 V
3 0 V
3 0 V
3 0 V
3 0 V
3 0 V
3 0 V
3 0 V
3 0 V
2 0 V
3 0 V
3 0 V
3 0 V
3 0 V
3 0 V
3 0 V
3 0 V
3 0 V
3 0 V
3 0 V
3 0 V
3 0 V
3 0 V
3 0 V
3 0 V
2 0 V
3 0 V
3 0 V
3 0 V
3 0 V
3 0 V
3 0 V
3 0 V
3 0 V
3 0 V
3 0 V
3 0 V
3 0 V
3 0 V
3 0 V
2 0 V
3 0 V
3 0 V
3 0 V
3 0 V
3 0 V
3 0 V
3 0 V
3 0 V
3 0 V
3 0 V
3 0 V
3 1 V
3 0 V
3 0 V
3 0 V
2 0 V
3 0 V
3 0 V
3 0 V
3 0 V
3 0 V
3 0 V
3 0 V
3 0 V
3 0 V
3 0 V
3 0 V
3 0 V
3 0 V
3 0 V
2 0 V
3 0 V
3 0 V
3 0 V
3 0 V
3 0 V
3 0 V
3 0 V
3 0 V
3 0 V
3 0 V
3 0 V
3 0 V
3 0 V
3 0 V
3 0 V
2 0 V
3 0 V
3 0 V
3 0 V
3 0 V
3 0 V
3 0 V
3 0 V
stroke 1848 593 M
3 0 V
3 0 V
3 0 V
3 0 V
3 0 V
3 1 V
3 0 V
2 0 V
3 0 V
3 0 V
3 0 V
3 0 V
3 0 V
3 0 V
3 0 V
3 0 V
3 0 V
3 0 V
3 0 V
3 0 V
3 0 V
3 0 V
3 0 V
2 0 V
3 0 V
3 0 V
3 0 V
3 0 V
3 0 V
3 0 V
3 0 V
3 0 V
3 0 V
3 0 V
3 0 V
3 0 V
3 0 V
3 0 V
2 1 V
3 0 V
3 0 V
3 0 V
3 0 V
3 0 V
3 0 V
3 0 V
3 0 V
3 0 V
3 0 V
3 0 V
3 0 V
3 0 V
3 0 V
3 0 V
2 0 V
3 0 V
3 0 V
3 0 V
3 0 V
3 0 V
3 0 V
3 0 V
3 1 V
3 0 V
3 0 V
3 0 V
3 0 V
3 0 V
3 0 V
2 0 V
3 0 V
3 0 V
3 0 V
3 0 V
3 0 V
3 0 V
3 0 V
3 0 V
3 0 V
3 0 V
3 1 V
3 0 V
3 0 V
3 0 V
3 0 V
2 0 V
3 0 V
3 0 V
3 0 V
3 0 V
3 0 V
3 0 V
3 0 V
3 0 V
3 1 V
3 0 V
3 0 V
3 0 V
3 0 V
3 0 V
2 0 V
3 0 V
3 0 V
3 0 V
stroke 2153 598 M
3 0 V
3 1 V
3 0 V
3 0 V
3 0 V
3 0 V
3 0 V
3 0 V
3 0 V
3 0 V
3 1 V
3 0 V
2 0 V
3 0 V
3 0 V
3 0 V
3 0 V
3 1 V
3 0 V
3 0 V
3 0 V
3 0 V
3 0 V
3 1 V
3 0 V
3 0 V
3 0 V
2 0 V
3 0 V
3 1 V
3 0 V
3 0 V
3 0 V
3 1 V
3 0 V
3 0 V
3 0 V
3 1 V
3 0 V
3 0 V
3 0 V
3 1 V
3 0 V
2 0 V
3 1 V
3 0 V
3 0 V
3 1 V
3 0 V
3 1 V
3 0 V
3 1 V
3 0 V
3 1 V
3 0 V
3 1 V
3 0 V
3 1 V
2 0 V
3 1 V
3 1 V
3 1 V
3 0 V
3 1 V
3 1 V
3 1 V
3 1 V
3 1 V
3 1 V
3 1 V
3 1 V
3 2 V
3 1 V
3 2 V
2 1 V
3 2 V
3 2 V
3 2 V
3 2 V
3 2 V
3 3 V
3 2 V
3 3 V
3 4 V
3 3 V
3 4 V
3 4 V
3 5 V
3 5 V
2 6 V
3 6 V
3 7 V
3 8 V
3 8 V
3 10 V
3 11 V
3 12 V
3 13 V
3 16 V
3 17 V
3 19 V
3 21 V
3 23 V
3 25 V
stroke 2459 875 M
3 27 V
2 28 V
3 29 V
3 28 V
3 25 V
3 21 V
3 14 V
3 6 V
3 -2 V
3 -10 V
3 -18 V
3 -23 V
3 -26 V
3 -28 V
3 -28 V
3 -28 V
3 -26 V
2 -24 V
3 -21 V
3 -20 V
3 -17 V
3 -16 V
3 -14 V
3 -12 V
3 -11 V
3 -10 V
3 -9 V
3 -8 V
3 -7 V
3 -6 V
3 -5 V
3 -5 V
2 -5 V
3 -4 V
3 -3 V
3 -4 V
3 -2 V
3 -3 V
3 -2 V
3 -3 V
3 -1 V
3 -2 V
3 -2 V
3 -1 V
3 -1 V
3 -1 V
3 -1 V
3 -1 V
2 -1 V
3 0 V
3 -1 V
3 0 V
3 -1 V
3 0 V
3 0 V
3 0 V
3 0 V
3 0 V
3 0 V
3 1 V
3 0 V
3 0 V
3 1 V
2 1 V
3 0 V
3 1 V
3 1 V
3 1 V
3 1 V
3 1 V
3 2 V
3 1 V
3 2 V
3 2 V
3 2 V
3 2 V
3 2 V
3 3 V
3 3 V
2 3 V
3 3 V
3 4 V
3 4 V
3 4 V
3 5 V
3 5 V
3 6 V
3 7 V
3 7 V
3 8 V
3 9 V
3 10 V
3 11 V
3 12 V
2 14 V
3 16 V
3 17 V
3 20 V
3 22 V
3 25 V
3 27 V
3 30 V
3 33 V
3 36 V
stroke 2764 1005 M
3 37 V
3 39 V
3 37 V
3 34 V
3 29 V
3 21 V
2 11 V
3 0 V
3 -11 V
3 -21 V
3 -30 V
3 -34 V
3 -37 V
3 -38 V
3 -37 V
3 -35 V
3 -32 V
3 -30 V
3 -27 V
3 -24 V
3 -21 V
2 -19 V
3 -17 V
3 -15 V
3 -13 V
3 -12 V
3 -11 V
3 -9 V
3 -8 V
3 -8 V
3 -7 V
3 -6 V
3 -5 V
3 -5 V
3 -4 V
3 -4 V
3 -3 V
2 -3 V
3 -3 V
3 -2 V
3 -2 V
3 -2 V
3 -2 V
3 -1 V
3 -1 V
3 -1 V
3 -1 V
3 -1 V
3 0 V
3 -1 V
3 0 V
3 0 V
2 0 V
3 1 V
3 0 V
3 1 V
3 1 V
3 1 V
3 1 V
3 1 V
3 2 V
3 2 V
3 2 V
3 2 V
3 2 V
3 3 V
3 3 V
3 3 V
2 4 V
3 3 V
3 5 V
3 5 V
3 5 V
3 5 V
3 7 V
3 7 V
3 8 V
3 8 V
3 10 V
3 10 V
3 12 V
3 13 V
3 15 V
2 17 V
3 18 V
3 21 V
3 23 V
3 27 V
3 29 V
3 33 V
3 36 V
3 40 V
3 44 V
3 47 V
3 50 V
3 50 V
3 49 V
3 44 V
3 37 V
2 27 V
3 13 V
3 -2 V
3 -17 V
3 -29 V
stroke 3069 1369 M
3 -39 V
3 -46 V
3 -49 V
3 -49 V
3 -48 V
3 -46 V
3 -42 V
3 -38 V
3 -35 V
3 -31 V
2 -27 V
3 -24 V
3 -22 V
3 -19 V
3 -17 V
3 -15 V
3 -14 V
3 -12 V
3 -10 V
3 -9 V
3 -9 V
3 -7 V
3 -7 V
3 -5 V
3 -5 V
3 -5 V
2 -3 V
3 -4 V
3 -3 V
3 -2 V
3 -2 V
3 -2 V
3 -1 V
3 -1 V
3 0 V
3 0 V
3 0 V
3 0 V
3 1 V
3 1 V
3 1 V
2 2 V
3 2 V
3 3 V
3 3 V
3 3 V
3 4 V
3 4 V
3 5 V
3 5 V
3 6 V
3 7 V
3 7 V
3 8 V
3 9 V
3 10 V
3 12 V
2 12 V
3 14 V
3 16 V
3 17 V
3 20 V
3 22 V
3 25 V
3 28 V
3 31 V
3 35 V
3 39 V
3 44 V
3 48 V
3 54 V
3 57 V
2 62 V
3 64 V
3 64 V
3 60 V
3 54 V
3 41 V
3 27 V
3 9 V
3 -11 V
3 -28 V
3 -43 V
3 -54 V
3 -60 V
3 -62 V
3 -63 V
3 -59 V
2 -56 V
3 -51 V
3 -46 V
3 -41 V
3 -37 V
3 -33 V
3 -29 V
3 -26 V
3 -22 V
3 -20 V
3 -17 V
3 -16 V
3 -13 V
3 -12 V
3 -10 V
2 -8 V
stroke 3374 840 M
3 -8 V
3 -6 V
3 -6 V
3 -4 V
3 -4 V
3 -2 V
3 -2 V
3 -1 V
3 -1 V
3 0 V
3 2 V
3 1 V
3 3 V
3 3 V
3 4 V
2 5 V
3 6 V
3 7 V
3 8 V
3 8 V
3 10 V
3 12 V
3 13 V
3 14 V
3 17 V
3 18 V
3 21 V
3 24 V
3 26 V
3 30 V
2 33 V
3 38 V
3 42 V
3 48 V
3 53 V
3 59 V
3 65 V
3 71 V
3 75 V
3 77 V
3 78 V
3 74 V
3 66 V
3 51 V
3 33 V
3 11 V
2 -12 V
3 -34 V
3 -51 V
3 -65 V
3 -72 V
3 -76 V
3 -74 V
3 -72 V
3 -67 V
3 -61 V
3 -55 V
3 -49 V
3 -44 V
3 -38 V
3 -34 V
2 -29 V
3 -25 V
3 -22 V
3 -19 V
3 -16 V
3 -13 V
3 -11 V
3 -9 V
3 -7 V
3 -5 V
3 -3 V
3 -2 V
3 0 V
3 2 V
3 4 V
3 5 V
2 7 V
3 9 V
3 11 V
3 13 V
3 15 V
3 18 V
3 21 V
3 24 V
3 27 V
3 31 V
3 35 V
3 40 V
3 46 V
3 51 V
3 58 V
2 65 V
3 71 V
3 79 V
3 84 V
3 89 V
3 91 V
3 88 V
3 81 V
3 69 V
3 49 V
3 25 V
3 -1 V
stroke 3680 2154 M
3 -27 V
3 -50 V
3 -67 V
3 -79 V
2 -85 V
3 -85 V
3 -83 V
3 -78 V
3 -71 V
3 -64 V
3 -57 V
3 -50 V
3 -43 V
3 -37 V
3 -31 V
3 -26 V
3 -21 V
3 -17 V
3 -12 V
2 -8 V
3 -5 V
3 -1 V
3 3 V
3 7 V
3 10 V
3 14 V
3 19 V
3 23 V
3 28 V
3 33 V
3 39 V
3 45 V
3 52 V
3 59 V
3 67 V
2 75 V
3 83 V
3 90 V
3 96 V
3 98 V
3 98 V
3 90 V
3 78 V
3 58 V
3 33 V
3 4 V
3 -24 V
3 -50 V
3 -70 V
3 -83 V
2 -91 V
3 -91 V
3 -89 V
3 -83 V
3 -75 V
3 -66 V
3 -58 V
3 -49 V
3 -41 V
3 -32 V
3 -25 V
3 -17 V
3 -10 V
3 -3 V
3 4 V
3 12 V
2 19 V
3 26 V
3 34 V
3 43 V
3 51 V
3 61 V
3 70 V
3 78 V
3 86 V
3 93 V
3 95 V
3 93 V
3 85 V
3 71 V
3 49 V
2 21 V
3 -9 V
3 -39 V
3 -66 V
3 -87 V
3 -100 V
3 -108 V
3 -108 V
3 -106 V
3 -101 V
3 -93 V
3 -85 V
3 -77 V
3 -69 V
3 -63 V
3 -55 V
2 -50 V
3 -45 V
3 -40 V
3 -35 V
3 -32 V
3 -29 V
3 -26 V
stroke 3985 970 M
3 -24 V
3 -21 V
3 -20 V
3 -17 V
3 -16 V
3 -15 V
3 -14 V
3 -12 V
2 -12 V
3 -10 V
3 -10 V
3 -9 V
3 -9 V
3 -7 V
3 -8 V
3 -7 V
3 -6 V
3 -6 V
3 -6 V
3 -5 V
3 -5 V
3 -4 V
3 -5 V
3 -4 V
2 -4 V
3 -3 V
3 -4 V
3 -3 V
3 -3 V
3 -3 V
3 -3 V
3 -3 V
3 -2 V
3 -3 V
3 -2 V
3 -2 V
3 -2 V
3 -3 V
3 -1 V
2 -2 V
3 -2 V
3 -2 V
3 -1 V
3 -2 V
3 -1 V
3 -2 V
3 -1 V
3 -2 V
3 -1 V
3 -1 V
3 -1 V
3 -1 V
3 -1 V
3 -2 V
3 -1 V
2 0 V
3 -1 V
3 -1 V
3 -1 V
3 -1 V
3 -1 V
3 -1 V
3 0 V
3 -1 V
3 -1 V
3 0 V
3 -1 V
3 -1 V
3 0 V
3 -1 V
2 -1 V
3 0 V
3 -1 V
3 0 V
3 -1 V
3 0 V
3 -1 V
3 0 V
3 0 V
3 -1 V
3 0 V
3 -1 V
3 0 V
3 0 V
3 -1 V
3 0 V
2 0 V
3 -1 V
3 0 V
3 0 V
3 -1 V
3 0 V
3 0 V
3 0 V
3 -1 V
3 0 V
3 0 V
3 0 V
3 -1 V
3 0 V
3 0 V
2 0 V
3 0 V
3 0 V
stroke 4290 632 M
3 -1 V
3 0 V
3 0 V
3 0 V
3 0 V
3 0 V
3 0 V
3 -1 V
3 0 V
3 0 V
3 0 V
3 0 V
3 0 V
2 0 V
3 0 V
3 0 V
3 0 V
3 0 V
3 0 V
3 0 V
3 0 V
3 0 V
3 0 V
3 0 V
3 0 V
3 0 V
3 0 V
3 0 V
2 0 V
3 0 V
3 0 V
3 0 V
3 0 V
3 0 V
3 0 V
3 0 V
3 0 V
3 0 V
3 0 V
3 0 V
3 0 V
3 0 V
3 1 V
3 0 V
2 0 V
3 0 V
3 0 V
3 0 V
3 0 V
3 0 V
3 1 V
3 0 V
3 0 V
3 0 V
3 0 V
3 0 V
3 1 V
3 0 V
3 0 V
2 0 V
3 0 V
3 1 V
3 0 V
3 0 V
3 0 V
3 1 V
3 0 V
3 0 V
3 0 V
3 1 V
3 0 V
3 0 V
3 0 V
3 1 V
3 0 V
2 0 V
3 1 V
3 0 V
3 0 V
3 1 V
3 0 V
3 0 V
3 1 V
3 0 V
3 1 V
3 0 V
3 0 V
3 1 V
3 0 V
3 1 V
2 0 V
3 1 V
3 0 V
3 1 V
3 0 V
3 1 V
3 0 V
3 1 V
3 0 V
3 1 V
3 1 V
3 0 V
3 1 V
3 0 V
stroke 4596 650 M
3 1 V
3 1 V
2 0 V
3 1 V
3 1 V
3 1 V
3 0 V
3 1 V
3 1 V
3 1 V
3 1 V
3 0 V
3 1 V
3 1 V
3 1 V
3 1 V
3 1 V
2 1 V
3 1 V
3 1 V
3 1 V
3 1 V
3 2 V
3 1 V
3 1 V
3 1 V
3 1 V
3 2 V
3 1 V
3 2 V
3 1 V
3 2 V
3 1 V
2 2 V
3 1 V
3 2 V
3 2 V
3 2 V
3 1 V
3 2 V
3 2 V
3 2 V
3 3 V
3 2 V
3 2 V
3 2 V
3 3 V
3 2 V
2 3 V
3 3 V
3 3 V
3 3 V
3 3 V
3 3 V
3 3 V
3 4 V
3 3 V
3 4 V
3 4 V
3 4 V
3 4 V
3 5 V
3 4 V
3 5 V
2 5 V
3 6 V
3 5 V
3 6 V
3 6 V
3 7 V
3 7 V
3 7 V
3 8 V
3 8 V
3 8 V
3 9 V
3 10 V
3 10 V
3 10 V
2 12 V
3 12 V
3 13 V
3 14 V
3 15 V
3 16 V
3 17 V
3 18 V
3 20 V
3 21 V
3 23 V
3 26 V
3 27 V
3 29 V
3 33 V
3 35 V
2 39 V
3 42 V
3 47 V
3 51 V
3 58 V
3 63 V
3 70 V
3 79 V
3 88 V
stroke 4901 1752 M
3 97 V
3 110 V
3 122 V
3 137 V
3 152 V
3 170 V
2 186 V
3 203 V
3 217 V
3 229 V
3 232 V
3 227 V
3 208 V
3 175 V
3 127 V
3 67 V
3 2 V
3 -61 V
3 -118 V
3 -160 V
3 -187 V
3 -200 V
2 -201 V
3 -194 V
3 -179 V
3 -161 V
3 -143 V
3 -122 V
3 -104 V
3 -84 V
3 -67 V
3 -49 V
3 -33 V
3 -17 V
3 -2 V
3 15 V
3 30 V
2 46 V
3 63 V
3 81 V
3 98 V
3 117 V
3 135 V
3 152 V
3 168 V
3 178 V
3 183 V
3 177 V
3 161 V
3 129 V
3 86 V
3 33 V
3 -26 V
2 -82 V
3 -130 V
3 -166 V
3 -189 V
3 -199 V
3 -199 V
3 -192 V
3 -179 V
3 -164 V
3 -148 V
3 -132 V
3 -116 V
3 -102 V
3 -87 V
3 -76 V
2 -64 V
3 -53 V
3 -44 V
3 -35 V
3 -27 V
3 -18 V
3 -11 V
3 -3 V
3 5 V
3 12 V
3 21 V
3 29 V
3 38 V
3 48 V
3 58 V
3 69 V
2 81 V
3 95 V
3 108 V
3 123 V
3 136 V
3 150 V
3 160 V
3 165 V
3 165 V
3 154 V
3 132 V
3 99 V
3 56 V
3 5 V
3 -46 V
2 -94 V
3 -131 V
3 -157 V
3 -173 V
3 -177 V
stroke 5206 2872 M
3 -174 V
3 -165 V
3 -154 V
3 -141 V
3 -127 V
3 -114 V
3 -101 V
3 -90 V
3 -79 V
3 -70 V
3 -61 V
2 -54 V
3 -47 V
3 -41 V
3 -35 V
3 -30 V
3 -26 V
3 -22 V
3 -17 V
3 -14 V
3 -11 V
3 -7 V
3 -4 V
3 0 V
3 3 V
3 6 V
2 10 V
3 14 V
3 17 V
3 22 V
3 26 V
3 32 V
3 37 V
3 43 V
3 50 V
3 58 V
3 67 V
3 76 V
3 86 V
3 97 V
3 108 V
3 120 V
2 131 V
3 139 V
3 145 V
3 144 V
3 135 V
3 119 V
3 91 V
3 54 V
3 12 V
3 -33 V
3 -73 V
3 -107 V
3 -131 V
3 -146 V
3 -150 V
2 -148 V
3 -143 V
3 -132 V
3 -122 V
3 -110 V
3 -100 V
3 -89 V
3 -79 V
3 -70 V
3 -62 V
3 -56 V
3 -49 V
3 -44 V
3 -38 V
3 -35 V
3 -30 V
2 -27 V
3 -24 V
3 -22 V
3 -18 V
3 -17 V
3 -14 V
3 -13 V
3 -10 V
3 -9 V
3 -8 V
3 -6 V
3 -4 V
3 -3 V
3 -2 V
3 0 V
3 1 V
2 3 V
3 4 V
3 6 V
3 7 V
3 9 V
3 11 V
3 13 V
3 15 V
3 18 V
3 20 V
3 24 V
3 27 V
3 30 V
3 35 V
3 40 V
stroke 5512 1269 M
2 45 V
3 51 V
3 58 V
3 65 V
3 74 V
3 83 V
3 92 V
3 101 V
3 110 V
3 117 V
3 121 V
3 121 V
3 114 V
3 99 V
3 77 V
3 46 V
2 11 V
3 -26 V
3 -60 V
3 -88 V
3 -108 V
3 -119 V
3 -124 V
3 -123 V
3 -118 V
3 -109 V
3 -101 V
3 -92 V
3 -82 V
3 -74 V
3 -66 V
2 -58 V
3 -52 V
3 -47 V
3 -41 V
3 -37 V
3 -33 V
3 -29 V
3 -27 V
3 -23 V
3 -22 V
3 -19 V
3 -17 V
3 -15 V
3 -14 V
3 -12 V
3 -11 V
2 -10 V
3 -9 V
3 -8 V
3 -7 V
3 -6 V
3 -6 V
3 -4 V
3 -4 V
3 -4 V
3 -2 V
3 -2 V
3 -1 V
3 -1 V
3 0 V
3 1 V
2 1 V
3 2 V
3 2 V
3 4 V
3 4 V
3 5 V
3 6 V
3 6 V
3 8 V
3 9 V
3 10 V
3 12 V
3 13 V
3 14 V
3 17 V
3 18 V
2 21 V
3 24 V
3 26 V
3 30 V
3 34 V
3 39 V
3 43 V
3 48 V
3 55 V
3 62 V
3 68 V
3 76 V
3 84 V
3 91 V
3 96 V
2 99 V
3 98 V
3 92 V
3 79 V
3 61 V
3 35 V
3 6 V
3 -23 V
3 -51 V
3 -73 V
3 -88 V
stroke 5817 2007 M
3 -98 V
3 -100 V
3 -99 V
3 -95 V
3 -88 V
2 -81 V
3 -74 V
3 -66 V
3 -59 V
3 -53 V
3 -47 V
3 -42 V
3 -37 V
3 -33 V
3 -30 V
3 -27 V
3 -23 V
3 -22 V
3 -19 V
3 -17 V
2 -16 V
3 -14 V
3 -13 V
3 -11 V
3 -11 V
3 -9 V
3 -9 V
3 -8 V
3 -7 V
3 -6 V
3 -6 V
3 -6 V
3 -4 V
3 -5 V
3 -4 V
3 -3 V
2 -3 V
3 -3 V
3 -2 V
3 -2 V
3 -2 V
3 -1 V
3 -1 V
3 -1 V
3 0 V
3 0 V
3 0 V
3 1 V
3 1 V
3 1 V
3 2 V
2 2 V
3 2 V
3 3 V
3 3 V
3 4 V
3 4 V
3 5 V
3 5 V
3 6 V
3 7 V
3 8 V
3 8 V
3 9 V
3 11 V
3 12 V
3 13 V
2 14 V
3 17 V
3 18 V
3 21 V
3 23 V
3 26 V
3 29 V
3 33 V
3 37 V
3 41 V
3 47 V
3 53 V
3 58 V
3 64 V
3 70 V
2 76 V
3 78 V
3 80 V
3 78 V
3 70 V
3 58 V
3 40 V
3 18 V
3 -6 V
3 -29 V
3 -49 V
3 -65 V
3 -75 V
3 -80 V
3 -80 V
3 -78 V
2 -74 V
3 -69 V
3 -62 V
3 -56 V
3 -51 V
3 -45 V
stroke 6122 1087 M
3 -40 V
3 -36 V
3 -32 V
3 -29 V
3 -25 V
3 -23 V
3 -20 V
3 -18 V
3 -17 V
2 -15 V
3 -13 V
3 -12 V
3 -11 V
3 -10 V
3 -9 V
3 -9 V
3 -7 V
3 -7 V
3 -6 V
3 -6 V
3 -5 V
3 -5 V
3 -4 V
3 -4 V
3 -4 V
2 -3 V
3 -4 V
3 -2 V
3 -3 V
3 -2 V
3 -2 V
3 -2 V
3 -2 V
3 -1 V
3 -1 V
3 -1 V
3 -1 V
3 -1 V
3 0 V
3 -1 V
2 0 V
3 0 V
3 0 V
3 1 V
3 0 V
3 1 V
3 1 V
3 1 V
3 1 V
3 2 V
3 2 V
3 2 V
3 2 V
3 3 V
3 3 V
3 3 V
2 4 V
3 4 V
3 5 V
3 5 V
3 5 V
3 7 V
3 7 V
3 7 V
3 9 V
3 9 V
3 11 V
3 11 V
3 13 V
3 15 V
3 16 V
2 18 V
3 21 V
3 23 V
3 26 V
3 29 V
3 33 V
3 37 V
3 41 V
3 46 V
3 50 V
3 56 V
3 60 V
3 63 V
3 64 V
3 64 V
3 58 V
2 49 V
3 36 V
3 19 V
3 0 V
3 -20 V
3 -36 V
3 -50 V
3 -59 V
3 -64 V
3 -65 V
3 -64 V
3 -60 V
3 -57 V
3 -51 V
3 -47 V
2 -42 V
3 -37 V
stroke 6427 985 M
3 -34 V
3 -29 V
3 -27 V
3 -24 V
3 -21 V
3 -19 V
3 -17 V
3 -16 V
3 -13 V
3 -13 V
3 -11 V
3 -11 V
3 -9 V
3 -8 V
2 -8 V
3 -7 V
3 -7 V
3 -6 V
3 -5 V
3 -6 V
3 -4 V
3 -5 V
3 -4 V
3 -4 V
3 -3 V
3 -4 V
3 -3 V
3 -3 V
3 -2 V
2 -3 V
3 -2 V
3 -3 V
3 -2 V
3 -2 V
3 -2 V
3 -1 V
3 -2 V
3 -2 V
3 -1 V
3 -2 V
3 -1 V
3 -2 V
3 -1 V
3 -1 V
3 -1 V
2 -1 V
3 -1 V
3 -1 V
3 -1 V
3 -1 V
3 -1 V
3 -1 V
3 -1 V
3 -1 V
3 0 V
3 -1 V
3 -1 V
3 0 V
3 -1 V
3 -1 V
2 0 V
3 -1 V
3 0 V
3 -1 V
3 0 V
3 -1 V
3 0 V
3 -1 V
3 0 V
3 -1 V
3 0 V
3 -1 V
3 0 V
3 -1 V
3 0 V
3 0 V
2 -1 V
3 0 V
3 0 V
3 -1 V
3 0 V
3 0 V
3 -1 V
3 0 V
3 0 V
3 -1 V
3 0 V
3 0 V
3 0 V
3 -1 V
3 0 V
2 0 V
3 0 V
3 -1 V
3 0 V
3 0 V
3 0 V
3 0 V
3 -1 V
3 0 V
3 0 V
3 0 V
3 0 V
3 -1 V
stroke 6733 606 M
3 0 V
3 0 V
3 0 V
2 0 V
3 -1 V
3 0 V
3 0 V
3 0 V
3 0 V
3 0 V
3 -1 V
3 0 V
3 0 V
3 0 V
3 0 V
3 0 V
3 0 V
3 -1 V
2 0 V
3 0 V
3 0 V
3 0 V
3 0 V
3 0 V
3 0 V
3 -1 V
3 0 V
3 0 V
3 0 V
3 0 V
3 0 V
3 0 V
3 0 V
3 0 V
2 -1 V
3 0 V
3 0 V
3 0 V
3 0 V
3 0 V
3 0 V
3 0 V
3 0 V
3 0 V
3 -1 V
3 0 V
3 0 V
3 0 V
3 0 V
2 0 V
3 0 V
3 0 V
3 0 V
3 0 V
3 0 V
3 0 V
3 0 V
3 -1 V
3 0 V
3 0 V
3 0 V
3 0 V
3 0 V
3 0 V
3 0 V
2 0 V
3 0 V
3 0 V
3 0 V
3 0 V
3 0 V
3 -1 V
3 0 V
% End plot #1
% Begin plot #2
stroke
LT1
4949 588 M
0 1762 V
5150 588 M
203 0 R
204 0 R
205 0 R
207 0 R
209 0 R
210 0 R
0 512 V
4853 588 M
201 0 R
0 1579 V
5257 588 M
204 0 R
205 0 R
207 0 R
209 0 R
0 635 V
6292 588 M
-1508 0 R
201 0 R
203 0 R
0 1382 V
5392 588 M
205 0 R
207 0 R
0 790 V
6013 588 M
210 0 R
-1475 0 R
201 0 R
202 0 R
204 0 R
0 1177 V
5561 588 M
0 974 V
5768 588 M
209 0 R
210 0 R
-3491 0 R
201 0 R
203 0 R
204 0 R
0 503 V
3509 588 M
0 613 V
3716 588 M
209 0 R
210 0 R
-1477 0 R
201 0 R
202 0 R
0 395 V
3265 588 M
206 0 R
207 0 R
0 709 V
3886 588 M
211 0 R
-1512 0 R
201 0 R
0 300 V
2988 588 M
204 0 R
206 0 R
207 0 R
208 0 R
0 781 V
4024 588 M
-1541 0 R
0 225 V
2684 588 M
202 0 R
204 0 R
206 0 R
207 0 R
209 0 R
210 0 R
0 826 V
% End plot #2
stroke
LTb
938 4619 N
938 588 L
6009 0 V
0 4031 V
-6009 0 V
Z stroke
1.000 UP
1.000 UL
LTb
stroke
grestore
end
showpage
%%Trailer
%%DocumentFonts: Helvetica
%%Pages: 1
