==============
mh_fit summary
==============

Input file
==========

File: /home/users/ksm92/calculations/f11/yso/site1pycf/eryso_site1.py

#!/usr/bin/env python

from __future__ import division
import numpy as np

import pycf.cfl as cfl
from pycf.import_sljm import ImportSLJM
from pycf.cfl_util import *
from pycf.spinh import SpinH
from numpy import linalg as LA

I = np.complex(0,1)
# Import the matrix elements.
t = ImportSLJM("../../er_trunc")
thfs = ImportSLJM("../../erhfs")


#t.print_names()

MTOT = t.M0 + 0.56*t.M2 + 0.31*t.M4
PTOT = t.P2 + 0.5*t.P4 + 0.1*t.P6

hfsMTOT = thfs.M0 + 0.56*thfs.M2 + 0.31*thfs.M4
hfsMTOT.name = 'MTOT'
hfsPTOT =  thfs.P2 + 0.5*thfs.P4 + 0.1*thfs.P6
hfsPTOT.name = 'PTOT'

# Z, X, and Y magnetic fields times Bohr magnetion in cm-1/T.
mu_b = 0.466860
MZ = mu_b * t.MAGZ
MX = mu_b * t.MAGX
MY = mu_b * t.MAGY
hfsMZ = mu_b * thfs.MAGZ
hfsMZ.name = 'MZ'
hfsMX = mu_b * thfs.MAGX
hfsMX.name = 'MX'
hfsMY = mu_b * thfs.MAGY
hfsMY.name = 'MY'

t_list = [t.EAVG, t.F2, t.F4, t.F6, t.ALPHA, t.BETA, t.GAMMA, t.T2, t.T3, t.T4,
        t.T6, t.T7, t.T8, t.ZETA, t.C20, t.C21, t.C22, t.C40, t.C41, t.C42,
        t.C43, t.C44, t.C60, t.C61, t.C62, t.C63, t.C64, t.C65, t.C66, MTOT, PTOT, MX, MY, MZ]

thfs_list = [thfs.EAVG, thfs.F2, thfs.F4, thfs.F6, thfs.ALPHA, thfs.BETA,
        thfs.GAMMA, thfs.T2, thfs.T3, thfs.T4, thfs.T6, thfs.T7, thfs.T8,
        thfs.ZETA, thfs.C20, thfs.C21, thfs.C22, thfs.C40, thfs.C41, thfs.C42,
        thfs.C43, thfs.C44, thfs.C60, thfs.C61, thfs.C62, thfs.C63, thfs.C64,
        thfs.C65, thfs.C66, hfsMTOT, hfsPTOT, thfs.HYP, thfs.EQHYP, hfsMX, hfsMY, hfsMZ]

coeff = {
'EAVG' :                 35503.5,
'F2'   :                 95346,
'F4'   :                 68525,
'F6'   :                 52804,
'ALPHA':                    17.79,
'BETA' :                  -582.1,
'GAMMA':                  1800.0,
'T2'   :                   400.0000,
'T3'   :                    43.0000,    
'T4'   :                    73.0000,    
'T6'   :                  -271.0000,    
'T7'   :                   308.0000,    
'T8'   :                   299.0000,    
'ZETA' :                  2358.0000,
'MTOT' :                     3.8600,    
'PTOT' :                   594.0000,
#
'MZ'   :                       0.00,
'MX'   :                       0.00,
'MY'   :                       0.00,
'C20'        :            -563.0,
'C21'        :       558.0+280.0j,
'C22'        :       143.0-121.0j,
'C40'        :             -125.0,
'C41'        :      225.0-831.0j,
'C42'        :      -48.0-945.0j,
'C43'        :     -615.0-688.0j,
'C44'        :     744.0-102.0j,
'C60'        :             -28.0,
'C61'        :       49.0+199.0j,
'C62'        :     120.0-107.0j,
'C63'        :     195.0-55.0j,
'C64'        :      -287.0-161.0j,
'C65'        :       -117.0+162.0j,
'C66'        :       -136.0+186.0j,
'HYP'        :              0.0059,
'EQHYP'      :               0.08,

}


def gen_b_spiral(B0, n):
    t = np.linspace(-1,1,n)
    B = np.array([[B0*np.sqrt(1-t**2)*np.cos(6*np.pi*t)], [B0*np.sqrt(1-t**2)*np.sin(6*np.pi*t)], [B0*t]]).reshape(3,n)

    return B.transpose()



# Number of cores: Ivy Bridge - 24, Sandy bridge - 16
# Run SB for now, so:
#   + 1 for full 4f
#   + 7 for RH data
#   + 12 for ground hfs
#   + 12 for excited b spiral


# Set weighting factors
e_w = 3e-3               # Electronic levels
rh_w = 1e8              # 80 MHz RH data 
g_hfs_w = 1e5          # Ground state g, hfs
hfs_w = 6e6            # Ground state zero-field hfs
ge_w = 50e5             # Excited state g

# B spiral for ground and excited state
n = 12      # Number of field data points to be used
B0 = 0.05   # Max field strength in Tesla
B_list = gen_b_spiral(B0,n)

## Stephen's parameters; includes superconducting cavity zero-field data
#gg = np.array([[2.8976, -2.9451, -3.5568], [-2.9451, 8.9003, 5.5683], [-3.5568, 5.5683, 5.1208]])
#Ag = np.array([[274.2878, -202.5226, -350.8188], [-202.5226, 827.5043, 635.1453], [-350.8188, 635.1453, 706.1526]])
#Qg = np.array([[10.3950, -9.1166, -9.9576], [-9.1166, -5.9530, -14.3238], [-9.9576, -14.3238, -4.4420]])

# Stephen's new parmas that fit to RH data
#Ag = np.array([[ 291.8390,-232.0352,-302.3498], 
#[-232.0352, 706.0735, 727.7255],
#[-302.3498, 727.7255, 700.3551]])

#Qg = np.array([[   8.8453,  -9.5384, -13.7641],
#[  -9.5384,  -5.9900, -15.1250],
#[ -13.7641, -15.1250,  -2.8553]])

#gg = np.array([[   2.9132,  -2.9849,  -3.5967],
#[  -2.9849,   8.8626,   5.5350],
#[  -3.5967,   5.5350,   5.7167]])

# Sun et al. excited state g
#ge = np.array([[1.950, -2.212, -3.584], [-2.212, 4.232, 4.986], [-3.584, 4.986, 7.888]])

# Zero field Hamiltonian and energies.
h = cfl.Hamiltonian(t_list)
h.set_coeff(coeff)
h_list = [h]
ex = np.loadtxt('eryso_site1_energy.txt', skiprows=1)
exdata_list = [cfl.ExData(ex)]
weights_list = [e_w]

# Zero-Field Hyperfine data - difference from first level
exzfs = np.array([ 
# ground state
                   [1, 3, 34.5],
                   [1, 5, 80.7],
# excited state 
                   [295, 297, 40.0],
                   [295, 299, 50.0]
                 ])
print(exzfs)
# MHz to cm-1
exzfs[:,2] *= 1/29.9702547e3
print(exzfs) 
exdata_list += [cfl.ExData(exzfs, 'D')]
h = cfl.Hamiltonian(thfs_list)
#coeff['MX'] = B[0]
#coeff['MY'] = B[1]
#coeff['MZ'] = B[2]
h.set_coeff(coeff)
h_list += [h]
weights_list += [g_hfs_w]

# Raman-heterodyne data. 

# Low freq (80 MHz) RH data, ac line - need  unique field values because of
# sample orientation. 

# Generate field values in mT (0, then 0.5 in each x, y, and z magnet
# coordinates)
#lf_bvals = [np.zeros(3)]
#v = 0.5
#for i in range(3):
#    B = np.zeros(3)
#    B[i] = v 
#    lf_bvals += [np.copy(B)]

# Curvature tensor and offset (MHz and MHz/mT^2)
#f0 = 85.096939
#M = np.array([[15.7, 30.1, -40. ], [ 30.1,  67.6, -82.5], [-40., -82.5, 104.3]])

#for B in lf_bvals:
#    fcalc = f0 + np.transpose(B).dot(M).dot(B)
#    fcalc = fcalc/29.9702547e3  # Convert from MHz to cm-1
#    exdata_list += [cfl.ExData(np.array([[137, 138, fcalc]]), 'D')]
#    
#    B = B*1e-3   # Convert to T
#    h = cfl.Hamiltonian(thfs_list)
#    coeff['MX'] = B[0]
#    coeff['MY'] = B[1]
#    coeff['MZ'] = B[2]
#    h.set_coeff(coeff)
#    h_list += [h]
#    weights_list += [rh_w]

# High freq. (800 MHz) RH data (in polynomial form). Sweeps of xcoil,
# corresponds to MY in cryst coords (MHz & mT). 

#rh_ls = ['n', 'i', 't', 'l', 'p', 'ab', 'a', 'm', 'h', 'e', 'd', 'f', 'g']

#hf_pd = {'a': np.array([ -66.15555132,    6.39162656,  930.61283071]),
#        'ab': np.array([ -69.04862725,    5.41291306,  952.53418828]),
#        'e': np.array([ -7.37903518e-01,  -7.54025848e-02,   8.79316067e+02]),
#        'd': np.array([  7.24218971e-01,   4.02538296e-02,   8.79375239e+02]),
#        'g': np.array([ -2.40721395e+00,  -1.07639045e-01,   8.80549189e+02]),
#        'f': np.array([  1.79185958e+00,   1.30468394e-01,   8.79264214e+02]),
#        'i': np.array([  -16.77488309,    -1.95603484,  1010.3429402 ]),
#        'h': np.array([ -1.19913355e+00,  -1.91767706e-01,   8.23918680e+02]),
#        'k': np.array([ -45.15444527,   -2.78151756,  818.58787975]),
#        'j': np.array([  2.18620204e+01,   4.77922935e-01,   8.25555479e+02]),
#        'm': np.array([  1.78788342e+00,   1.45801605e-01,   7.74219752e+02]),
#        'l': np.array([  19.61210058,    2.27686832,  752.61764749]),
#        'n': np.array([   34.30221452,     5.33369394,  1096.58093532]),
#        'p': np.array([   28.76980869,     2.75856858,  1167.87303762]),
#        'b': np.array([  1.13813883e-01,   8.96736961e+02]),
#        'c': np.array([  1.13813883e-01,   8.96736961e+02]),
#        't': np.array([ -33.78216636,   -3.17673515,  667.08738712]),
#        'w': np.array([  -2.45056251,   -0.75119208,  726.13596956]),
#        'v': np.array([-303.52686482,   14.53612923,  612.24778816]),
#        'x': np.array([  54.99637342,    3.57944151,  717.38335428]),
#        'z': np.array([ -55.69957211,    4.80461517,  802.89630244])}

# Lets try some radical new assignments, just for the shits of it. Note: the
# good fit from early days had "n i p a ab". No v!
#hf_li = {
#        # First set of 4 are solid; linked to 85 MHz ac line via 136
#        'n': [135, 138],
#        'i': [135, 137],
#        't': [136, 137],
#        'l': [136, 138],
#        'f': [131, 133], # only valid at 0.5 mT
#        'g': [132, 134], # only valid at 0.5 mT
#        # Next 3 seem solid (in particular, 'ab' & 'a'
#        'p': [7, 10],
#        'ab':[6, 8],
#        'a': [9, 11],
#        # Maybe not actually correct? Could be line below that one with identical shape
#        #'v': [6, 7],
#        # It seems like 'm' and 'h' are solid
#        'm': [7, 9],
#        'h': [8, 10],
#        # Almost have to be correct, no other gs lines around... 
#        'e': [1, 3], # only valid at 0.5 mT
#        'd': [2, 4], # only valid at 0.5 mT
#        # Unclear for now... 137-139 might be at kite level
#        #'z': [137, 139], # only valid at 0 mT
#        #'x': [138, 140], # only valid at 0 mT
#        # Re-assigned to 131-133 and 132-134
#        #'b': [130, 132], # only valid at 0 mT
#        #'c': [129, 131], # only valid at 0 mT
#        }

#hf_bvals = np.zeros([3,3])
#hf_bvals[1,1] = 0.5
#hf_bvals[2,1] = 0.3

#for ii,B in enumerate(hf_bvals):
#    rh_ex = []
#    for i,k in enumerate(rh_ls):
#        if (k in ['z', 'x', 'b', 'c', 'v']) & (ii != 0):
#            continue
#        elif (k in ['f', 'g', 'e', 'd']) & (ii != 1):
#            continue
#        else:
#            p = np.poly1d(hf_pd[k])
#            fcalc = p(B[1])/29.9702547e3  # Convert from MHz to cm-1
#            rh_ex += [hf_li[k]+[fcalc]]
#
#    exdata_list += [cfl.ExData(np.array(rh_ex), 'D')]
#    
#    B = B*1e-3   # Convert to T
#    h = cfl.Hamiltonian(thfs_list)
#    coeff['MX'] = B[0]
#    coeff['MY'] = B[1]
#    coeff['MZ'] = B[2]
#    h.set_coeff(coeff)
#    h_list += [h]
#    weights_list += [rh_w]


# Ground state hfs & g from SH
#for B in B_list:
#    sh = SpinH(['bgs', 'ias', 'iqi', 'bi'], B = B, S = 1/2, I = 7/2)
#    sh.add_term('bgs', gg)
#    sh.add_term('ias', Ag)
#    sh.add_term('iqi', Qg)
#    sh.add_term('bi', 0.1618)
#
#    w, v = LA.eig(sh.get_H())
#    E = w.real
#    E = np.sort(E - min(E))

#    E = E/29.9702547e3
#    # Ground state energy differences, w.r.t. first level.
#    exdata_list += [cfl.ExData(np.array([[1,i+2, e] for i,e in enumerate(E[1:])]), 'D')]
#    h = cfl.Hamiltonian(thfs_list)
#    coeff['MX'] = B[0]
#    coeff['MY'] = B[1]
#    coeff['MZ'] = B[2]
#    h.set_coeff(coeff)
#    h_list += [h]
#    weights_list += [g_hfs_w]

## Excited state g - Sun. 
#for B in B_list:
#    sh = SpinH(['bgs'], B = B, S = 1/2)
#    sh.add_term('bgs', ge)
#
#    w, v = LA.eig(sh.get_H())
#    E = w.real
#    E = np.sort(E - min(E))
#    E = E/29.9702547e3

#    # Excited state energy differences. First 4I13/2 level is 17 (1 based
#    # indexing, no hyperfine).
#    exdata_list += [cfl.ExData(np.array([[17, 18, E[1]]]), 'D')]
#
#    h = cfl.Hamiltonian(t_list)
#    coeff['MX'] = B[0]
#    coeff['MY'] = B[1]
#    coeff['MZ'] = B[2]
#    h.set_coeff(coeff)
#    h_list += [h]
#    weights_list += [ge_w]


# Optimization bounds and stepsize for the basinhopping algorithm.
bounds = bal_bounds(coeff, {
    'EAVG' :  100,
    'F2'   :  200,
    'F4'   :  200,
    'F6'   :  200,
    'ZETA' :  5,
    'C20'  :  250,
    'C21'  :  250 + 250*I,
    'C22'  :  250 + 250*I,
    'C40'  :  300,
    'C41'  :  250 + 250*I,
    'C42'  :  250 + 250*I,
    'C43'  :  250 + 250*I,
    'C44'  :  300 + 300*I,
    'C60'  :  250,
    'C61'  :  200 + 200*I,
    'C62'  :  200 + 200*I,
    'C63'  :  200 + 200*I,
    'C64'  :  200 + 200*I,
    'C65'  :  200 + 200*I,
    'C66'  :  200 + 200*I,
    'HYP'  :  0.0005,
    'EQHYP':  0.01,
    'ALPHA':  20,   
    'BETA' :  20,
    'GAMMA':  200,
    'T2'   :  20,
    'T3'   :  20,
    'T4'   :  20,
    'T6'   :  20,
    'T7'   :  20,
    'T8'   :  20,
    'MTOT' :  10,
    'PTOT' : 300,
    })


stepsize = {
    'EAVG' :  50,
    'F2'   :  50,
    'F4'   :  50,
    'F6'   :  50,
    'ZETA' :  0.1,
    'C20'  :  20,
    'C21'  :  20 + 20*I,
    'C22'  :  20 + 20*I,
    'C40'  :  20,
    'C41'  :  20 + 20*I,
    'C42'  :  20 + 20*I,
    'C43'  :  20 + 20*I,
    'C44'  :  20 + 20*I,
    'C60'  :  20,
    'C61'  :  20 + 20*I,
    'C62'  :  20 + 20*I,
    'C63'  :  20 + 20*I,
    'C64'  :  20 + 20*I,
    'C65'  :  20 + 20*I,
    'C66'  :  20 + 20*I,
    'HYP'  :  0.0005,
    'EQHYP':  0.005,
    }


param = ['EAVG']

#param = ['EAVG', 'ZETA','F2', 'F4', 'F6', 'C20', 'C21', 'C22', 'C40', 'C41', 'C42',
#	'C43', 'C44', 'C60', 'C61', 'C62', 'C63', 'C64', 'C65', 'C66', 'HYP','EQHYP'] 
#cfl_min = cfl.CFLMin('nlopt_bobyqa', xtol=1e-5, bounds=bounds, cov=False, dry_run=False, maxtime=518400)

cfl_min = cfl.CFLMin('basinhopping', niter=1, lmin='nlopt_bobyqa', xtol=1e-2,
   bounds=bounds, stepsize=stepsize, step_adapt_int=25, dry_run=False)


res = cfl.mh_fit(param, h_list, weights_list, exdata_list, cfl_min)

#print("Number of Hamiltonians: {}".format(len(h_list)))
#print(res['summary'])

coeff.update(res['coeff'])

#with open("eryso_site1_fitted_parameters.pkl", "w") as parameters_file:
#    pickle.dump(coeff,parameters_file)

with open("eryso_site1_fitting_summary.txt", "w") as summary_file:
    summary_file.write(res['summary'])

#with open("eig_summary.pkl", "w") as eig_file:
#    pickle.dump({'eigenvalue' : res['eigenvalue'], 'eigenvector' : res['eigenvector']},eig_file)




pycf details
============

pycf revision: ed06434
Calculation started at: 2020-08-04 16:41:11
Calculation completed at: 2020-08-04 16:41:53

Energy level summary
====================

Lev.  Percentage                 State        Percentage                 State               Theory 
----  ----------                 -----        ----------                 -----               ------ 
1     (-0.06+0.43j)  11.4%   103 |0,4I15,  3> ( 0.19-0.35j)  10.5%    44 |0,4I15,  7>       -0.0000
2     ( 0.13-0.41j)  11.4%   224 |0,4I15, -3> ( 0.02+0.40j)  10.5%   296 |0,4I15, -7>       -0.0000
3     (-0.54-0.03j)  15.2%     2 |0,4I15, 15> (-0.06-0.47j)  13.3%    13 |0,4I15, 11>       29.6216
4     (-0.48-0.25j)  15.2%   360 |0,4I15,-15> (-0.29+0.38j)  13.3%   341 |0,4I15,-11>       29.6216
5     ( 0.02-0.44j)  11.2%     6 |0,4I15, 13> ( 0.40+0.05j)  10.4%    25 |0,4I15,  9>       87.4696
6     ( 0.02+0.44j)  11.2%   353 |0,4I15,-13> ( 0.40-0.05j)  10.4%   322 |0,4I15, -9>       87.4696
7     ( 0.43-0.02j)  11.3%    44 |0,4I15,  7> (-0.39-0.14j)  11.0%   183 |0,4I15, -1>      105.4923
8     (-0.35-0.26j)  11.3%   296 |0,4I15, -7> ( 0.41+0.10j)  11.0%   142 |0,4I15,  1>      105.4923
9     ( 0.43-0.12j)  12.0%   341 |0,4I15,-11> (-0.39-0.20j)  11.8%   322 |0,4I15, -9>      189.1044
10    ( 0.37-0.25j)  12.0%    13 |0,4I15, 11> ( 0.10-0.43j)  11.8%    25 |0,4I15,  9>      189.1044
11    (-0.04-0.60j)  17.3%   142 |0,4I15,  1> ( 0.09-0.33j)   9.7%   296 |0,4I15, -7>      393.4635
12    ( 0.50-0.33j)  17.3%   183 |0,4I15, -1> ( 0.21-0.27j)   9.7%    44 |0,4I15,  7>      393.4635
13    (-0.34-0.37j)  15.3%    13 |0,4I15, 11> ( 0.05+0.48j)  14.6%     6 |0,4I15, 13>      470.7960
14    (-0.42+0.28j)  15.3%   341 |0,4I15,-11> (-0.16+0.46j)  14.6%   353 |0,4I15,-13>      470.7960
15    ( 0.40-0.29j)  13.4%    70 |0,4I15,  5> ( 0.46-0.16j)  13.4%   224 |0,4I15, -3>      509.2589
16    (-0.19-0.45j)  13.4%   263 |0,4I15, -5> (-0.31-0.38j)  13.4%   103 |0,4I15,  3>      509.2589
17    ( 0.48+0.06j)  15.4%    26 |0,4I13,  9> ( 0.28-0.35j)  14.4%    14 |0,4I13, 11>     6510.5690
18    (-0.38+0.29j)  15.4%   323 |0,4I13, -9> ( 0.42+0.16j)  14.4%   342 |0,4I13,-11>     6510.5690
19    ( 0.17-0.64j)  19.1%     7 |0,4I13, 13> ( 0.15-0.31j)   9.9%    71 |0,4I13,  5>     6561.5462
20    (-0.57-0.35j)  19.1%   354 |0,4I13,-13> (-0.32-0.12j)   9.9%   264 |0,4I13, -5>     6561.5462
21    (-0.48-0.16j)  13.7%    14 |0,4I13, 11> ( 0.38-0.28j)  12.8%   143 |0,4I13,  1>     6599.6905
22    (-0.28+0.42j)  13.7%   342 |0,4I13,-11> (-0.47+0.01j)  12.8%   184 |0,4I13, -1>     6599.6905
23    ( 0.40-0.05j)  10.6%    14 |0,4I13, 11> ( 0.01-0.40j)  10.4%    26 |0,4I13,  9>     6637.5017
24    (-0.21+0.35j)  10.6%   342 |0,4I13,-11> ( 0.37+0.16j)  10.4%   323 |0,4I13, -9>     6637.5017
25    (-0.46-0.05j)  12.3%   225 |0,4I13, -3> ( 0.39-0.19j)  11.6%   184 |0,4I13, -1>     6787.4715
26    (-0.34+0.32j)  12.3%   104 |0,4I13,  3> (-0.42+0.09j)  11.6%   143 |0,4I13,  1>     6787.4715
27    ( 0.52-0.01j)  15.4%    45 |0,4I13,  7> ( 0.07+0.47j)  14.2%    14 |0,4I13, 11>     6850.3548
28    (-0.42+0.30j)  15.4%   297 |0,4I13, -7> ( 0.23+0.42j)  14.2%   342 |0,4I13,-11>     6850.3548
29    (-0.24+0.47j)  15.0%   104 |0,4I13,  3> (-0.18-0.39j)  12.3%    71 |0,4I13,  5>     6873.5798
30    ( 0.16-0.51j)  15.0%   225 |0,4I13, -3> ( 0.41-0.15j)  12.3%   264 |0,4I13, -5>     6873.5798
31    ( 0.25+0.51j)  19.0%    15 |0,4I11, 11> ( 0.06+0.52j)  17.7%    27 |0,4I11,  9>    10176.4857
32    (-0.52+0.20j)  19.0%   343 |0,4I11,-11> ( 0.40-0.34j)  17.7%   324 |0,4I11, -9>    10176.4857
33    (-0.40+0.50j)  19.2%   343 |0,4I11,-11> ( 0.39+0.19j)  12.9%   265 |0,4I11, -5>    10225.5427
34    ( 0.58+0.28j)  19.2%    15 |0,4I11, 11> ( 0.27-0.34j)  12.9%    72 |0,4I11,  5>    10225.5427
35    ( 0.36-0.24j)  11.4%    27 |0,4I11,  9> (-0.10-0.35j)   9.5%   105 |0,4I11,  3>    10256.9865
36    ( 0.34+0.28j)  11.4%   324 |0,4I11, -9> ( 0.14-0.34j)   9.5%   226 |0,4I11, -3>    10256.9865
37    (-0.01-0.55j)  14.3%   144 |0,4I11,  1> ( 0.25-0.29j)   9.9%   226 |0,4I11, -3>    10336.0241
38    (-0.52+0.18j)  14.3%   185 |0,4I11, -1> (-0.19+0.33j)   9.9%   105 |0,4I11,  3>    10336.0241
39    (-0.35-0.48j)  16.5%    46 |0,4I11,  7> (-0.37-0.05j)  10.2%   185 |0,4I11, -1>    10378.5806
40    (-0.50-0.32j)  16.5%   298 |0,4I11, -7> (-0.08-0.36j)  10.2%   144 |0,4I11,  1>    10378.5806
41    (-0.31+0.46j)  15.6%   105 |0,4I11,  3> ( 0.04-0.49j)  13.8%    72 |0,4I11,  5>    10388.3826
42    (-0.23+0.50j)  15.6%   226 |0,4I11, -3> (-0.40+0.28j)  13.8%   265 |0,4I11, -5>    10388.3826
43    ( 0.05+0.52j)  14.8%   227 |0,4I 9, -3> (-0.12-0.45j)  13.2%    73 |0,4I 9,  5>    12344.6872
44    ( 0.25+0.46j)  14.8%   106 |0,4I 9,  3> (-0.15-0.44j)  13.2%   266 |0,4I 9, -5>    12344.6872
45    ( 0.10+0.56j)  17.1%    28 |0,4I 9,  9> ( 0.08+0.44j)  13.5%    47 |0,4I 9,  7>    12447.7682
46    (-0.57+0.05j)  17.1%   325 |0,4I 9, -9> ( 0.45-0.04j)  13.5%   299 |0,4I 9, -7>    12447.7682
47    (-0.09-0.50j)  14.5%   106 |0,4I 9,  3> ( 0.32-0.28j)  12.0%   186 |0,4I 9, -1>    12531.8869
48    (-0.47+0.18j)  14.5%   227 |0,4I 9, -3> (-0.07+0.41j)  12.0%   145 |0,4I 9,  1>    12531.8869
49    (-0.34-0.47j)  16.7%    28 |0,4I 9,  9> ( 0.48+0.14j)  14.5%    47 |0,4I 9,  7>    12611.3343
50    (-0.58+0.05j)  16.7%   325 |0,4I 9, -9> (-0.42-0.27j)  14.5%   299 |0,4I 9, -7>    12611.3343
51    (-0.55+0.15j)  16.9%    73 |0,4I 9,  5> (-0.40+0.30j)  14.8%   186 |0,4I 9, -1>    12665.7135
52    (-0.24-0.52j)  16.9%   266 |0,4I 9, -5> ( 0.03+0.50j)  14.8%   145 |0,4I 9,  1>    12665.7135
53    ( 0.47-0.19j)  13.8%   107 |0,4F 9,  3> ( 0.32-0.25j)  10.9%    48 |0,4F 9,  7>    15175.6430
54    (-0.51+0.01j)  13.8%   228 |0,4F 9, -3> (-0.39-0.10j)  10.9%   300 |0,4F 9, -7>    15175.6430
55    (-0.08-0.54j)  15.1%   146 |0,4F 9,  1> ( 0.39+0.04j)  10.7%   267 |0,4F 9, -5>    15219.4221
56    ( 0.55-0.02j)  15.1%   187 |0,4F 9, -1> ( 0.11+0.37j)  10.7%    74 |0,4F 9,  5>    15219.4221
57    ( 0.43+0.13j)  12.2%   107 |0,4F 9,  3> ( 0.38+0.22j)  11.8%   228 |0,4F 9, -3>    15349.5871
58    ( 0.38+0.25j)  12.2%   228 |0,4F 9, -3> (-0.41-0.15j)  11.8%   107 |0,4F 9,  3>    15349.5871
59    (-0.13+0.65j)  18.7%   267 |0,4F 9, -5> ( 0.28-0.25j)  10.7%   326 |0,4F 9, -9>    15387.2758
60    (-0.49-0.44j)  18.7%    74 |0,4F 9,  5> ( 0.38+0.03j)  10.7%    29 |0,4F 9,  9>    15387.2758
61    ( 0.55-0.37j)  21.9%    29 |0,4F 9,  9> ( 0.53+0.25j)  19.1%    48 |0,4F 9,  7>    15482.6293
62    ( 0.62-0.25j)  21.9%   326 |0,4F 9, -9> (-0.09+0.58j)  19.1%   300 |0,4F 9, -7>    15482.6293
63    (-0.21+0.81j)  27.5%   147 |0,4S 3,  1> (-0.09-0.39j)  13.1%   108 |0,4S 3,  3>    18255.9821
64    ( 0.82+0.17j)  27.5%   188 |0,4S 3, -1> ( 0.31+0.25j)  13.1%   229 |0,4S 3, -3>    18255.9821
65    ( 0.51+0.67j)  27.6%   108 |0,4S 3,  3> ( 0.05+0.42j)  14.0%   147 |0,4S 3,  1>    18367.6424
66    (-0.68-0.50j)  27.6%   229 |0,4S 3, -3> ( 0.42+0.04j)  14.0%   188 |0,4S 3, -1>    18367.6424
67    (-0.17+0.51j)  13.1%    16 |2,2H11, 11> (-0.43+0.13j)  10.8%    30 |2,2H11,  9>    19100.2137
68    (-0.54+0.01j)  13.1%   344 |2,2H11,-11> ( 0.25-0.37j)  10.8%   327 |2,2H11, -9>    19100.2137
69    (-0.30-0.31j)   9.5%   268 |2,2H11, -5> ( 0.29+0.22j)   8.2%   148 |2,2H11,  1>    19119.1790
70    ( 0.40-0.14j)   9.5%    75 |2,2H11,  5> ( 0.36-0.07j)   8.2%   189 |2,2H11, -1>    19119.1790
71    (-0.09+0.40j)   9.5%   109 |2,2H11,  3> ( 0.32-0.22j)   8.8%   301 |2,2H11, -7>    19153.7945
72    ( 0.37-0.19j)   9.5%   230 |2,2H11, -3> ( 0.13-0.36j)   8.8%    49 |2,2H11,  7>    19153.7945
73    (-0.38+0.33j)  12.0%   268 |2,2H11, -5> (-0.19+0.40j)  10.5%   148 |2,2H11,  1>    19220.6815
74    ( 0.46-0.21j)  12.0%    75 |2,2H11,  5> (-0.44-0.00j)  10.5%   189 |2,2H11, -1>    19220.6815
75    (-0.37-0.19j)   9.5%   189 |2,2H11, -1> ( 0.36+0.02j)   8.1%    49 |2,2H11,  7>    19252.6078
76    (-0.42-0.02j)   9.5%   148 |2,2H11,  1> ( 0.32+0.16j)   8.1%   301 |2,2H11, -7>    19252.6078
77    ( 0.49-0.14j)  12.3%   109 |2,2H11,  3> (-0.45+0.08j)  11.0%    16 |2,2H11, 11>    19270.9502
78    ( 0.34-0.38j)  12.3%   230 |2,2H11, -3> (-0.27+0.37j)  11.0%   344 |2,2H11,-11>    19270.9502
79    (-0.05-0.49j)  13.7%   190 |0,4F 7, -1> (-0.19-0.42j)  12.9%   269 |0,4F 7, -5>    20379.1924
80    ( 0.40+0.29j)  13.7%   149 |0,4F 7,  1> ( 0.27+0.38j)  12.9%    76 |0,4F 7,  5>    20379.1924
81    (-0.50-0.10j)  13.3%   190 |0,4F 7, -1> ( 0.40+0.17j)  11.5%   149 |0,4F 7,  1>    20443.4143
82    (-0.45-0.24j)  13.3%   149 |0,4F 7,  1> (-0.42-0.12j)  11.5%   190 |0,4F 7, -1>    20443.4143
83    ( 0.08+0.55j)  14.9%    50 |0,4F 7,  7> ( 0.43-0.21j)  13.0%   110 |0,4F 7,  3>    20523.8644
84    (-0.55-0.07j)  14.9%   302 |0,4F 7, -7> ( 0.20-0.44j)  13.0%   231 |0,4F 7, -3>    20523.8644
85    (-0.58+0.42j)  23.0%    50 |0,4F 7,  7> (-0.55+0.11j)  18.1%    76 |0,4F 7,  5>    20631.2270
86    ( 0.72+0.01j)  23.0%   302 |0,4F 7, -7> (-0.52+0.22j)  18.1%   269 |0,4F 7, -5>    20631.2270
87    (-0.30-0.46j)  14.3%   191 |0,4F 5, -1> ( 0.18+0.38j)  10.9%   150 |0,4F 5,  1>    22052.2848
88    ( 0.05-0.55j)  14.3%   150 |0,4F 5,  1> (-0.02-0.42j)  10.9%   191 |0,4F 5, -1>    22052.2848
89    ( 0.52-0.04j)  14.2%   111 |0,4F 5,  3> ( 0.35+0.34j)  13.3%   270 |0,4F 5, -5>    22077.8097
90    (-0.39-0.35j)  14.2%   232 |0,4F 5, -3> (-0.48+0.06j)  13.3%    77 |0,4F 5,  5>    22077.8097
91    (-0.12-0.70j)  20.9%    77 |0,4F 5,  5> ( 0.00-0.42j)  12.5%   111 |0,4F 5,  3>    22166.1037
92    (-0.47-0.53j)  20.9%   270 |0,4F 5, -5> ( 0.33+0.26j)  12.5%   232 |0,4F 5, -3>    22166.1037
93    ( 0.83-0.16j)  28.0%   192 |0,4F 3, -1> ( 0.41+0.11j)  14.0%   233 |0,4F 3, -3>    22422.0047
94    ( 0.04-0.84j)  28.0%   151 |0,4F 3,  1> ( 0.17+0.39j)  14.0%   112 |0,4F 3,  3>    22422.0047
95    (-0.39-0.50j)  18.8%   112 |0,4F 3,  3> (-0.44+0.38j)  17.3%   233 |0,4F 3, -3>    22590.2208
96    ( 0.56-0.29j)  18.8%   233 |0,4F 3, -3> (-0.24-0.52j)  17.3%   112 |0,4F 3,  3>    22590.2208
97    (-0.27-0.42j)  12.2%   113 |0,4F 9,  3> ( 0.14+0.44j)  11.5%   271 |0,4F 9, -5>    24422.1156
98    ( 0.01-0.50j)  12.2%   234 |0,4F 9, -3> ( 0.11+0.45j)  11.5%    78 |0,4F 9,  5>    24422.1156
99    ( 0.44+0.10j)  10.9%   193 |0,4F 9, -1> (-0.39+0.07j)   9.5%   271 |0,4F 9, -5>    24548.8959
100   ( 0.39+0.23j)  10.9%   152 |0,4F 9,  1> (-0.23-0.32j)   9.5%    78 |0,4F 9,  5>    24548.8959
101   (-0.54+0.29j)  15.4%   113 |0,4F 9,  3> (-0.53+0.00j)  13.4%   303 |0,4F 9, -7>    24602.2393
102   (-0.56+0.23j)  15.4%   234 |0,4F 9, -3> ( 0.34-0.41j)  13.4%    51 |0,4F 9,  7>    24602.2393
103   ( 0.48-0.30j)  13.9%    31 |0,4F 9,  9> (-0.19-0.35j)   9.7%   303 |0,4F 9, -7>    24662.6895
104   ( 0.56-0.12j)  13.9%   328 |0,4F 9, -9> ( 0.10+0.38j)   9.7%    51 |0,4F 9,  7>    24662.6895
105   (-0.07-0.44j)  10.7%   271 |0,4F 9, -5> (-0.19-0.39j)  10.4%   113 |0,4F 9,  3>    24706.5655
106   ( 0.06-0.44j)  10.7%    78 |0,4F 9,  5> ( 0.18-0.40j)  10.4%   234 |0,4F 9, -3>    24706.5655
107   (-0.46-0.27j)  11.9%    32 |0,4G11,  9> (-0.04+0.38j)   8.5%    17 |0,4G11, 11>    26224.2393
108   (-0.18+0.50j)  11.9%   329 |0,4G11, -9> ( 0.27+0.26j)   8.5%   345 |0,4G11,-11>    26224.2393
109   ( 0.28-0.45j)  11.8%    79 |0,4G11,  5> ( 0.41+0.01j)   9.1%   194 |0,4G11, -1>    26235.8161
110   ( 0.25+0.47j)  11.8%   272 |0,4G11, -5> (-0.41-0.02j)   9.1%   153 |0,4G11,  1>    26235.8161
111   (-0.37+0.25j)   9.5%    17 |0,4G11, 11> ( 0.41+0.03j)   8.7%   304 |0,4G11, -7>    26312.1719
112   (-0.39+0.21j)   9.5%   345 |0,4G11,-11> (-0.16+0.38j)   8.7%    52 |0,4G11,  7>    26312.1719
113   (-0.52+0.03j)  10.7%   153 |0,4G11,  1> (-0.45-0.02j)   9.4%   272 |0,4G11, -5>    26453.1825
114   (-0.50+0.13j)  10.7%   194 |0,4G11, -1> ( 0.42-0.16j)   9.4%    79 |0,4G11,  5>    26453.1825
115   (-0.46+0.15j)   9.9%    17 |0,4G11, 11> ( 0.00-0.42j)   8.5%    52 |0,4G11,  7>    26491.0820
116   (-0.13+0.47j)   9.9%   345 |0,4G11,-11> ( 0.42-0.03j)   8.5%   304 |0,4G11, -7>    26491.0820
117   (-0.41+0.35j)  11.8%   235 |0,4G11, -3> (-0.41-0.08j)   9.0%   329 |0,4G11, -9>    26538.7163
118   ( 0.04+0.54j)  11.8%   114 |0,4G11,  3> (-0.35-0.23j)   9.0%    32 |0,4G11,  9>    26538.7163
119   ( 0.24+0.41j)  11.5%    18 |0,2K15, 11> ( 0.43+0.07j)  10.6%     8 |0,2K15, 13>    27161.7617
120   ( 0.47+0.05j)  11.5%   346 |0,2K15,-11> (-0.25-0.37j)  10.6%   355 |0,2K15,-13>    27161.7617
121   (-0.38-0.21j)   9.3%    53 |0,4G 9,  7> (-0.27+0.33j)   9.1%   115 |0,4G 9,  3>    27271.7992
122   (-0.35-0.26j)   9.3%   305 |0,4G 9, -7> ( 0.19-0.39j)   9.1%   236 |0,4G 9, -3>    27271.7992
123   (-0.46-0.45j)  13.7%   330 |0,4G 9, -9> ( 0.18-0.38j)   9.0%   273 |0,4G 9, -5>    27288.3261
124   (-0.08+0.64j)  13.7%    33 |0,4G 9,  9> ( 0.38+0.18j)   9.0%    80 |0,4G 9,  5>    27288.3261
125   (-0.24+0.41j)   9.6%    33 |0,4G 9,  9> (-0.28+0.31j)   8.5%   195 |0,4G 9, -1>    27355.2291
126   (-0.22-0.41j)   9.6%   330 |0,4G 9, -9> ( 0.27+0.32j)   8.5%   154 |0,4G 9,  1>    27355.2291
127   (-0.53-0.10j)  10.7%    80 |0,4G 9,  5> ( 0.11-0.42j)   8.7%   195 |0,4G 9, -1>    27372.7407
128   (-0.20+0.50j)  10.7%   273 |0,4G 9, -5> (-0.42-0.13j)   8.7%   154 |0,4G 9,  1>    27372.7407
129   ( 0.13-0.48j)   9.5%   115 |0,4G 9,  3> (-0.41+0.09j)   8.0%    53 |0,4G 9,  7>    27396.9123
130   (-0.26-0.43j)   9.5%   236 |0,4G 9, -3> ( 0.42-0.02j)   8.0%   305 |0,4G 9, -7>    27396.9123
131   (-0.26-0.60j)  13.8%     3 |0,2K15, 15> (-0.36-0.03j)   7.7%     8 |0,2K15, 13>    27423.0682
132   ( 0.14-0.64j)  13.8%   361 |0,2K15,-15> (-0.35+0.10j)   7.7%   355 |0,2K15,-13>    27423.0682
133   (-0.02+0.37j)   6.9%   155 |0,2K15,  1> (-0.10-0.34j)   6.6%    18 |0,2K15, 11>    27548.2330
134   ( 0.16-0.34j)   6.9%   196 |0,2K15, -1> ( 0.25-0.25j)   6.6%   346 |0,2K15,-11>    27548.2330
135   ( 0.39+0.13j)   7.7%     8 |0,2K15, 13> ( 0.35-0.03j)   6.5%   155 |0,2K15,  1>    27649.0645
136   ( 0.25-0.33j)   7.7%   355 |0,2K15,-13> ( 0.30-0.17j)   6.5%   196 |0,2K15, -1>    27649.0645
137   (-0.29+0.25j)   7.1%    18 |0,2K15, 11> ( 0.25-0.24j)   6.4%   237 |0,2K15, -3>    27755.8122
138   ( 0.24-0.30j)   7.1%   346 |0,2K15,-11> ( 0.23-0.26j)   6.4%   116 |0,2K15,  3>    27755.8122
139   (-0.32+0.13j)   6.3%   155 |0,2K15,  1> (-0.05-0.34j)   6.2%   156 |0,4G 7,  1>    27902.6414
140   ( 0.33+0.11j)   6.3%   196 |0,2K15, -1> ( 0.04-0.34j)   6.2%   197 |0,4G 7, -1>    27902.6414
141   ( 0.12-0.56j)  10.8%   238 |0,4G 7, -3> ( 0.09-0.32j)   6.2%   197 |0,4G 7, -1>    27967.7721
142   (-0.38+0.43j)  10.8%   117 |0,4G 7,  3> ( 0.20-0.26j)   6.2%   156 |0,4G 7,  1>    27967.7721
143   ( 0.41+0.21j)   8.4%    82 |0,4G 7,  5> (-0.19-0.28j)   6.2%   156 |0,4G 7,  1>    28011.9207
144   (-0.05-0.46j)   8.4%   275 |0,4G 7, -5> ( 0.20+0.28j)   6.2%   197 |0,4G 7, -1>    28011.9207
145   ( 0.39-0.20j)   7.6%    55 |0,4G 7,  7> ( 0.31+0.19j)   6.4%    82 |0,4G 7,  5>    28042.4564
146   (-0.42-0.11j)   7.6%   307 |0,4G 7, -7> ( 0.26-0.25j)   6.4%   275 |0,4G 7, -5>    28042.4564
147   ( 0.31-0.24j)   6.8%    82 |0,4G 7,  5> ( 0.03+0.38j)   6.7%   307 |0,4G 7, -7>    28113.3741
148   (-0.34-0.19j)   6.8%   275 |0,4G 7, -5> ( 0.03+0.38j)   6.7%    55 |0,4G 7,  7>    28113.3741
149   (-0.30-0.15j)   5.9%    82 |0,4G 7,  5> (-0.30-0.00j)   5.2%    18 |0,2K15, 11>    28171.3900
150   ( 0.19-0.27j)   5.9%   275 |0,4G 7, -5> (-0.26+0.14j)   5.2%   346 |0,2K15,-11>    28171.3900
151   (-0.03+0.32j)   5.6%   306 |0,2K15, -7> (-0.01-0.31j)   5.3%   197 |0,4G 7, -1>    28187.6835
152   ( 0.26-0.20j)   5.6%    54 |0,2K15,  7> ( 0.26-0.16j)   5.3%   156 |0,4G 7,  1>    28187.6835
153   (-0.49-0.67j)  28.0%   198 |0,2P 3, -1> (-0.13-0.42j)  14.7%   239 |0,2P 3, -3>    31348.7277
154   (-0.74-0.39j)  28.0%   157 |0,2P 3,  1> ( 0.43+0.07j)  14.7%   118 |0,2P 3,  3>    31348.7277
155   ( 0.70+0.50j)  29.6%   239 |0,2P 3, -3> (-0.46-0.10j)  16.4%   198 |0,2P 3, -1>    31550.4394
156   ( 0.53-0.68j)  29.6%   118 |0,2P 3,  3> ( 0.41-0.23j)  16.4%   157 |0,2P 3,  1>    31550.4394
157   ( 0.48+0.18j)  13.9%   347 |0,2K13,-11> (-0.41+0.24j)  12.9%   332 |0,2K13, -9>    32425.4448
158   ( 0.50+0.11j)  13.9%    19 |0,2K13, 11> ( 0.20+0.43j)  12.9%    35 |0,2K13,  9>    32425.4448
159   ( 0.61-0.30j)  17.2%   356 |0,2K13,-13> (-0.20-0.35j)  10.2%   308 |0,2K13, -7>    32637.4251
160   ( 0.10+0.67j)  17.2%     9 |0,2K13, 13> ( 0.40-0.03j)  10.2%    56 |0,2K13,  7>    32637.4251
161   ( 0.14-0.46j)  10.6%   158 |0,2K13,  1> ( 0.31+0.31j)   9.5%    83 |0,2K13,  5>    32782.6810
162   (-0.49+0.00j)  10.6%   199 |0,2K13, -1> ( 0.21+0.38j)   9.5%   276 |0,2K13, -5>    32782.6810
163   (-0.31-0.28j)   7.6%   159 |0,2P 1,  1> ( 0.20-0.29j)   6.4%   200 |0,2P 1, -1>    32858.8056
164   ( 0.11+0.40j)   7.6%   200 |0,2P 1, -1> (-0.35+0.04j)   6.4%   159 |0,2P 1,  1>    32858.8056
165   ( 0.13-0.55j)  10.9%   200 |0,2P 1, -1> (-0.27-0.08j)   5.5%   159 |0,2P 1,  1>    32878.6414
166   (-0.52+0.22j)  10.9%   159 |0,2P 1,  1> ( 0.12+0.26j)   5.5%   200 |0,2P 1, -1>    32878.6414
167   ( 0.19+0.43j)   8.7%    84 |0,4G 5,  5> ( 0.38+0.05j)   7.1%   160 |0,4G 5,  1>    33005.0522
168   (-0.42+0.19j)   8.7%   277 |0,4G 5, -5> (-0.31-0.22j)   7.1%   201 |0,4G 5, -1>    33005.0522
169   (-0.36-0.10j)   6.6%   119 |0,2K13,  3> ( 0.00+0.34j)   6.0%    84 |0,4G 5,  5>    33044.8143
170   ( 0.37+0.05j)   6.6%   240 |0,2K13, -3> ( 0.13-0.31j)   6.0%   277 |0,4G 5, -5>    33044.8143
171   (-0.14-0.45j)   9.4%   241 |0,4G 5, -3> (-0.25+0.30j)   7.8%   201 |0,4G 5, -1>    33151.2494
172   (-0.47+0.07j)   9.4%   120 |0,4G 5,  3> (-0.16+0.35j)   7.8%   160 |0,4G 5,  1>    33151.2494
173   (-0.22+0.46j)  10.6%    56 |0,2K13,  7> ( 0.24-0.23j)   6.8%    83 |0,2K13,  5>    33245.9425
174   (-0.42-0.29j)  10.6%   308 |0,2K13, -7> (-0.32-0.08j)   6.8%   276 |0,2K13, -5>    33245.9425
175   ( 0.16+0.31j)   6.4%    83 |0,2K13,  5> ( 0.19-0.27j)   6.1%   119 |0,2K13,  3>    33285.0350
176   ( 0.22+0.27j)   6.4%   276 |0,2K13, -5> ( 0.33-0.07j)   6.1%   240 |0,2K13, -3>    33285.0350
177   (-0.15-0.44j)  10.0%   160 |0,4G 5,  1> (-0.25+0.32j)   8.7%    84 |0,4G 5,  5>    33408.9276
178   ( 0.44+0.15j)  10.0%   201 |0,4G 5, -1> (-0.32+0.25j)   8.7%   277 |0,4G 5, -5>    33408.9276
179   ( 0.06-0.52j)  11.8%    85 |0,4G 7,  5> (-0.46+0.06j)  10.5%   161 |0,4G 7,  1>    33871.8386
180   (-0.48-0.20j)  11.8%   278 |0,4G 7, -5> ( 0.27-0.37j)  10.5%   202 |0,4G 7, -1>    33871.8386
181   ( 0.39-0.36j)  11.4%   242 |0,4G 7, -3> ( 0.27-0.34j)   9.4%   278 |0,4G 7, -5>    33914.2322
182   ( 0.21+0.49j)  11.4%   121 |0,4G 7,  3> (-0.11-0.42j)   9.4%    85 |0,4G 7,  5>    33914.2322
183   ( 0.51-0.05j)  11.2%   309 |0,4G 7, -7> ( 0.23-0.44j)  10.8%   161 |0,4G 7,  1>    34022.4476
184   (-0.42-0.29j)  11.2%    57 |0,4G 7,  7> ( 0.02-0.49j)  10.8%   202 |0,4G 7, -1>    34022.4476
185   ( 0.56-0.26j)  13.7%    57 |0,4G 7,  7> ( 0.44-0.17j)  10.5%    85 |0,4G 7,  5>    34137.3561
186   ( 0.61-0.13j)  13.7%   309 |0,4G 7, -7> (-0.46+0.13j)  10.5%   278 |0,4G 7, -5>    34137.3561
187   (-0.32+0.46j)  15.0%   203 |1,2D 5, -1> (-0.48+0.03j)  12.9%   122 |1,2D 5,  3>    34383.0780
188   ( 0.52+0.21j)  15.0%   162 |1,2D 5,  1> ( 0.42-0.24j)  12.9%   243 |1,2D 5, -3>    34383.0780
189   (-0.24-0.54j)  16.4%   122 |1,2D 5,  3> (-0.03+0.47j)  13.1%    86 |1,2D 5,  5>    34465.2513
190   (-0.04-0.60j)  16.4%   243 |1,2D 5, -3> (-0.25-0.40j)  13.1%   279 |1,2D 5, -5>    34465.2513
191   (-0.16+0.70j)  21.7%    86 |1,2D 5,  5> (-0.22+0.37j)  13.0%   122 |1,2D 5,  3>    34537.2719
192   (-0.46-0.55j)  21.7%   279 |1,2D 5, -5> ( 0.37+0.23j)  13.0%   243 |1,2D 5, -3>    34537.2719
193   (-0.47-0.18j)  13.0%   280 |2,2H 9, -5> (-0.44+0.17j)  12.2%   123 |2,2H 9,  3>    36290.0769
194   (-0.09+0.49j)  13.0%    87 |2,2H 9,  5> (-0.38+0.28j)  12.2%   244 |2,2H 9, -3>    36290.0769
195   ( 0.44-0.10j)  11.8%   333 |2,2H 9, -9> ( 0.43-0.07j)  11.5%   310 |2,2H 9, -7>    36341.3543
196   (-0.44+0.09j)  11.8%    36 |2,2H 9,  9> ( 0.43-0.10j)  11.5%    58 |2,2H 9,  7>    36341.3543
197   ( 0.33-0.42j)  13.4%    58 |2,2H 9,  7> (-0.44+0.19j)  12.0%   163 |2,2H 9,  1>    36424.9541
198   ( 0.46+0.27j)  13.4%   310 |2,2H 9, -7> ( 0.48+0.01j)  12.0%   204 |2,2H 9, -1>    36424.9541
199   ( 0.05+0.44j)  11.3%   123 |2,2H 9,  3> ( 0.42-0.08j)  10.9%   310 |2,2H 9, -7>    36549.4417
200   ( 0.36+0.25j)  11.3%   244 |2,2H 9, -3> ( 0.26-0.33j)  10.9%    58 |2,2H 9,  7>    36549.4417
201   (-0.37+0.65j)  23.1%   333 |2,2H 9, -9> (-0.11-0.43j)  13.9%   310 |2,2H 9, -7>    36586.3253
202   (-0.70-0.26j)  23.1%    36 |2,2H 9,  9> (-0.19-0.41j)  13.9%    58 |2,2H 9,  7>    36586.3253
203   ( 0.53+0.21j)  13.8%   205 |0,4D 5, -1> (-0.38+0.36j)  12.6%    88 |0,4D 5,  5>    38414.2592
204   (-0.57+0.06j)  13.8%   164 |0,4D 5,  1> (-0.27-0.45j)  12.6%   281 |0,4D 5, -5>    38414.2592
205   (-0.48-0.06j)  11.1%   205 |0,4D 5, -1> ( 0.14-0.43j)  10.4%   124 |0,4D 5,  3>    38491.2633
206   (-0.40-0.28j)  11.1%   164 |0,4D 5,  1> (-0.19+0.42j)  10.4%   245 |0,4D 5, -3>    38491.2633
207   (-0.55+0.18j)  14.5%    88 |0,4D 5,  5> (-0.12+0.46j)  11.8%   245 |0,4D 5, -3>    38560.2519
208   (-0.30-0.50j)  14.5%   281 |0,4D 5, -5> ( 0.21-0.42j)  11.8%   124 |0,4D 5,  3>    38560.2519
209   ( 0.21-0.52j)  14.5%    59 |0,4D 7,  7> ( 0.50-0.14j)  13.5%    89 |0,4D 7,  5>    38722.9735
210   (-0.49+0.26j)  14.5%   311 |0,4D 7, -7> ( 0.09-0.51j)  13.5%   282 |0,4D 7, -5>    38722.9735
211   (-0.26+0.57j)  15.6%   125 |0,4D 7,  3> (-0.16-0.35j)   9.4%    59 |0,4D 7,  7>    38986.9984
212   (-0.59+0.21j)  15.6%   246 |0,4D 7, -3> ( 0.33+0.19j)   9.4%   311 |0,4D 7, -7>    38986.9984
213   ( 0.04+0.64j)  16.4%   165 |0,4D 7,  1> ( 0.09-0.34j)   9.1%    89 |0,4D 7,  5>    39172.8082
214   ( 0.37+0.51j)  16.4%   206 |0,4D 7, -1> (-0.28-0.21j)   9.1%   282 |0,4D 7, -5>    39172.8082
215   (-0.04+0.58j)  15.9%   125 |0,4D 7,  3> (-0.08-0.44j)  12.3%    89 |0,4D 7,  5>    39376.1625
216   ( 0.59-0.01j)  15.9%   246 |0,4D 7, -3> ( 0.44+0.10j)  12.3%   282 |0,4D 7, -5>    39376.1625
217   (-0.51+0.25j)  16.1%   362 |0,2L17,-15> ( 0.21-0.43j)  13.7%   357 |0,2L17,-13>    40547.3754
218   ( 0.26+0.50j)  16.1%     4 |0,2L17, 15> (-0.08+0.47j)  13.7%    10 |0,2L17, 13>    40547.3754
219   ( 0.57-0.11j)  14.4%   334 |0,2I11, -9> (-0.50-0.12j)  12.8%   348 |0,2I11,-11>    40632.3309
220   ( 0.05+0.58j)  14.4%    37 |0,2I11,  9> ( 0.25+0.45j)  12.8%    20 |0,2I11, 11>    40632.3309
221   ( 0.46-0.43j)  13.9%   348 |0,2I11,-11> ( 0.22+0.42j)  10.4%   312 |0,2I11, -7>    40688.5532
222   ( 0.63-0.01j)  13.9%    20 |0,2I11, 11> (-0.14-0.45j)  10.4%    60 |0,2I11,  7>    40688.5532
223   ( 0.13+0.56j)  11.5%    90 |0,2I11,  5> (-0.43-0.13j)   9.1%    37 |0,2I11,  9>    40757.7555
224   ( 0.57-0.01j)  11.5%   283 |0,2I11, -5> (-0.23-0.39j)   9.1%   334 |0,2I11, -9>    40757.7555
225   ( 0.16+0.48j)   9.9%   207 |0,2I11, -1> (-0.10-0.40j)   8.1%   126 |0,2I11,  3>    40796.5229
226   ( 0.44-0.24j)   9.9%   166 |0,2I11,  1> (-0.35+0.22j)   8.1%   247 |0,2I11, -3>    40796.5229
227   (-0.26-0.29j)   7.0%     1 |0,2L17, 17> (-0.36-0.02j)   6.4%   247 |0,2I11, -3>    40830.3279
228   ( 0.39+0.00j)   7.0%   364 |0,2L17,-17> (-0.25-0.25j)   6.4%   126 |0,2I11,  3>    40830.3279
229   ( 0.28+0.35j)   8.1%   207 |0,2I11, -1> (-0.38+0.05j)   6.9%   283 |0,2I11, -5>    40859.6337
230   ( 0.30-0.33j)   8.1%   166 |0,2I11,  1> (-0.37-0.08j)   6.9%    90 |0,2I11,  5>    40859.6337
231   (-0.32+0.26j)   8.2%   247 |0,2I11, -3> ( 0.13-0.38j)   8.0%    90 |0,2I11,  5>    40944.1875
232   (-0.32-0.26j)   8.2%   126 |0,2I11,  3> ( 0.13+0.38j)   8.0%   283 |0,2I11, -5>    40944.1875
233   ( 0.47+0.00j)  11.3%   364 |0,2L17,-17> (-0.18-0.39j)  10.3%   335 |0,2L17, -9>    41041.7746
234   (-0.36-0.30j)  11.3%     1 |0,2L17, 17> ( 0.38-0.19j)  10.3%    38 |0,2L17,  9>    41041.7746
235   (-0.30+0.30j)  10.3%   349 |0,2L17,-11> ( 0.41+0.11j)  10.1%   284 |0,2L17, -5>    41211.8789
236   (-0.03+0.43j)  10.3%    21 |0,2L17, 11> ( 0.35+0.24j)  10.1%    91 |0,2L17,  5>    41211.8789
237   (-0.42+0.04j)   9.3%   248 |0,2L17, -3> (-0.37+0.08j)   8.5%   362 |0,2L17,-15>    41349.2037
238   ( 0.37+0.21j)   9.3%   127 |0,2L17,  3> ( 0.31+0.22j)   8.5%     4 |0,2L17, 15>    41349.2037
239   (-0.48+0.05j)  11.6%   208 |0,2L17, -1> ( 0.06+0.44j)  10.4%   284 |0,2L17, -5>    41445.8668
240   ( 0.36-0.32j)  11.6%   167 |0,2L17,  1> ( 0.28+0.34j)  10.4%    91 |0,2L17,  5>    41445.8668
241   ( 0.30+0.32j)  10.2%   208 |0,2L17, -1> ( 0.10+0.38j)   9.2%   248 |0,2L17, -3>    41522.9710
242   ( 0.42-0.13j)  10.2%   167 |0,2L17,  1> (-0.27+0.29j)   9.2%   127 |0,2L17,  3>    41522.9710
243   (-0.37+0.27j)  11.2%   349 |0,2L17,-11> ( 0.28-0.33j)  10.6%   284 |0,2L17, -5>    41627.6113
244   (-0.31+0.33j)  11.2%    21 |0,2L17, 11> (-0.37+0.23j)  10.6%    91 |0,2L17,  5>    41627.6113
245   (-0.48-0.10j)  11.7%   335 |0,2L17, -9> (-0.47-0.06j)  11.4%   313 |0,2L17, -7>    41761.2310
246   (-0.23-0.44j)  11.7%    38 |0,2L17,  9> ( 0.18+0.44j)  11.4%    61 |0,2L17,  7>    41761.2310
247   ( 0.02+0.86j)  29.5%   209 |0,4D 3, -1> (-0.22+0.37j)  14.8%   249 |0,4D 3, -3>    41942.8490
248   (-0.19+0.84j)  29.5%   168 |0,4D 3,  1> (-0.14-0.41j)  14.8%   128 |0,4D 3,  3>    41942.8490
249   ( 0.38-0.49j)  17.7%   249 |0,4D 3, -3> (-0.08-0.58j)  16.6%   128 |0,4D 3,  3>    42055.2697
250   (-0.25-0.57j)  17.7%   128 |0,4D 3,  3> (-0.23+0.53j)  16.6%   249 |0,4D 3, -3>    42055.2697
251   (-0.04+0.68j)  17.4%   250 |0,4D 3, -3> ( 0.14+0.45j)  12.1%   129 |0,4D 3,  3>    42677.5761
252   ( 0.23-0.64j)  17.4%   129 |0,4D 3,  3> (-0.31+0.36j)  12.1%   250 |0,4D 3, -3>    42677.5761
253   (-0.73-0.41j)  25.1%   210 |0,4D 3, -1> (-0.23-0.39j)  13.4%   250 |0,4D 3, -3>    42805.2630
254   (-0.44-0.71j)  25.1%   169 |0,4D 3,  1> ( 0.40+0.21j)  13.4%   129 |0,4D 3,  3>    42805.2630
255   (-0.29-0.63j)  19.7%    22 |0,2I13, 11> (-0.59+0.03j)  16.9%    11 |0,2I13, 13>    43010.7956
256   (-0.68+0.14j)  19.7%   350 |0,2I13,-11> ( 0.33+0.49j)  16.9%   358 |0,2I13,-13>    43010.7956
257   (-0.27-0.58j)  15.0%    39 |0,2I13,  9> ( 0.43-0.21j)  11.2%    11 |0,2I13, 13>    43074.1484
258   (-0.63-0.10j)  15.0%   336 |0,2I13, -9> (-0.08+0.47j)  11.2%   358 |0,2I13,-13>    43074.1484
259   ( 0.41+0.25j)   9.4%    62 |0,2I13,  7> ( 0.39-0.25j)   9.1%    92 |0,2I13,  5>    43200.0824
260   (-0.08+0.47j)   9.4%   314 |0,2I13, -7> ( 0.45-0.12j)   9.1%   285 |0,2I13, -5>    43200.0824
261   (-0.18-0.37j)   8.3%    92 |0,2I13,  5> ( 0.32+0.24j)   8.2%    11 |0,2I13, 13>    43290.0041
262   ( 0.28-0.29j)   8.3%   285 |0,2I13, -5> (-0.38+0.13j)   8.2%   358 |0,2I13,-13>    43290.0041
263   ( 0.33-0.24j)   8.2%   211 |0,2I13, -1> ( 0.26+0.28j)   7.7%   285 |0,2I13, -5>    43456.6149
264   (-0.33+0.24j)   8.2%   170 |0,2I13,  1> ( 0.19+0.33j)   7.7%    92 |0,2I13,  5>    43456.6149
265   ( 0.55-0.10j)  12.3%   170 |0,2I13,  1> (-0.30-0.22j)   8.1%    39 |0,2I13,  9>    43601.3480
266   ( 0.07-0.56j)  12.3%   211 |0,2I13, -1> ( 0.23+0.29j)   8.1%   336 |0,2I13, -9>    43601.3480
267   (-0.20-0.38j)   9.4%   251 |0,2I13, -3> (-0.27-0.32j)   9.3%   285 |0,2I13, -5>    43766.6585
268   (-0.42+0.10j)   9.4%   130 |0,2I13,  3> ( 0.42-0.01j)   9.3%    92 |0,2I13,  5>    43766.6585
269   ( 0.39+0.47j)  17.7%    12 |0,2L15, 13> ( 0.46+0.18j)  14.3%     5 |0,2L15, 15>    46768.5060
270   (-0.04-0.61j)  17.7%   359 |0,2L15,-13> (-0.21+0.45j)  14.3%   363 |0,2L15,-15>    46768.5060
271   (-0.47+0.86j)  38.0%   212 |0,4D 1, -1> ( 0.02-0.06j)   2.5%   359 |0,2L15,-13>    46783.2650
272   ( 0.90+0.39j)  38.0%   171 |0,4D 1,  1> ( 0.05+0.04j)   2.5%    12 |0,2L15, 13>    46783.2650
273   ( 0.32+0.48j)  15.0%     5 |0,2L15, 15> ( 0.46-0.21j)  13.2%    40 |0,2L15,  9>    47033.8824
274   ( 0.42+0.39j)  15.0%   363 |0,2L15,-15> ( 0.28-0.42j)  13.2%   337 |0,2L15, -9>    47033.8824
275   (-0.43+0.18j)  10.0%    63 |0,2L15,  7> ( 0.34+0.30j)   9.9%     5 |0,2L15, 15>    47229.5405
276   (-0.24+0.39j)  10.0%   315 |0,2L15, -7> (-0.25-0.38j)   9.9%   363 |0,2L15,-15>    47229.5405
277   (-0.01-0.37j)   6.9%   131 |0,2L15,  3> (-0.22+0.23j)   5.9%    64 |1,2H 9,  7>    47383.4149
278   (-0.31+0.21j)   6.9%   252 |0,2L15, -3> (-0.05+0.32j)   5.9%   316 |1,2H 9, -7>    47383.4149
279   ( 0.05-0.61j)  12.7%    41 |1,2H 9,  9> ( 0.44-0.26j)  10.6%    64 |1,2H 9,  7>    47423.5981
280   (-0.56+0.24j)  12.7%   338 |1,2H 9, -9> ( 0.10-0.50j)  10.6%   316 |1,2H 9, -7>    47423.5981
281   (-0.30-0.24j)   6.8%   337 |0,2L15, -9> ( 0.34-0.04j)   6.0%   286 |0,2L15, -5>    47487.3399
282   ( 0.29+0.26j)   6.8%    40 |0,2L15,  9> (-0.02-0.34j)   6.0%    93 |0,2L15,  5>    47487.3399
283   (-0.10+0.53j)  10.0%   287 |1,2H 9, -5> ( 0.11-0.34j)   6.7%   253 |1,2H 9, -3>    47521.4330
284   ( 0.49-0.21j)  10.0%    94 |1,2H 9,  5> ( 0.31-0.18j)   6.7%   132 |1,2H 9,  3>    47521.4330
285   ( 0.39-0.08j)   7.0%   253 |1,2H 9, -3> (-0.25+0.23j)   5.9%   214 |1,2H 9, -1>    47570.5217
286   ( 0.25-0.30j)   7.0%   132 |1,2H 9,  3> ( 0.32-0.11j)   5.9%   173 |1,2H 9,  1>    47570.5217
287   ( 0.31+0.36j)   9.8%   172 |0,2L15,  1> (-0.16-0.42j)   9.4%    41 |1,2H 9,  9>    47670.3226
288   (-0.04+0.47j)   9.8%   213 |0,2L15, -1> ( 0.12+0.44j)   9.4%   338 |1,2H 9, -9>    47670.3226
289   ( 0.07+0.34j)   6.7%    64 |1,2H 9,  7> ( 0.29+0.16j)   6.4%   287 |1,2H 9, -5>    47690.7091
290   ( 0.34-0.07j)   6.7%   316 |1,2H 9, -7> ( 0.27+0.20j)   6.4%    94 |1,2H 9,  5>    47690.7091
291   (-0.25-0.33j)   7.7%    23 |0,2L15, 11> ( 0.09+0.31j)   6.1%   173 |1,2H 9,  1>    47753.5586
292   ( 0.04-0.41j)   7.7%   351 |0,2L15,-11> ( 0.09+0.31j)   6.1%   214 |1,2H 9, -1>    47753.5586
293   (-0.28-0.20j)   6.1%   172 |0,2L15,  1> (-0.32+0.08j)   5.9%   252 |0,2L15, -3>    47916.1577
294   (-0.33+0.08j)   6.1%   213 |0,2L15, -1> (-0.27-0.19j)   5.9%   131 |0,2L15,  3>    47916.1577
295   ( 0.23+0.41j)   9.8%   315 |0,2L15, -7> ( 0.10+0.41j)   8.8%   337 |0,2L15, -9>    48048.5508
296   ( 0.40+0.25j)   9.8%    63 |0,2L15,  7> (-0.41-0.12j)   8.8%    40 |0,2L15,  9>    48048.5508
297   ( 0.69+0.29j)  20.1%    95 |2,2D 5,  5> ( 0.35+0.27j)  12.0%   133 |2,2D 5,  3>    48318.4865
298   (-0.48-0.57j)  20.1%   288 |2,2D 5, -5> ( 0.36+0.25j)  12.0%   254 |2,2D 5, -3>    48318.4865
299   ( 0.23+0.52j)  16.4%    95 |2,2D 5,  5> ( 0.04-0.49j)  14.1%   133 |2,2D 5,  3>    48675.7811
300   (-0.37-0.43j)  16.4%   288 |2,2D 5, -5> (-0.46-0.17j)  14.1%   254 |2,2D 5, -3>    48675.7811
301   ( 0.41+0.45j)  18.5%   215 |2,2D 5, -1> ( 0.06+0.47j)  14.4%   254 |2,2D 5, -3>    48813.7639
302   ( 0.29-0.54j)  18.5%   174 |2,2D 5,  1> ( 0.06+0.47j)  14.4%   133 |2,2D 5,  3>    48813.7639
303   ( 0.40+0.47j)  17.7%    42 |1,2H11,  9> ( 0.58-0.19j)  17.6%    24 |1,2H11, 11>    50353.2591
304   ( 0.59+0.20j)  17.7%   339 |1,2H11, -9> (-0.04-0.62j)  17.6%   352 |1,2H11,-11>    50353.2591
305   (-0.33-0.38j)  12.9%   317 |1,2H11, -7> (-0.48-0.04j)  12.6%    65 |1,2H11,  7>    50467.0000
306   ( 0.47+0.15j)  12.9%    65 |1,2H11,  7> (-0.22-0.43j)  12.6%   317 |1,2H11, -7>    50467.0000
307   ( 0.56-0.13j)  14.5%   134 |1,2H11,  3> ( 0.24+0.30j)   9.8%    96 |1,2H11,  5>    50548.6850
308   ( 0.48-0.31j)  14.5%   255 |1,2H11, -3> ( 0.05+0.38j)   9.8%   289 |1,2H11, -5>    50548.6850
309   ( 0.26-0.31j)   9.5%    24 |1,2H11, 11> ( 0.01+0.40j)   9.4%    96 |1,2H11,  5>    50733.6529
310   ( 0.37-0.16j)   9.5%   352 |1,2H11,-11> ( 0.38+0.12j)   9.4%   289 |1,2H11, -5>    50733.6529
311   (-0.12+0.65j)  16.6%   175 |1,2H11,  1> ( 0.27+0.20j)   8.6%   255 |1,2H11, -3>    50935.9475
312   (-0.22-0.62j)  16.6%   216 |1,2H11, -1> ( 0.23-0.24j)   8.6%   134 |1,2H11,  3>    50935.9475
313   ( 0.29-0.38j)  12.0%   134 |1,2H11,  3> (-0.36+0.24j)  11.0%    96 |1,2H11,  5>    51032.6595
314   (-0.44+0.18j)  12.0%   255 |1,2H11, -3> (-0.33+0.29j)  11.0%   289 |1,2H11, -5>    51032.6595
315   ( 0.53-0.24j)  19.0%   318 |2,2F 7, -7> (-0.08+0.50j)  16.7%    66 |2,2F 7,  7>    53722.6132
316   (-0.05-0.58j)  19.0%    66 |2,2F 7,  7> ( 0.40-0.32j)  16.7%   318 |2,2F 7, -7>    53722.6132
317   ( 0.42-0.43j)  18.6%   135 |2,2F 7,  3> ( 0.16-0.42j)  13.7%    97 |2,2F 7,  5>    53788.6931
318   (-0.53-0.29j)  18.6%   256 |2,2F 7, -3> ( 0.27+0.35j)  13.7%   290 |2,2F 7, -5>    53788.6931
319   (-0.35-0.38j)  15.2%   217 |2,2F 7, -1> ( 0.04-0.45j)  13.3%    97 |2,2F 7,  5>    53851.6883
320   ( 0.02+0.51j)  15.2%   176 |2,2F 7,  1> (-0.35-0.29j)  13.3%   290 |2,2F 7, -5>    53851.6883
321   ( 0.25-0.49j)  18.5%   135 |2,2F 7,  3> (-0.17+0.51j)  18.2%   176 |2,2F 7,  1>    53877.8052
322   ( 0.50+0.22j)  18.5%   256 |2,2F 7, -3> ( 0.45+0.29j)  18.2%   217 |2,2F 7, -1>    53877.8052
323   ( 0.78+0.25j)  30.7%   136 |2,2D 3,  3> ( 0.30+0.27j)  15.4%   177 |2,2D 3,  1>    54529.1806
324   (-0.69-0.44j)  30.7%   257 |2,2D 3, -3> ( 0.41+0.06j)  15.4%   218 |2,2D 3, -1>    54529.1806
325   ( 0.63-0.32j)  26.0%   218 |2,2D 3, -1> ( 0.43-0.27j)  18.7%   177 |2,2D 3,  1>    54770.1983
326   ( 0.71-0.05j)  26.0%   177 |2,2D 3,  1> (-0.51-0.01j)  18.7%   218 |2,2D 3, -1>    54770.1983
327   ( 0.40-0.73j)  34.6%    98 |2,2F 5,  5> ( 0.34-0.32j)  19.3%   137 |2,2F 5,  3>    62374.8101
328   (-0.57-0.61j)  34.6%   291 |2,2F 5, -5> ( 0.41+0.22j)  19.3%   258 |2,2F 5, -3>    62374.8101
329   (-0.66+0.06j)  23.7%   178 |2,2F 5,  1> (-0.01+0.45j)  16.1%   137 |2,2F 5,  3>    62465.0088
330   (-0.60+0.29j)  23.7%   219 |2,2F 5, -1> ( 0.25+0.38j)  16.1%   258 |2,2F 5, -3>    62465.0088
331   (-0.50+0.37j)  21.4%   219 |2,2F 5, -1> (-0.33-0.37j)  16.9%   258 |2,2F 5, -3>    62489.1935
332   ( 0.61+0.11j)  21.4%   178 |2,2F 5,  1> (-0.13+0.47j)  16.9%   137 |2,2F 5,  3>    62489.1935
333   (-0.70-0.21j)  29.3%    67 |2,2G 7,  7> (-0.40-0.39j)  22.6%    99 |2,2G 7,  5>    65352.4579
334   ( 0.65-0.34j)  29.3%   319 |2,2G 7, -7> (-0.32+0.46j)  22.6%   292 |2,2G 7, -5>    65352.4579
335   ( 0.53+0.06j)  16.9%    67 |2,2G 7,  7> (-0.19-0.49j)  16.7%   138 |2,2G 7,  3>    65526.7532
336   (-0.33-0.42j)  16.9%   319 |2,2G 7, -7> ( 0.52-0.09j)  16.7%   259 |2,2G 7, -3>    65526.7532
337   ( 0.57-0.33j)  22.9%   179 |2,2G 7,  1> (-0.19+0.52j)  19.5%    99 |2,2G 7,  5>    65647.1419
338   ( 0.65-0.05j)  22.9%   220 |2,2G 7, -1> (-0.46-0.32j)  19.5%   292 |2,2G 7, -5>    65647.1419
339   (-0.14+0.64j)  23.4%   138 |2,2G 7,  3> ( 0.28-0.46j)  19.0%   179 |2,2G 7,  1>    65716.3446
340   (-0.54-0.38j)  23.4%   259 |2,2G 7, -3> (-0.51-0.15j)  19.0%   220 |2,2G 7, -1>    65716.3446
341   (-0.68-0.18j)  32.3%   340 |2,2G 9, -9> ( 0.59-0.20j)  28.4%   320 |2,2G 9, -7>    69277.6717
342   (-0.45+0.55j)  32.3%    43 |2,2G 9,  9> (-0.60+0.18j)  28.4%    68 |2,2G 9,  7>    69277.6717
343   (-0.44+0.45j)  23.1%   293 |2,2G 9, -5> ( 0.51+0.16j)  19.7%   340 |2,2G 9, -9>    69454.5702
344   (-0.63+0.07j)  23.1%   100 |2,2G 9,  5> ( 0.19-0.50j)  19.7%    43 |2,2G 9,  9>    69454.5702
345   ( 0.03+0.58j)  19.4%   260 |2,2G 9, -3> ( 0.37-0.31j)  16.0%   320 |2,2G 9, -7>    69586.7708
346   ( 0.41+0.42j)  19.4%   139 |2,2G 9,  3> (-0.48+0.07j)  16.0%    68 |2,2G 9,  7>    69586.7708
347   ( 0.46-0.24j)  16.8%   180 |2,2G 9,  1> ( 0.17-0.48j)  16.6%   221 |2,2G 9, -1>    69694.7618
348   ( 0.43-0.29j)  16.8%   221 |2,2G 9, -1> (-0.50-0.08j)  16.6%   180 |2,2G 9,  1>    69694.7618
349   (-0.13+0.57j)  20.6%   260 |2,2G 9, -3> (-0.20+0.53j)  20.0%   293 |2,2G 9, -5>    69804.8488
350   ( 0.42+0.41j)  20.6%   139 |2,2G 9,  3> (-0.46-0.34j)  20.0%   100 |2,2G 9,  5>    69804.8488
351   (-0.47-0.65j)  39.0%   294 |1,2F 5, -5> ( 0.51+0.21j)  26.7%   261 |1,2F 5, -3>    91266.9517
352   ( 0.57+0.56j)  39.0%   101 |1,2F 5,  5> ( 0.13+0.53j)  26.7%   140 |1,2F 5,  3>    91266.9517
353   (-0.24-0.47j)  20.7%   222 |1,2F 5, -1> (-0.17+0.45j)  18.9%   140 |1,2F 5,  3>    91730.4725
354   ( 0.11+0.52j)  20.7%   181 |1,2F 5,  1> (-0.42-0.25j)  18.9%   261 |1,2F 5, -3>    91730.4725
355   ( 0.61+0.00j)  24.7%   261 |1,2F 5, -3> ( 0.49+0.04j)  19.8%   222 |1,2F 5, -1>    92198.6379
356   (-0.51-0.34j)  24.7%   140 |1,2F 5,  3> ( 0.43+0.24j)  19.8%   181 |1,2F 5,  1>    92198.6379
357   ( 0.65-0.40j)  35.0%   321 |1,2F 7, -7> (-0.20+0.57j)  28.0%   295 |1,2F 7, -5>    95658.6736
358   (-0.72-0.25j)  35.0%    69 |1,2F 7,  7> (-0.32-0.52j)  28.0%   102 |1,2F 7,  5>    95658.6736
359   (-0.58-0.25j)  24.5%   262 |1,2F 7, -3> ( 0.15+0.41j)  16.8%   321 |1,2F 7, -7>    96049.2517
360   ( 0.41-0.49j)  24.5%   141 |1,2F 7,  3> ( 0.05+0.43j)  16.8%    69 |1,2F 7,  7>    96049.2517
361   ( 0.21+0.53j)  20.8%   182 |1,2F 7,  1> (-0.37-0.29j)  17.3%   295 |1,2F 7, -5>    96467.9332
362   ( 0.36+0.44j)  20.8%   223 |1,2F 7, -1> ( 0.07+0.47j)  17.3%   102 |1,2F 7,  5>    96467.9332
363   (-0.09-0.56j)  21.3%   141 |1,2F 7,  3> ( 0.28+0.40j)  18.3%   182 |1,2F 7,  1>    96909.3920
364   (-0.52-0.22j)  21.3%   262 |1,2F 7, -3> (-0.33-0.36j)  18.3%   223 |1,2F 7, -1>    96909.3920
Label key: TSLJM



Hamiltonian 0 summary
=====================

Lev.  Percentage                 State        Percentage                 State               Theory     Experiment    Difference
----  ----------                 -----        ----------                 -----               ------     ----------    ----------
1     (-0.06+0.43j)  11.4%   103 |0,4I15,  3> ( 0.19-0.35j)  10.5%    44 |0,4I15,  7>       -0.0000         0.0000        0.0000
2     ( 0.13-0.41j)  11.4%   224 |0,4I15, -3> ( 0.02+0.40j)  10.5%   296 |0,4I15, -7>       -0.0000         0.0000        0.0000

Label key: TSLJM
weighted chi2 = 0.0000
sigma = 0.0000
weighting factor = 3.00e-03


Hamiltonian 1 summary
=====================

Lev.  Percentage                 State            Percentage                 State                Th. diff.     Exp. diff.    Diff. diff.
----  ----------                 -----            ----------                 -----                ---------     ----------    -----------
1     ( 0.23+0.13j)   2.9%  2099 |0,4I15, -5,  3> ( 0.17-0.19j)   2.7%  2098 |0,4I15, -5,  5> 
3     (-0.05-0.21j)   2.2%  2101 |0,4I15, -5, -1> (-0.10+0.19j)   2.2%   556 |0,4I15,  5,  1>        0.0302         0.0012       -0.0291
1     ( 0.23+0.13j)   2.9%  2099 |0,4I15, -5,  3> ( 0.17-0.19j)   2.7%  2098 |0,4I15, -5,  5> 
5     (-0.16+0.12j)   1.9%   560 |0,4I15,  5, -7> ( 0.07-0.18j)   1.9%  2097 |0,4I15, -5,  7>        0.0590         0.0027       -0.0563
295   (-0.07-0.33j)   3.4%  1145 |0,4I11,  1,  7> ( 0.31-0.13j)   3.4%  1480 |0,4I11, -1, -7> 
297   (-0.20+0.18j)   2.7%  1480 |0,4I11, -1, -7> (-0.11-0.25j)   2.7%  1145 |0,4I11,  1,  7>        0.0248         0.0013       -0.0235
295   (-0.07-0.33j)   3.4%  1145 |0,4I11,  1,  7> ( 0.31-0.13j)   3.4%  1480 |0,4I11, -1, -7> 
299   ( 0.07+0.26j)   2.7%  1473 |0,4I11, -1,  7> (-0.06+0.26j)   2.7%  1152 |0,4I11,  1, -7>        0.0526         0.0017       -0.0509

Label key: TSLJMI
weighted chi2 = 715.9912
sigma = 0.0846
weighting factor = 1.00e+05


Fitting summary
===============

Tensor name           Fitted coeff       Initial coeff          Difference   Lower bounds    Upper bounds       Stepsize
-----------           ------------       -------------          ----------   ------------    ------------       --------
'EAVG'       :            35442.72            35503.50              -60.78          35404           35604             50

Number of observables: 6
Number of real-valued parameters: 1

Optimization routine details:
-----------------------------
fmin:                715.991233567
method:              basinhopping
niter:               1
step_adapt_int:      25
dry_run:             0
naccept:             1
xtol:                0.01
lmin:                nlopt_bobyqa
