Traceback (most recent call last):
  File "eryso_site1.py", line 14, in <module>
    t = ImportSLJM("../../eucf_trunc")
  File "/home/phys/racah/mfr24/calculations/usr/local/lib/python2.7/site-packages/pycf/import_sljm.py", line 71, in __init__
    with open("%s.mi_" % name, 'r' ) as f:
IOError: [Errno 2] No such file or directory: '../../eucf_trunc.mi_'
0.34user 0.45system 0:16.42elapsed 4%CPU (0avgtext+0avgdata 45128maxresident)k
361032inputs+16outputs (87major+17224minor)pagefaults 0swaps
