finish                                                                                                                                                                                                                                                          
CREATED    2 Jun 2020 21:12:55  BY CFIT 28 Oct 13      
SPIN HAMILTONIAN
STATERANGE 295 300
NTENSORS   5
m100      
 0.000000000000000e+00  0.000000000000000e+00    5.625917444098257e-10  0.000000000000000e+00    7.671563083390225e-10  0.000000000000000e+00    0.000000000000000e+00  0.000000000000000e+00   -4.954276291380260e-11  0.000000000000000e+00    0.000000000000000e+00  0.000000000000000e+00   
 5.625917444098257e-10  0.000000000000000e+00    0.000000000000000e+00  0.000000000000000e+00    0.000000000000000e+00  0.000000000000000e+00   -7.671765742468994e-10  0.000000000000000e+00    0.000000000000000e+00  0.000000000000000e+00    4.952668112730693e-11  0.000000000000000e+00   
 7.671563083390225e-10  0.000000000000000e+00    0.000000000000000e+00  0.000000000000000e+00    0.000000000000000e+00  0.000000000000000e+00   -1.877731316497624e-10  0.000000000000000e+00    0.000000000000000e+00  0.000000000000000e+00   -5.958464060233253e-10  0.000000000000000e+00   
 0.000000000000000e+00  0.000000000000000e+00   -7.671765742468994e-10  0.000000000000000e+00   -1.877731316497624e-10  0.000000000000000e+00    0.000000000000000e+00  0.000000000000000e+00   -5.958428603717426e-10  0.000000000000000e+00    0.000000000000000e+00  0.000000000000000e+00   
-4.954276291380260e-11  0.000000000000000e+00    0.000000000000000e+00  0.000000000000000e+00    0.000000000000000e+00  0.000000000000000e+00   -5.958428603717426e-10  0.000000000000000e+00    0.000000000000000e+00  0.000000000000000e+00   -3.418482774850060e-12  0.000000000000000e+00   
 0.000000000000000e+00  0.000000000000000e+00    4.952668112730693e-11  0.000000000000000e+00   -5.958464060233253e-10  0.000000000000000e+00    0.000000000000000e+00  0.000000000000000e+00   -3.418482774850060e-12  0.000000000000000e+00    0.000000000000000e+00  0.000000000000000e+00   
m010      
 0.000000000000000e+00  0.000000000000000e+00    0.000000000000000e+00 -2.450011649300616e-10    0.000000000000000e+00 -1.304380448388818e-10    0.000000000000000e+00  0.000000000000000e+00    0.000000000000000e+00  2.909536317172135e-11    0.000000000000000e+00  0.000000000000000e+00   
 0.000000000000000e+00  2.450011649300616e-10    0.000000000000000e+00  0.000000000000000e+00    0.000000000000000e+00  0.000000000000000e+00    0.000000000000000e+00 -1.304242400897020e-10    0.000000000000000e+00  0.000000000000000e+00    0.000000000000000e+00  2.909308293604359e-11   
 0.000000000000000e+00  1.304380448388818e-10    0.000000000000000e+00  0.000000000000000e+00    0.000000000000000e+00  0.000000000000000e+00    0.000000000000000e+00  7.567725417030262e-10    0.000000000000000e+00  0.000000000000000e+00    0.000000000000000e+00  8.150506223802494e-12   
 0.000000000000000e+00  0.000000000000000e+00    0.000000000000000e+00  1.304242400897020e-10    0.000000000000000e+00 -7.567725417030262e-10    0.000000000000000e+00  0.000000000000000e+00    0.000000000000000e+00 -8.151385467114148e-12    0.000000000000000e+00  0.000000000000000e+00   
 0.000000000000000e+00 -2.909536317172135e-11    0.000000000000000e+00  0.000000000000000e+00    0.000000000000000e+00  0.000000000000000e+00    0.000000000000000e+00  8.151385467114148e-12    0.000000000000000e+00  0.000000000000000e+00    0.000000000000000e+00 -1.258374891609986e-09   
 0.000000000000000e+00  0.000000000000000e+00    0.000000000000000e+00 -2.909308293604359e-11    0.000000000000000e+00 -8.150506223802494e-12    0.000000000000000e+00  0.000000000000000e+00    0.000000000000000e+00  1.258374891609986e-09    0.000000000000000e+00  0.000000000000000e+00   
m001      
 9.287014618812825e-10  0.000000000000000e+00    0.000000000000000e+00  0.000000000000000e+00    0.000000000000000e+00  0.000000000000000e+00    6.131486333952244e-10  0.000000000000000e+00    0.000000000000000e+00  0.000000000000000e+00    4.812673045684733e-11  0.000000000000000e+00   
 0.000000000000000e+00  0.000000000000000e+00   -9.286655644995014e-10  0.000000000000000e+00    6.131737525117515e-10  0.000000000000000e+00    0.000000000000000e+00  0.000000000000000e+00    4.811560704866354e-11  0.000000000000000e+00    0.000000000000000e+00  0.000000000000000e+00   
 0.000000000000000e+00  0.000000000000000e+00    6.131737525202227e-10  0.000000000000000e+00    1.751994614091163e-10  0.000000000000000e+00    0.000000000000000e+00  0.000000000000000e+00   -5.462703281744015e-10  0.000000000000000e+00    0.000000000000000e+00  0.000000000000000e+00   
 6.131486333866491e-10  0.000000000000000e+00    0.000000000000000e+00  0.000000000000000e+00    0.000000000000000e+00  0.000000000000000e+00   -1.752302864790237e-10  0.000000000000000e+00    0.000000000000000e+00  0.000000000000000e+00    5.462668439155459e-10  0.000000000000000e+00   
 0.000000000000000e+00  0.000000000000000e+00    4.811560706316939e-11  0.000000000000000e+00   -5.462703281659299e-10  0.000000000000000e+00    0.000000000000000e+00  0.000000000000000e+00   -3.080539175879522e-12  0.000000000000000e+00    0.000000000000000e+00  0.000000000000000e+00   
 4.812673044001131e-11  0.000000000000000e+00    0.000000000000000e+00  0.000000000000000e+00    0.000000000000000e+00  0.000000000000000e+00    5.462668439222171e-10  0.000000000000000e+00    0.000000000000000e+00  0.000000000000000e+00    3.080245283596504e-12  0.000000000000000e+00   
al        
-1.326179922610502e-07  0.000000000000000e+00    0.000000000000000e+00  0.000000000000000e+00    0.000000000000000e+00  0.000000000000000e+00   -4.816592417961750e-09  0.000000000000000e+00    0.000000000000000e+00  0.000000000000000e+00   -3.624500032907599e-09  0.000000000000000e+00   
 0.000000000000000e+00  0.000000000000000e+00   -1.326176903705388e-07  0.000000000000000e+00    4.819076072178908e-09  0.000000000000000e+00    0.000000000000000e+00  0.000000000000000e+00    3.624983760865557e-09  0.000000000000000e+00    0.000000000000000e+00  0.000000000000000e+00   
 0.000000000000000e+00  0.000000000000000e+00    4.819076071969906e-09  0.000000000000000e+00   -3.712478585361230e-08  0.000000000000000e+00    0.000000000000000e+00  0.000000000000000e+00    6.124312440571123e-10  0.000000000000000e+00    0.000000000000000e+00  0.000000000000000e+00   
-4.816592418239368e-09  0.000000000000000e+00    0.000000000000000e+00  0.000000000000000e+00    0.000000000000000e+00  0.000000000000000e+00   -3.712452241120191e-08  0.000000000000000e+00    0.000000000000000e+00  0.000000000000000e+00    6.124862309111562e-10  0.000000000000000e+00   
 0.000000000000000e+00  0.000000000000000e+00    3.624983760882603e-09  0.000000000000000e+00    6.124312440489615e-10  0.000000000000000e+00    0.000000000000000e+00  0.000000000000000e+00    1.403811833013623e-07  0.000000000000000e+00    0.000000000000000e+00  0.000000000000000e+00   
-3.624500032837930e-09  0.000000000000000e+00    0.000000000000000e+00  0.000000000000000e+00    0.000000000000000e+00  0.000000000000000e+00    6.124862311644248e-10  0.000000000000000e+00    0.000000000000000e+00  0.000000000000000e+00    1.403811805801500e-07  0.000000000000000e+00   
EQHYP     
 8.403178635626490e-05  0.000000000000000e+00    0.000000000000000e+00  0.000000000000000e+00    0.000000000000000e+00  0.000000000000000e+00    7.391793332796919e-09  0.000000000000000e+00    0.000000000000000e+00  0.000000000000000e+00   -4.916546779924684e-09  0.000000000000000e+00   
 0.000000000000000e+00  0.000000000000000e+00    8.403178593833486e-05  0.000000000000000e+00   -8.879806448161743e-09  0.000000000000000e+00    0.000000000000000e+00  0.000000000000000e+00    4.629758027508697e-09  0.000000000000000e+00    0.000000000000000e+00  0.000000000000000e+00   
 0.000000000000000e+00  0.000000000000000e+00   -8.879806448161557e-09  0.000000000000000e+00    2.699887440517263e-05  0.000000000000000e+00    0.000000000000000e+00  0.000000000000000e+00    3.779456588346154e-09  0.000000000000000e+00    0.000000000000000e+00  0.000000000000000e+00   
 7.391793332796959e-09  0.000000000000000e+00    0.000000000000000e+00  0.000000000000000e+00    0.000000000000000e+00  0.000000000000000e+00    2.699887396409682e-05  0.000000000000000e+00    0.000000000000000e+00  0.000000000000000e+00    3.811105543230067e-09  0.000000000000000e+00   
 0.000000000000000e+00  0.000000000000000e+00    4.629758027508616e-09  0.000000000000000e+00    3.779456588346154e-09  0.000000000000000e+00    0.000000000000000e+00  0.000000000000000e+00   -8.245478360447538e-05  0.000000000000000e+00    0.000000000000000e+00  0.000000000000000e+00   
-4.916546779924551e-09  0.000000000000000e+00    0.000000000000000e+00  0.000000000000000e+00    0.000000000000000e+00  0.000000000000000e+00    3.811105543230252e-09  0.000000000000000e+00    0.000000000000000e+00  0.000000000000000e+00   -8.245478358105499e-05  0.000000000000000e+00   
