 *% fitted ground plus excited state without hyperfine                                                                                                                                                                                                          
CREATED    2 Jun 2020 21:12:20  BY CFIT 28 Oct 13      
SPIN HAMILTONIAN
STATERANGE 295 300
NTENSORS   5
m100      
 0.000000000000000e+00  0.000000000000000e+00   -8.209790055904863e-10  0.000000000000000e+00    0.000000000000000e+00  0.000000000000000e+00    7.473246872785109e-10  0.000000000000000e+00    0.000000000000000e+00  0.000000000000000e+00   -7.905005473385561e-12  0.000000000000000e+00   
-8.209790055904863e-10  0.000000000000000e+00    0.000000000000000e+00  0.000000000000000e+00   -7.473195613956110e-10  0.000000000000000e+00    0.000000000000000e+00  0.000000000000000e+00   -7.900627886841113e-12  0.000000000000000e+00    0.000000000000000e+00  0.000000000000000e+00   
 0.000000000000000e+00  0.000000000000000e+00   -7.473195613956110e-10  0.000000000000000e+00    0.000000000000000e+00  0.000000000000000e+00   -2.413184223668266e-11  0.000000000000000e+00    0.000000000000000e+00  0.000000000000000e+00   -6.158732625210248e-10  0.000000000000000e+00   
 7.473246872785109e-10  0.000000000000000e+00    0.000000000000000e+00  0.000000000000000e+00   -2.413184223668266e-11  0.000000000000000e+00    0.000000000000000e+00  0.000000000000000e+00    6.158710761053364e-10  0.000000000000000e+00    0.000000000000000e+00  0.000000000000000e+00   
 0.000000000000000e+00  0.000000000000000e+00   -7.900627886841113e-12  0.000000000000000e+00    0.000000000000000e+00  0.000000000000000e+00    6.158710761053364e-10  0.000000000000000e+00    0.000000000000000e+00  0.000000000000000e+00   -4.646853768947243e-14  0.000000000000000e+00   
-7.905005473385561e-12  0.000000000000000e+00    0.000000000000000e+00  0.000000000000000e+00   -6.158732625210248e-10  0.000000000000000e+00    0.000000000000000e+00  0.000000000000000e+00   -4.646853768947243e-14  0.000000000000000e+00    0.000000000000000e+00  0.000000000000000e+00   
m010      
 0.000000000000000e+00  0.000000000000000e+00    0.000000000000000e+00  2.719103236826366e-10    0.000000000000000e+00  0.000000000000000e+00    0.000000000000000e+00  1.948631863098251e-11    0.000000000000000e+00  0.000000000000000e+00    0.000000000000000e+00  7.413847017417286e-12   
 0.000000000000000e+00 -2.719103236826366e-10    0.000000000000000e+00  0.000000000000000e+00    0.000000000000000e+00  1.948257777615048e-11    0.000000000000000e+00  0.000000000000000e+00    0.000000000000000e+00 -7.411269470399828e-12    0.000000000000000e+00  0.000000000000000e+00   
 0.000000000000000e+00  0.000000000000000e+00    0.000000000000000e+00 -1.948257777615048e-11    0.000000000000000e+00  0.000000000000000e+00    0.000000000000000e+00  8.151495131509970e-10    0.000000000000000e+00  0.000000000000000e+00    0.000000000000000e+00 -1.907199000284329e-13   
 0.000000000000000e+00 -1.948631863098251e-11    0.000000000000000e+00  0.000000000000000e+00    0.000000000000000e+00 -8.151495131509970e-10    0.000000000000000e+00  0.000000000000000e+00    0.000000000000000e+00 -1.902237497314785e-13    0.000000000000000e+00  0.000000000000000e+00   
 0.000000000000000e+00  0.000000000000000e+00    0.000000000000000e+00  7.411269470399828e-12    0.000000000000000e+00  0.000000000000000e+00    0.000000000000000e+00  1.902237497314785e-13    0.000000000000000e+00  0.000000000000000e+00    0.000000000000000e+00  1.355340690884940e-09   
 0.000000000000000e+00 -7.413847017417286e-12    0.000000000000000e+00  0.000000000000000e+00    0.000000000000000e+00  1.907199000284329e-13    0.000000000000000e+00  0.000000000000000e+00    0.000000000000000e+00 -1.355340690884940e-09    0.000000000000000e+00  0.000000000000000e+00   
m001      
 7.736035231000470e-10  0.000000000000000e+00    0.000000000000000e+00  0.000000000000000e+00   -7.703062473480962e-10  0.000000000000000e+00    0.000000000000000e+00  0.000000000000000e+00    5.845062963481925e-12  0.000000000000000e+00    0.000000000000000e+00  0.000000000000000e+00   
 0.000000000000000e+00  0.000000000000000e+00   -7.736102099652937e-10  0.000000000000000e+00    0.000000000000000e+00  0.000000000000000e+00   -7.703020380233908e-10  0.000000000000000e+00    0.000000000000000e+00  0.000000000000000e+00   -5.841191058871606e-12  0.000000000000000e+00   
-7.703062473483067e-10  0.000000000000000e+00    0.000000000000000e+00  0.000000000000000e+00    2.697473502559262e-11  0.000000000000000e+00    0.000000000000000e+00  0.000000000000000e+00    6.193734735478207e-10  0.000000000000000e+00    0.000000000000000e+00  0.000000000000000e+00   
 0.000000000000000e+00  0.000000000000000e+00   -7.703020380236026e-10  0.000000000000000e+00    0.000000000000000e+00  0.000000000000000e+00   -2.696698424893042e-11  0.000000000000000e+00    0.000000000000000e+00  0.000000000000000e+00    6.193751133681780e-10  0.000000000000000e+00   
 5.845062956705662e-12  0.000000000000000e+00    0.000000000000000e+00  0.000000000000000e+00    6.193734735477148e-10  0.000000000000000e+00    0.000000000000000e+00  0.000000000000000e+00    6.242672066765638e-14  0.000000000000000e+00    0.000000000000000e+00  0.000000000000000e+00   
 0.000000000000000e+00  0.000000000000000e+00   -5.841191054635201e-12  0.000000000000000e+00    0.000000000000000e+00  0.000000000000000e+00    6.193751133597573e-10  0.000000000000000e+00    0.000000000000000e+00  0.000000000000000e+00   -6.204142653912707e-14  0.000000000000000e+00   
al        
-1.003020993651985e-06  0.000000000000000e+00    0.000000000000000e+00  0.000000000000000e+00    9.121173190141709e-09  0.000000000000000e+00    0.000000000000000e+00  0.000000000000000e+00    6.750965295448141e-09  0.000000000000000e+00    0.000000000000000e+00  0.000000000000000e+00   
 0.000000000000000e+00  0.000000000000000e+00   -1.003021023112160e-06  0.000000000000000e+00    0.000000000000000e+00  0.000000000000000e+00   -9.118503935879870e-09  0.000000000000000e+00    0.000000000000000e+00  0.000000000000000e+00    6.750983217828958e-09  0.000000000000000e+00   
 9.121173190139170e-09  0.000000000000000e+00    0.000000000000000e+00  0.000000000000000e+00   -2.589779526769174e-07  0.000000000000000e+00    0.000000000000000e+00  0.000000000000000e+00   -1.723787893062451e-10  0.000000000000000e+00    0.000000000000000e+00  0.000000000000000e+00   
 0.000000000000000e+00  0.000000000000000e+00   -9.118503935893634e-09  0.000000000000000e+00    0.000000000000000e+00  0.000000000000000e+00   -2.589778675249702e-07  0.000000000000000e+00    0.000000000000000e+00  0.000000000000000e+00    1.707126863195891e-10  0.000000000000000e+00   
 6.750965295500339e-09  0.000000000000000e+00    0.000000000000000e+00  0.000000000000000e+00   -1.723787893053947e-10  0.000000000000000e+00    0.000000000000000e+00  0.000000000000000e+00    1.230665361288140e-06  0.000000000000000e+00    0.000000000000000e+00  0.000000000000000e+00   
 0.000000000000000e+00  0.000000000000000e+00    6.750983217872157e-09  0.000000000000000e+00    0.000000000000000e+00  0.000000000000000e+00    1.707126864385989e-10  0.000000000000000e+00    0.000000000000000e+00  0.000000000000000e+00    1.230665286028339e-06  0.000000000000000e+00   
EQHYP     
 9.056573606865887e-04  0.000000000000000e+00    0.000000000000000e+00  0.000000000000000e+00   -2.576473895991980e-09  0.000000000000000e+00    0.000000000000000e+00  0.000000000000000e+00    5.397300581355437e-09  0.000000000000000e+00    0.000000000000000e+00  0.000000000000000e+00   
 0.000000000000000e+00  0.000000000000000e+00    9.056573606966330e-04  0.000000000000000e+00    0.000000000000000e+00  0.000000000000000e+00    1.470426688130130e-10  0.000000000000000e+00    0.000000000000000e+00  0.000000000000000e+00    5.398325608897933e-09  0.000000000000000e+00   
-2.576473895991974e-09  0.000000000000000e+00    0.000000000000000e+00  0.000000000000000e+00    2.336175960969450e-04  0.000000000000000e+00    0.000000000000000e+00  0.000000000000000e+00    3.172531494404032e-09  0.000000000000000e+00    0.000000000000000e+00  0.000000000000000e+00   
 0.000000000000000e+00  0.000000000000000e+00    1.470426688131454e-10  0.000000000000000e+00    0.000000000000000e+00  0.000000000000000e+00    2.336175960921639e-04  0.000000000000000e+00    0.000000000000000e+00  0.000000000000000e+00   -1.685967095032953e-09  0.000000000000000e+00   
 5.397300581355463e-09  0.000000000000000e+00    0.000000000000000e+00  0.000000000000000e+00    3.172531494404037e-09  0.000000000000000e+00    0.000000000000000e+00  0.000000000000000e+00   -1.109751400637878e-03  0.000000000000000e+00    0.000000000000000e+00  0.000000000000000e+00   
 0.000000000000000e+00  0.000000000000000e+00    5.398325608897933e-09  0.000000000000000e+00    0.000000000000000e+00  0.000000000000000e+00   -1.685967095032900e-09  0.000000000000000e+00    0.000000000000000e+00  0.000000000000000e+00   -1.109751400643040e-03  0.000000000000000e+00   
