# Eu YSO Site 1 Energy
1          0.00   
2        301.0
3        401.0
4 401.0
5 921.0
50 17248.0
51 18993.0
52 19018.0
53 19018.0
54 21446.0
55 21478.0
56 21480.0
57 21507.0
58 21514.0
59 24357.0
66 24988.0
68 25023.0
69 25054.0
70 25102.0
71 25114.0
72 25143.0
73 25200.0
74 25206.0
75 25267.0
77 25306.0
78 25327.0
156 27585.0
157 27602.0
162 27650.0
164 27690.0
260 32953.0


