  File "euyso_site1_test.py", line 80
    'HYP'        :                   0.0;
                                        ^
SyntaxError: invalid syntax
0.04user 0.03system 0:00.18elapsed 40%CPU (0avgtext+0avgdata 4680maxresident)k
0inputs+8outputs (0major+1324minor)pagefaults 0swaps
