[[  1.     3.    29.03]
 [  1.     5.    56.02]
 [295.   297.    43.09]
 [295.   299.    96.69]]
[[1.00000000e+00 3.00000000e+00 9.68627070e-04]
 [1.00000000e+00 5.00000000e+00 1.86918665e-03]
 [2.95000000e+02 2.97000000e+02 1.43775889e-03]
 [2.95000000e+02 2.99000000e+02 3.22619881e-03]]
Traceback (most recent call last):
  File "euyso_site1_test.py", line 160, in <module>
    h.set_coeff(coeff)
  File "pycf/cfl.pyx", line 368, in pycf.cfl.Hamiltonian.set_coeff
  File "pycf/cfl.pyx", line 393, in pycf.cfl.Hamiltonian.set_coeff
KeyError: 'Missing coefficient for tensor: HYP'
76.24user 1.12system 1:18.26elapsed 98%CPU (0avgtext+0avgdata 214720maxresident)k
0inputs+16outputs (1major+192722minor)pagefaults 0swaps
