[[  1.     3.    29.03]
 [  1.     5.    56.02]
 [295.   297.    43.09]
 [295.   299.    96.69]]
[[1.00000000e+00 3.00000000e+00 9.68627070e-04]
 [1.00000000e+00 5.00000000e+00 1.86918665e-03]
 [2.95000000e+02 2.97000000e+02 1.43775889e-03]
 [2.95000000e+02 2.99000000e+02 3.22619881e-03]]
46216.99user 349.72system 1:42:09elapsed 759%CPU (0avgtext+0avgdata 979392maxresident)k
0inputs+648outputs (1major+4087190minor)pagefaults 0swaps
